([('web_agent',
   '/root/loganal/agent/build/web_agent/web_agent',
   'EXECUTABLE'),
  ('libpython2.7.so.1.0', '/lib64/libpython2.7.so.1.0', 'BINARY'),
  ('_multiarray_tests.so',
   '/usr/lib64/python2.7/site-packages/numpy/core/_multiarray_tests.so',
   'BINARY'),
  ('_struct_ufunc_tests.so',
   '/usr/lib64/python2.7/site-packages/numpy/core/_struct_ufunc_tests.so',
   'BINARY'),
  ('_rational_tests.so',
   '/usr/lib64/python2.7/site-packages/numpy/core/_rational_tests.so',
   'BINARY'),
  ('_dummy.so',
   '/usr/lib64/python2.7/site-packages/numpy/core/_dummy.so',
   'BINARY'),
  ('_multiarray_umath.so',
   '/usr/lib64/python2.7/site-packages/numpy/core/_multiarray_umath.so',
   'BINARY'),
  ('_operand_flag_tests.so',
   '/usr/lib64/python2.7/site-packages/numpy/core/_operand_flag_tests.so',
   'BINARY'),
  ('_umath_tests.so',
   '/usr/lib64/python2.7/site-packages/numpy/core/_umath_tests.so',
   'BINARY'),
  ('_multiprocessing',
   '/usr/lib64/python2.7/lib-dynload/_multiprocessing.so',
   'EXTENSION'),
  ('_random',
   '/usr/lib64/python2.7/lib-dynload/_randommodule.so',
   'EXTENSION'),
  ('_struct', '/usr/lib64/python2.7/lib-dynload/_struct.so', 'EXTENSION'),
  ('fcntl', '/usr/lib64/python2.7/lib-dynload/fcntlmodule.so', 'EXTENSION'),
  ('_io', '/usr/lib64/python2.7/lib-dynload/_io.so', 'EXTENSION'),
  ('readline', '/usr/lib64/python2.7/lib-dynload/readline.so', 'EXTENSION'),
  ('strop', '/usr/lib64/python2.7/lib-dynload/stropmodule.so', 'EXTENSION'),
  ('_locale',
   '/usr/lib64/python2.7/lib-dynload/_localemodule.so',
   'EXTENSION'),
  ('unicodedata',
   '/usr/lib64/python2.7/lib-dynload/unicodedata.so',
   'EXTENSION'),
  ('_multibytecodec',
   '/usr/lib64/python2.7/lib-dynload/_multibytecodecmodule.so',
   'EXTENSION'),
  ('_codecs_cn',
   '/usr/lib64/python2.7/lib-dynload/_codecs_cn.so',
   'EXTENSION'),
  ('_codecs_jp',
   '/usr/lib64/python2.7/lib-dynload/_codecs_jp.so',
   'EXTENSION'),
  ('_codecs_hk',
   '/usr/lib64/python2.7/lib-dynload/_codecs_hk.so',
   'EXTENSION'),
  ('_codecs_tw',
   '/usr/lib64/python2.7/lib-dynload/_codecs_tw.so',
   'EXTENSION'),
  ('_codecs_iso2022',
   '/usr/lib64/python2.7/lib-dynload/_codecs_iso2022.so',
   'EXTENSION'),
  ('bz2', '/usr/lib64/python2.7/lib-dynload/bz2.so', 'EXTENSION'),
  ('zlib', '/usr/lib64/python2.7/lib-dynload/zlibmodule.so', 'EXTENSION'),
  ('_codecs_kr',
   '/usr/lib64/python2.7/lib-dynload/_codecs_kr.so',
   'EXTENSION'),
  ('cPickle', '/usr/lib64/python2.7/lib-dynload/cPickle.so', 'EXTENSION'),
  ('itertools',
   '/usr/lib64/python2.7/lib-dynload/itertoolsmodule.so',
   'EXTENSION'),
  ('_heapq', '/usr/lib64/python2.7/lib-dynload/_heapq.so', 'EXTENSION'),
  ('operator', '/usr/lib64/python2.7/lib-dynload/operator.so', 'EXTENSION'),
  ('_collections',
   '/usr/lib64/python2.7/lib-dynload/_collectionsmodule.so',
   'EXTENSION'),
  ('cStringIO', '/usr/lib64/python2.7/lib-dynload/cStringIO.so', 'EXTENSION'),
  ('_hashlib', '/usr/lib64/python2.7/lib-dynload/_hashlib.so', 'EXTENSION'),
  ('binascii', '/usr/lib64/python2.7/lib-dynload/binascii.so', 'EXTENSION'),
  ('math', '/usr/lib64/python2.7/lib-dynload/math.so', 'EXTENSION'),
  ('_functools',
   '/usr/lib64/python2.7/lib-dynload/_functoolsmodule.so',
   'EXTENSION'),
  ('grp', '/usr/lib64/python2.7/lib-dynload/grpmodule.so', 'EXTENSION'),
  ('select', '/usr/lib64/python2.7/lib-dynload/selectmodule.so', 'EXTENSION'),
  ('_ctypes', '/usr/lib64/python2.7/lib-dynload/_ctypes.so', 'EXTENSION'),
  ('mmap', '/usr/lib64/python2.7/lib-dynload/mmapmodule.so', 'EXTENSION'),
  ('_bisect',
   '/usr/lib64/python2.7/lib-dynload/_bisectmodule.so',
   'EXTENSION'),
  ('array', '/usr/lib64/python2.7/lib-dynload/arraymodule.so', 'EXTENSION'),
  ('_ssl', '/usr/lib64/python2.7/lib-dynload/_ssl.so', 'EXTENSION'),
  ('_socket',
   '/usr/lib64/python2.7/lib-dynload/_socketmodule.so',
   'EXTENSION'),
  ('termios', '/usr/lib64/python2.7/lib-dynload/termios.so', 'EXTENSION'),
  ('pyexpat', '/usr/lib64/python2.7/lib-dynload/pyexpat.so', 'EXTENSION'),
  ('time', '/usr/lib64/python2.7/lib-dynload/timemodule.so', 'EXTENSION'),
  ('pandas._libs.tslibs.frequencies',
   '/usr/lib64/python2.7/site-packages/pandas/_libs/tslibs/frequencies.so',
   'EXTENSION'),
  ('pandas._libs.tslibs.strptime',
   '/usr/lib64/python2.7/site-packages/pandas/_libs/tslibs/strptime.so',
   'EXTENSION'),
  ('pandas._libs.tslibs.offsets',
   '/usr/lib64/python2.7/site-packages/pandas/_libs/tslibs/offsets.so',
   'EXTENSION'),
  ('pandas._libs.internals',
   '/usr/lib64/python2.7/site-packages/pandas/_libs/internals.so',
   'EXTENSION'),
  ('pandas._libs.writers',
   '/usr/lib64/python2.7/site-packages/pandas/_libs/writers.so',
   'EXTENSION'),
  ('pandas._libs.properties',
   '/usr/lib64/python2.7/site-packages/pandas/_libs/properties.so',
   'EXTENSION'),
  ('pandas._libs.join',
   '/usr/lib64/python2.7/site-packages/pandas/_libs/join.so',
   'EXTENSION'),
  ('pandas._libs.tslibs.resolution',
   '/usr/lib64/python2.7/site-packages/pandas/_libs/tslibs/resolution.so',
   'EXTENSION'),
  ('pandas._libs.skiplist',
   '/usr/lib64/python2.7/site-packages/pandas/_libs/skiplist.so',
   'EXTENSION'),
  ('pandas._libs.tslibs.period',
   '/usr/lib64/python2.7/site-packages/pandas/_libs/tslibs/period.so',
   'EXTENSION'),
  ('pandas._libs.tslibs.fields',
   '/usr/lib64/python2.7/site-packages/pandas/_libs/tslibs/fields.so',
   'EXTENSION'),
  ('pandas._libs.parsers',
   '/usr/lib64/python2.7/site-packages/pandas/_libs/parsers.so',
   'EXTENSION'),
  ('pandas._libs.tslibs.timezones',
   '/usr/lib64/python2.7/site-packages/pandas/_libs/tslibs/timezones.so',
   'EXTENSION'),
  ('pandas._libs.tslibs.conversion',
   '/usr/lib64/python2.7/site-packages/pandas/_libs/tslibs/conversion.so',
   'EXTENSION'),
  ('pandas._libs.hashing',
   '/usr/lib64/python2.7/site-packages/pandas/_libs/hashing.so',
   'EXTENSION'),
  ('pandas._libs.groupby',
   '/usr/lib64/python2.7/site-packages/pandas/_libs/groupby.so',
   'EXTENSION'),
  ('pandas._libs.algos',
   '/usr/lib64/python2.7/site-packages/pandas/_libs/algos.so',
   'EXTENSION'),
  ('pandas._libs.reshape',
   '/usr/lib64/python2.7/site-packages/pandas/_libs/reshape.so',
   'EXTENSION'),
  ('pandas._libs.index',
   '/usr/lib64/python2.7/site-packages/pandas/_libs/index.so',
   'EXTENSION'),
  ('pandas._libs.tslibs.timedeltas',
   '/usr/lib64/python2.7/site-packages/pandas/_libs/tslibs/timedeltas.so',
   'EXTENSION'),
  ('pandas._libs.tslibs.timestamps',
   '/usr/lib64/python2.7/site-packages/pandas/_libs/tslibs/timestamps.so',
   'EXTENSION'),
  ('pandas._libs.indexing',
   '/usr/lib64/python2.7/site-packages/pandas/_libs/indexing.so',
   'EXTENSION'),
  ('pandas._libs.testing',
   '/usr/lib64/python2.7/site-packages/pandas/_libs/testing.so',
   'EXTENSION'),
  ('pandas._libs.window',
   '/usr/lib64/python2.7/site-packages/pandas/_libs/window.so',
   'EXTENSION'),
  ('pandas._libs.missing',
   '/usr/lib64/python2.7/site-packages/pandas/_libs/missing.so',
   'EXTENSION'),
  ('pandas._libs.tslibs.nattype',
   '/usr/lib64/python2.7/site-packages/pandas/_libs/tslibs/nattype.so',
   'EXTENSION'),
  ('pandas._libs.interval',
   '/usr/lib64/python2.7/site-packages/pandas/_libs/interval.so',
   'EXTENSION'),
  ('pandas._libs.tslibs.parsing',
   '/usr/lib64/python2.7/site-packages/pandas/_libs/tslibs/parsing.so',
   'EXTENSION'),
  ('pandas._libs.reduction',
   '/usr/lib64/python2.7/site-packages/pandas/_libs/reduction.so',
   'EXTENSION'),
  ('pandas._libs.tslibs.np_datetime',
   '/usr/lib64/python2.7/site-packages/pandas/_libs/tslibs/np_datetime.so',
   'EXTENSION'),
  ('pandas._libs.sparse',
   '/usr/lib64/python2.7/site-packages/pandas/_libs/sparse.so',
   'EXTENSION'),
  ('pandas._libs.json',
   '/usr/lib64/python2.7/site-packages/pandas/_libs/json.so',
   'EXTENSION'),
  ('pandas._libs.tslibs.ccalendar',
   '/usr/lib64/python2.7/site-packages/pandas/_libs/tslibs/ccalendar.so',
   'EXTENSION'),
  ('pandas._libs.ops',
   '/usr/lib64/python2.7/site-packages/pandas/_libs/ops.so',
   'EXTENSION'),
  ('_json', '/usr/lib64/python2.7/lib-dynload/_json.so', 'EXTENSION'),
  ('_csv', '/usr/lib64/python2.7/lib-dynload/_csv.so', 'EXTENSION'),
  ('numpy.core._multiarray_umath',
   '/usr/lib64/python2.7/site-packages/numpy/core/_multiarray_umath.so',
   'EXTENSION'),
  ('syslog', '/usr/lib64/python2.7/lib-dynload/syslog.so', 'EXTENSION'),
  ('parser', '/usr/lib64/python2.7/lib-dynload/parsermodule.so', 'EXTENSION'),
  ('numpy.core._multiarray_tests',
   '/usr/lib64/python2.7/site-packages/numpy/core/_multiarray_tests.so',
   'EXTENSION'),
  ('future_builtins',
   '/usr/lib64/python2.7/lib-dynload/future_builtins.so',
   'EXTENSION'),
  ('numpy.linalg._umath_linalg',
   '/usr/lib64/python2.7/site-packages/numpy/linalg/_umath_linalg.so',
   'EXTENSION'),
  ('numpy.linalg.lapack_lite',
   '/usr/lib64/python2.7/site-packages/numpy/linalg/lapack_lite.so',
   'EXTENSION'),
  ('numpy.fft.fftpack_lite',
   '/usr/lib64/python2.7/site-packages/numpy/fft/fftpack_lite.so',
   'EXTENSION'),
  ('_curses', '/usr/lib64/python2.7/lib-dynload/_curses.so', 'EXTENSION'),
  ('_sqlite3', '/usr/lib64/python2.7/lib-dynload/_sqlite3.so', 'EXTENSION'),
  ('sqlalchemy.cprocessors',
   '/usr/lib64/python2.7/site-packages/sqlalchemy/cprocessors.so',
   'EXTENSION'),
  ('sqlalchemy.cresultproxy',
   '/usr/lib64/python2.7/site-packages/sqlalchemy/cresultproxy.so',
   'EXTENSION'),
  ('sqlalchemy.cutils',
   '/usr/lib64/python2.7/site-packages/sqlalchemy/cutils.so',
   'EXTENSION'),
  ('pandas.io.msgpack._unpacker',
   '/usr/lib64/python2.7/site-packages/pandas/io/msgpack/_unpacker.so',
   'EXTENSION'),
  ('pandas.io.msgpack._packer',
   '/usr/lib64/python2.7/site-packages/pandas/io/msgpack/_packer.so',
   'EXTENSION'),
  ('pandas.util._move',
   '/usr/lib64/python2.7/site-packages/pandas/util/_move.so',
   'EXTENSION'),
  ('numpy.random.mtrand',
   '/usr/lib64/python2.7/site-packages/numpy/random/mtrand.so',
   'EXTENSION'),
  ('pandas.io.sas._sas',
   '/usr/lib64/python2.7/site-packages/pandas/io/sas/_sas.so',
   'EXTENSION'),
  ('pandas._libs.tslib',
   '/usr/lib64/python2.7/site-packages/pandas/_libs/tslib.so',
   'EXTENSION'),
  ('pandas._libs.lib',
   '/usr/lib64/python2.7/site-packages/pandas/_libs/lib.so',
   'EXTENSION'),
  ('pandas._libs.hashtable',
   '/usr/lib64/python2.7/site-packages/pandas/_libs/hashtable.so',
   'EXTENSION'),
  ('datetime', '/usr/lib64/python2.7/lib-dynload/datetime.so', 'EXTENSION'),
  ('resource', '/usr/lib64/python2.7/lib-dynload/resource.so', 'EXTENSION'),
  ('libopenblasp-r0-34a18dc3.3.7.so',
   '/usr/lib64/python2.7/site-packages/numpy/core/../.libs/libopenblasp-r0-34a18dc3.3.7.so',
   'BINARY'),
  ('libgfortran-ed201abd.so.3.0.0',
   '/usr/lib64/python2.7/site-packages/numpy/core/../.libs/libgfortran-ed201abd.so.3.0.0',
   'BINARY'),
  ('libtinfo.so.5', '/lib64/libtinfo.so.5', 'BINARY'),
  ('libreadline.so.6', '/lib64/libreadline.so.6', 'BINARY'),
  ('libbz2.so.1', '/lib64/libbz2.so.1', 'BINARY'),
  ('libz.so.1', '/lib64/libz.so.1', 'BINARY'),
  ('libpcre.so.1', '/lib64/libpcre.so.1', 'BINARY'),
  ('libk5crypto.so.3', '/lib64/libk5crypto.so.3', 'BINARY'),
  ('libcom_err.so.2', '/lib64/libcom_err.so.2', 'BINARY'),
  ('libgssapi_krb5.so.2', '/lib64/libgssapi_krb5.so.2', 'BINARY'),
  ('libcrypto.so.10', '/lib64/libcrypto.so.10', 'BINARY'),
  ('libkrb5support.so.0', '/lib64/libkrb5support.so.0', 'BINARY'),
  ('libkeyutils.so.1', '/lib64/libkeyutils.so.1', 'BINARY'),
  ('libkrb5.so.3', '/lib64/libkrb5.so.3', 'BINARY'),
  ('libselinux.so.1', '/lib64/libselinux.so.1', 'BINARY'),
  ('libssl.so.10', '/lib64/libssl.so.10', 'BINARY'),
  ('libffi.so.6', '/lib64/libffi.so.6', 'BINARY'),
  ('libexpat.so.1', '/usr/lib64/libexpat.so.1', 'BINARY'),
  ('libgcc_s.so.1', '/lib64/libgcc_s.so.1', 'BINARY'),
  ('libstdc++.so.6', '/lib64/libstdc++.so.6', 'BINARY'),
  ('libncursesw.so.5', '/lib64/libncursesw.so.5', 'BINARY'),
  ('libsqlite3.so.0', '/lib64/libsqlite3.so.0', 'BINARY'),
  ('pytz/zoneinfo/America/Los_Angeles',
   '/usr/lib/python2.7/site-packages/pytz/zoneinfo/America/Los_Angeles',
   'DATA'),
  ('pytz/zoneinfo/America/Ojinaga',
   '/usr/lib/python2.7/site-packages/pytz/zoneinfo/America/Ojinaga',
   'DATA'),
  ('pytz/zoneinfo/Africa/Kigali',
   '/usr/lib/python2.7/site-packages/pytz/zoneinfo/Africa/Kigali',
   'DATA'),
  ('pytz/zoneinfo/America/Fortaleza',
   '/usr/lib/python2.7/site-packages/pytz/zoneinfo/America/Fortaleza',
   'DATA'),
  ('pytz/zoneinfo/America/Regina',
   '/usr/lib/python2.7/site-packages/pytz/zoneinfo/America/Regina',
   'DATA'),
  ('pytz/zoneinfo/Asia/Colombo',
   '/usr/lib/python2.7/site-packages/pytz/zoneinfo/Asia/Colombo',
   'DATA'),
  ('pytz/zoneinfo/Pacific/Johnston',
   '/usr/lib/python2.7/site-packages/pytz/zoneinfo/Pacific/Johnston',
   'DATA'),
  ('pytz/zoneinfo/Asia/Kolkata',
   '/usr/lib/python2.7/site-packages/pytz/zoneinfo/Asia/Kolkata',
   'DATA'),
  ('pytz/zoneinfo/Africa/Luanda',
   '/usr/lib/python2.7/site-packages/pytz/zoneinfo/Africa/Luanda',
   'DATA'),
  ('pytz/zoneinfo/America/Recife',
   '/usr/lib/python2.7/site-packages/pytz/zoneinfo/America/Recife',
   'DATA'),
  ('pytz/zoneinfo/Pacific/Saipan',
   '/usr/lib/python2.7/site-packages/pytz/zoneinfo/Pacific/Saipan',
   'DATA'),
  ('pytz/zoneinfo/Asia/Almaty',
   '/usr/lib/python2.7/site-packages/pytz/zoneinfo/Asia/Almaty',
   'DATA'),
  ('pytz/zoneinfo/America/Fort_Wayne',
   '/usr/lib/python2.7/site-packages/pytz/zoneinfo/America/Fort_Wayne',
   'DATA'),
  ('pytz/zoneinfo/America/Danmarkshavn',
   '/usr/lib/python2.7/site-packages/pytz/zoneinfo/America/Danmarkshavn',
   'DATA'),
  ('pytz/zoneinfo/Poland',
   '/usr/lib/python2.7/site-packages/pytz/zoneinfo/Poland',
   'DATA'),
  ('pytz/zoneinfo/America/Chicago',
   '/usr/lib/python2.7/site-packages/pytz/zoneinfo/America/Chicago',
   'DATA'),
  ('pytz/zoneinfo/Brazil/West',
   '/usr/lib/python2.7/site-packages/pytz/zoneinfo/Brazil/West',
   'DATA'),
  ('pytz/zoneinfo/Pacific/Apia',
   '/usr/lib/python2.7/site-packages/pytz/zoneinfo/Pacific/Apia',
   'DATA'),
  ('pytz/zoneinfo/Africa/Accra',
   '/usr/lib/python2.7/site-packages/pytz/zoneinfo/Africa/Accra',
   'DATA'),
  ('pytz/zoneinfo/America/Toronto',
   '/usr/lib/python2.7/site-packages/pytz/zoneinfo/America/Toronto',
   'DATA'),
  ('pytz/zoneinfo/Asia/Kuching',
   '/usr/lib/python2.7/site-packages/pytz/zoneinfo/Asia/Kuching',
   'DATA'),
  ('pytz/zoneinfo/America/Indiana/Marengo',
   '/usr/lib/python2.7/site-packages/pytz/zoneinfo/America/Indiana/Marengo',
   'DATA'),
  ('pytz/zoneinfo/Asia/Bahrain',
   '/usr/lib/python2.7/site-packages/pytz/zoneinfo/Asia/Bahrain',
   'DATA'),
  ('pytz/zoneinfo/Singapore',
   '/usr/lib/python2.7/site-packages/pytz/zoneinfo/Singapore',
   'DATA'),
  ('pytz/zoneinfo/America/Argentina/Cordoba',
   '/usr/lib/python2.7/site-packages/pytz/zoneinfo/America/Argentina/Cordoba',
   'DATA'),
  ('lib64/python2.7/config/Makefile',
   '/usr/lib64/python2.7/config/Makefile',
   'DATA'),
  ('pytz/zoneinfo/Europe/Vatican',
   '/usr/lib/python2.7/site-packages/pytz/zoneinfo/Europe/Vatican',
   'DATA'),
  ('pytz/zoneinfo/Canada/Mountain',
   '/usr/lib/python2.7/site-packages/pytz/zoneinfo/Canada/Mountain',
   'DATA'),
  ('pytz/zoneinfo/America/Lima',
   '/usr/lib/python2.7/site-packages/pytz/zoneinfo/America/Lima',
   'DATA'),
  ('pytz/lazy.pyo', '/usr/lib/python2.7/site-packages/pytz/lazy.pyo', 'DATA'),
  ('pytz/zoneinfo/Africa/Addis_Ababa',
   '/usr/lib/python2.7/site-packages/pytz/zoneinfo/Africa/Addis_Ababa',
   'DATA'),
  ('pytz/zoneinfo/Pacific/Pohnpei',
   '/usr/lib/python2.7/site-packages/pytz/zoneinfo/Pacific/Pohnpei',
   'DATA'),
  ('pytz/zoneinfo/Antarctica/DumontDUrville',
   '/usr/lib/python2.7/site-packages/pytz/zoneinfo/Antarctica/DumontDUrville',
   'DATA'),
  ('pytz/zoneinfo/Africa/Tripoli',
   '/usr/lib/python2.7/site-packages/pytz/zoneinfo/Africa/Tripoli',
   'DATA'),
  ('pytz/zoneinfo/Pacific/Efate',
   '/usr/lib/python2.7/site-packages/pytz/zoneinfo/Pacific/Efate',
   'DATA'),
  ('pytz/zoneinfo/Europe/Bucharest',
   '/usr/lib/python2.7/site-packages/pytz/zoneinfo/Europe/Bucharest',
   'DATA'),
  ('pytz/zoneinfo/America/Godthab',
   '/usr/lib/python2.7/site-packages/pytz/zoneinfo/America/Godthab',
   'DATA'),
  ('pytz/zoneinfo/PST8PDT',
   '/usr/lib/python2.7/site-packages/pytz/zoneinfo/PST8PDT',
   'DATA'),
  ('pytz/zoneinfo/America/Indiana/Vincennes',
   '/usr/lib/python2.7/site-packages/pytz/zoneinfo/America/Indiana/Vincennes',
   'DATA'),
  ('pytz/zoneinfo/Asia/Hovd',
   '/usr/lib/python2.7/site-packages/pytz/zoneinfo/Asia/Hovd',
   'DATA'),
  ('pytz/zoneinfo/Europe/Amsterdam',
   '/usr/lib/python2.7/site-packages/pytz/zoneinfo/Europe/Amsterdam',
   'DATA'),
  ('pytz/zoneinfo/America/Indiana/Winamac',
   '/usr/lib/python2.7/site-packages/pytz/zoneinfo/America/Indiana/Winamac',
   'DATA'),
  ('pytz/zoneinfo/America/Caracas',
   '/usr/lib/python2.7/site-packages/pytz/zoneinfo/America/Caracas',
   'DATA'),
  ('pytz/zoneinfo/Etc/GMT+8',
   '/usr/lib/python2.7/site-packages/pytz/zoneinfo/Etc/GMT+8',
   'DATA'),
  ('pytz/zoneinfo/Australia/Tasmania',
   '/usr/lib/python2.7/site-packages/pytz/zoneinfo/Australia/Tasmania',
   'DATA'),
  ('pytz/zoneinfo/Atlantic/Canary',
   '/usr/lib/python2.7/site-packages/pytz/zoneinfo/Atlantic/Canary',
   'DATA'),
  ('pytz/zoneinfo/Etc/Greenwich',
   '/usr/lib/python2.7/site-packages/pytz/zoneinfo/Etc/Greenwich',
   'DATA'),
  ('pytz/zoneinfo/Japan',
   '/usr/lib/python2.7/site-packages/pytz/zoneinfo/Japan',
   'DATA'),
  ('pytz/zoneinfo/Antarctica/McMurdo',
   '/usr/lib/python2.7/site-packages/pytz/zoneinfo/Antarctica/McMurdo',
   'DATA'),
  ('pytz/zoneinfo/Africa/Asmara',
   '/usr/lib/python2.7/site-packages/pytz/zoneinfo/Africa/Asmara',
   'DATA'),
  ('pytz/zoneinfo/Pacific/Enderbury',
   '/usr/lib/python2.7/site-packages/pytz/zoneinfo/Pacific/Enderbury',
   'DATA'),
  ('pytz/zoneinfo/Africa/Johannesburg',
   '/usr/lib/python2.7/site-packages/pytz/zoneinfo/Africa/Johannesburg',
   'DATA'),
  ('pytz/zoneinfo/America/Indiana/Tell_City',
   '/usr/lib/python2.7/site-packages/pytz/zoneinfo/America/Indiana/Tell_City',
   'DATA'),
  ('pytz/zoneinfo/Africa/Dar_es_Salaam',
   '/usr/lib/python2.7/site-packages/pytz/zoneinfo/Africa/Dar_es_Salaam',
   'DATA'),
  ('pytz/zoneinfo/zone.tab',
   '/usr/lib/python2.7/site-packages/pytz/zoneinfo/zone.tab',
   'DATA'),
  ('pytz/zoneinfo/Africa/Gaborone',
   '/usr/lib/python2.7/site-packages/pytz/zoneinfo/Africa/Gaborone',
   'DATA'),
  ('pytz/zoneinfo/Africa/Bamako',
   '/usr/lib/python2.7/site-packages/pytz/zoneinfo/Africa/Bamako',
   'DATA'),
  ('pytz/zoneinfo/America/New_York',
   '/usr/lib/python2.7/site-packages/pytz/zoneinfo/America/New_York',
   'DATA'),
  ('pytz/zoneinfo/Asia/Katmandu',
   '/usr/lib/python2.7/site-packages/pytz/zoneinfo/Asia/Katmandu',
   'DATA'),
  ('pytz/zoneinfo/America/Merida',
   '/usr/lib/python2.7/site-packages/pytz/zoneinfo/America/Merida',
   'DATA'),
  ('pytz/zoneinfo/America/Argentina/ComodRivadavia',
   '/usr/lib/python2.7/site-packages/pytz/zoneinfo/America/Argentina/ComodRivadavia',
   'DATA'),
  ('pytz/zoneinfo/America/Argentina/Catamarca',
   '/usr/lib/python2.7/site-packages/pytz/zoneinfo/America/Argentina/Catamarca',
   'DATA'),
  ('pytz/zoneinfo/America/Denver',
   '/usr/lib/python2.7/site-packages/pytz/zoneinfo/America/Denver',
   'DATA'),
  ('pytz/zoneinfo/America/Araguaina',
   '/usr/lib/python2.7/site-packages/pytz/zoneinfo/America/Araguaina',
   'DATA'),
  ('pytz/zoneinfo/America/Matamoros',
   '/usr/lib/python2.7/site-packages/pytz/zoneinfo/America/Matamoros',
   'DATA'),
  ('pytz/zoneinfo/Indian/Mahe',
   '/usr/lib/python2.7/site-packages/pytz/zoneinfo/Indian/Mahe',
   'DATA'),
  ('pytz/zoneinfo/Factory',
   '/usr/lib/python2.7/site-packages/pytz/zoneinfo/Factory',
   'DATA'),
  ('pytz/zoneinfo/Africa/Ouagadougou',
   '/usr/lib/python2.7/site-packages/pytz/zoneinfo/Africa/Ouagadougou',
   'DATA'),
  ('pytz/zoneinfo/America/Jujuy',
   '/usr/lib/python2.7/site-packages/pytz/zoneinfo/America/Jujuy',
   'DATA'),
  ('pytz/zoneinfo/Etc/GMT-13',
   '/usr/lib/python2.7/site-packages/pytz/zoneinfo/Etc/GMT-13',
   'DATA'),
  ('pytz/zoneinfo/America/Marigot',
   '/usr/lib/python2.7/site-packages/pytz/zoneinfo/America/Marigot',
   'DATA'),
  ('pytz/zoneinfo/Africa/Lusaka',
   '/usr/lib/python2.7/site-packages/pytz/zoneinfo/Africa/Lusaka',
   'DATA'),
  ('pytz/zoneinfo/Etc/GMT+5',
   '/usr/lib/python2.7/site-packages/pytz/zoneinfo/Etc/GMT+5',
   'DATA'),
  ('pytz/zoneinfo/Africa/Mogadishu',
   '/usr/lib/python2.7/site-packages/pytz/zoneinfo/Africa/Mogadishu',
   'DATA'),
  ('pytz/zoneinfo/America/St_Lucia',
   '/usr/lib/python2.7/site-packages/pytz/zoneinfo/America/St_Lucia',
   'DATA'),
  ('pytz/zoneinfo/Pacific/Tarawa',
   '/usr/lib/python2.7/site-packages/pytz/zoneinfo/Pacific/Tarawa',
   'DATA'),
  ('pytz/zoneinfo/Asia/Rangoon',
   '/usr/lib/python2.7/site-packages/pytz/zoneinfo/Asia/Rangoon',
   'DATA'),
  ('pytz/zoneinfo/America/Panama',
   '/usr/lib/python2.7/site-packages/pytz/zoneinfo/America/Panama',
   'DATA'),
  ('pytz/zoneinfo/Australia/Currie',
   '/usr/lib/python2.7/site-packages/pytz/zoneinfo/Australia/Currie',
   'DATA'),
  ('pytz/zoneinfo/Etc/GMT0',
   '/usr/lib/python2.7/site-packages/pytz/zoneinfo/Etc/GMT0',
   'DATA'),
  ('pytz/zoneinfo/Asia/Chita',
   '/usr/lib/python2.7/site-packages/pytz/zoneinfo/Asia/Chita',
   'DATA'),
  ('pytz/zoneinfo/Europe/Belfast',
   '/usr/lib/python2.7/site-packages/pytz/zoneinfo/Europe/Belfast',
   'DATA'),
  ('pytz/zoneinfo/Africa/Timbuktu',
   '/usr/lib/python2.7/site-packages/pytz/zoneinfo/Africa/Timbuktu',
   'DATA'),
  ('pytz/zoneinfo/America/Curacao',
   '/usr/lib/python2.7/site-packages/pytz/zoneinfo/America/Curacao',
   'DATA'),
  ('pytz/zoneinfo/Asia/Ust-Nera',
   '/usr/lib/python2.7/site-packages/pytz/zoneinfo/Asia/Ust-Nera',
   'DATA'),
  ('pytz/zoneinfo/America/Tegucigalpa',
   '/usr/lib/python2.7/site-packages/pytz/zoneinfo/America/Tegucigalpa',
   'DATA'),
  ('pytz/zoneinfo/Asia/Saigon',
   '/usr/lib/python2.7/site-packages/pytz/zoneinfo/Asia/Saigon',
   'DATA'),
  ('pytz/zoneinfo/CET',
   '/usr/lib/python2.7/site-packages/pytz/zoneinfo/CET',
   'DATA'),
  ('pytz/zoneinfo/Asia/Chongqing',
   '/usr/lib/python2.7/site-packages/pytz/zoneinfo/Asia/Chongqing',
   'DATA'),
  ('pytz/zoneinfo/Etc/GMT',
   '/usr/lib/python2.7/site-packages/pytz/zoneinfo/Etc/GMT',
   'DATA'),
  ('pytz/zoneinfo/America/Rankin_Inlet',
   '/usr/lib/python2.7/site-packages/pytz/zoneinfo/America/Rankin_Inlet',
   'DATA'),
  ('pytz/zoneinfo/Australia/West',
   '/usr/lib/python2.7/site-packages/pytz/zoneinfo/Australia/West',
   'DATA'),
  ('pytz/zoneinfo/America/Argentina/Rio_Gallegos',
   '/usr/lib/python2.7/site-packages/pytz/zoneinfo/America/Argentina/Rio_Gallegos',
   'DATA'),
  ('pytz/zoneinfo/Canada/Newfoundland',
   '/usr/lib/python2.7/site-packages/pytz/zoneinfo/Canada/Newfoundland',
   'DATA'),
  ('pytz/zoneinfo/Asia/Jakarta',
   '/usr/lib/python2.7/site-packages/pytz/zoneinfo/Asia/Jakarta',
   'DATA'),
  ('pytz/zoneinfo/EST5EDT',
   '/usr/lib/python2.7/site-packages/pytz/zoneinfo/EST5EDT',
   'DATA'),
  ('pytz/zoneinfo/America/Eirunepe',
   '/usr/lib/python2.7/site-packages/pytz/zoneinfo/America/Eirunepe',
   'DATA'),
  ('pytz/zoneinfo/Pacific/Wallis',
   '/usr/lib/python2.7/site-packages/pytz/zoneinfo/Pacific/Wallis',
   'DATA'),
  ('pytz/zoneinfo/EST',
   '/usr/lib/python2.7/site-packages/pytz/zoneinfo/EST',
   'DATA'),
  ('pytz/zoneinfo/America/Nipigon',
   '/usr/lib/python2.7/site-packages/pytz/zoneinfo/America/Nipigon',
   'DATA'),
  ('pytz/zoneinfo/America/Santa_Isabel',
   '/usr/lib/python2.7/site-packages/pytz/zoneinfo/America/Santa_Isabel',
   'DATA'),
  ('pytz/zoneinfo/Greenwich',
   '/usr/lib/python2.7/site-packages/pytz/zoneinfo/Greenwich',
   'DATA'),
  ('pytz/zoneinfo/Mexico/General',
   '/usr/lib/python2.7/site-packages/pytz/zoneinfo/Mexico/General',
   'DATA'),
  ('pytz/zoneinfo/Africa/Bujumbura',
   '/usr/lib/python2.7/site-packages/pytz/zoneinfo/Africa/Bujumbura',
   'DATA'),
  ('pytz/zoneinfo/Europe/Rome',
   '/usr/lib/python2.7/site-packages/pytz/zoneinfo/Europe/Rome',
   'DATA'),
  ('pytz/zoneinfo/Europe/Vilnius',
   '/usr/lib/python2.7/site-packages/pytz/zoneinfo/Europe/Vilnius',
   'DATA'),
  ('pytz/zoneinfo/Asia/Beirut',
   '/usr/lib/python2.7/site-packages/pytz/zoneinfo/Asia/Beirut',
   'DATA'),
  ('pytz/zoneinfo/America/Indiana/Petersburg',
   '/usr/lib/python2.7/site-packages/pytz/zoneinfo/America/Indiana/Petersburg',
   'DATA'),
  ('pytz/zoneinfo/Europe/Andorra',
   '/usr/lib/python2.7/site-packages/pytz/zoneinfo/Europe/Andorra',
   'DATA'),
  ('pytz/zoneinfo/Pacific/Rarotonga',
   '/usr/lib/python2.7/site-packages/pytz/zoneinfo/Pacific/Rarotonga',
   'DATA'),
  ('pytz/zoneinfo/Europe/Ljubljana',
   '/usr/lib/python2.7/site-packages/pytz/zoneinfo/Europe/Ljubljana',
   'DATA'),
  ('pytz/zoneinfo/America/Thunder_Bay',
   '/usr/lib/python2.7/site-packages/pytz/zoneinfo/America/Thunder_Bay',
   'DATA'),
  ('pytz/zoneinfo/Etc/GMT-5',
   '/usr/lib/python2.7/site-packages/pytz/zoneinfo/Etc/GMT-5',
   'DATA'),
  ('pytz/zoneinfo/leapseconds',
   '/usr/lib/python2.7/site-packages/pytz/zoneinfo/leapseconds',
   'DATA'),
  ('pytz/zoneinfo/Etc/GMT-2',
   '/usr/lib/python2.7/site-packages/pytz/zoneinfo/Etc/GMT-2',
   'DATA'),
  ('pytz/zoneinfo/America/Moncton',
   '/usr/lib/python2.7/site-packages/pytz/zoneinfo/America/Moncton',
   'DATA'),
  ('pytz/zoneinfo/Europe/Stockholm',
   '/usr/lib/python2.7/site-packages/pytz/zoneinfo/Europe/Stockholm',
   'DATA'),
  ('pytz/zoneinfo/America/Costa_Rica',
   '/usr/lib/python2.7/site-packages/pytz/zoneinfo/America/Costa_Rica',
   'DATA'),
  ('pytz/zoneinfo/America/Indianapolis',
   '/usr/lib/python2.7/site-packages/pytz/zoneinfo/America/Indianapolis',
   'DATA'),
  ('pytz/zoneinfo/Chile/Continental',
   '/usr/lib/python2.7/site-packages/pytz/zoneinfo/Chile/Continental',
   'DATA'),
  ('pytz/zoneinfo/Europe/Tirane',
   '/usr/lib/python2.7/site-packages/pytz/zoneinfo/Europe/Tirane',
   'DATA'),
  ('pytz/zoneinfo/Pacific/Tongatapu',
   '/usr/lib/python2.7/site-packages/pytz/zoneinfo/Pacific/Tongatapu',
   'DATA'),
  ('pytz/zoneinfo/America/Indiana/Vevay',
   '/usr/lib/python2.7/site-packages/pytz/zoneinfo/America/Indiana/Vevay',
   'DATA'),
  ('pytz/zoneinfo/MET',
   '/usr/lib/python2.7/site-packages/pytz/zoneinfo/MET',
   'DATA'),
  ('pytz/zoneinfo/Pacific/Guam',
   '/usr/lib/python2.7/site-packages/pytz/zoneinfo/Pacific/Guam',
   'DATA'),
  ('pytz/zoneinfo/Asia/Barnaul',
   '/usr/lib/python2.7/site-packages/pytz/zoneinfo/Asia/Barnaul',
   'DATA'),
  ('pytz/zoneinfo/HST',
   '/usr/lib/python2.7/site-packages/pytz/zoneinfo/HST',
   'DATA'),
  ('pytz/zoneinfo/Asia/Harbin',
   '/usr/lib/python2.7/site-packages/pytz/zoneinfo/Asia/Harbin',
   'DATA'),
  ('pytz/zoneinfo/Libya',
   '/usr/lib/python2.7/site-packages/pytz/zoneinfo/Libya',
   'DATA'),
  ('pytz/zoneinfo/America/Knox_IN',
   '/usr/lib/python2.7/site-packages/pytz/zoneinfo/America/Knox_IN',
   'DATA'),
  ('pytz/zoneinfo/Eire',
   '/usr/lib/python2.7/site-packages/pytz/zoneinfo/Eire',
   'DATA'),
  ('pytz/zoneinfo/Asia/Oral',
   '/usr/lib/python2.7/site-packages/pytz/zoneinfo/Asia/Oral',
   'DATA'),
  ('pytz/zoneinfo/Africa/Abidjan',
   '/usr/lib/python2.7/site-packages/pytz/zoneinfo/Africa/Abidjan',
   'DATA'),
  ('pytz/zoneinfo/Pacific/Pitcairn',
   '/usr/lib/python2.7/site-packages/pytz/zoneinfo/Pacific/Pitcairn',
   'DATA'),
  ('pytz/zoneinfo/Pacific/Chuuk',
   '/usr/lib/python2.7/site-packages/pytz/zoneinfo/Pacific/Chuuk',
   'DATA'),
  ('pytz/zoneinfo/Asia/Famagusta',
   '/usr/lib/python2.7/site-packages/pytz/zoneinfo/Asia/Famagusta',
   'DATA'),
  ('pytz/zoneinfo/America/Atikokan',
   '/usr/lib/python2.7/site-packages/pytz/zoneinfo/America/Atikokan',
   'DATA'),
  ('pytz/zoneinfo/zone1970.tab',
   '/usr/lib/python2.7/site-packages/pytz/zoneinfo/zone1970.tab',
   'DATA'),
  ('pytz/zoneinfo/Pacific/Pago_Pago',
   '/usr/lib/python2.7/site-packages/pytz/zoneinfo/Pacific/Pago_Pago',
   'DATA'),
  ('pytz/zoneinfo/Africa/Harare',
   '/usr/lib/python2.7/site-packages/pytz/zoneinfo/Africa/Harare',
   'DATA'),
  ('pytz/zoneinfo/Pacific/Majuro',
   '/usr/lib/python2.7/site-packages/pytz/zoneinfo/Pacific/Majuro',
   'DATA'),
  ('pytz/zoneinfo/Asia/Shanghai',
   '/usr/lib/python2.7/site-packages/pytz/zoneinfo/Asia/Shanghai',
   'DATA'),
  ('pytz/zoneinfo/America/Virgin',
   '/usr/lib/python2.7/site-packages/pytz/zoneinfo/America/Virgin',
   'DATA'),
  ('pytz/zoneinfo/Europe/Gibraltar',
   '/usr/lib/python2.7/site-packages/pytz/zoneinfo/Europe/Gibraltar',
   'DATA'),
  ('pytz/zoneinfo/NZ',
   '/usr/lib/python2.7/site-packages/pytz/zoneinfo/NZ',
   'DATA'),
  ('pytz/zoneinfo/Pacific/Port_Moresby',
   '/usr/lib/python2.7/site-packages/pytz/zoneinfo/Pacific/Port_Moresby',
   'DATA'),
  ('pytz/zoneinfo/Asia/Yekaterinburg',
   '/usr/lib/python2.7/site-packages/pytz/zoneinfo/Asia/Yekaterinburg',
   'DATA'),
  ('pytz/zoneinfo/Etc/Zulu',
   '/usr/lib/python2.7/site-packages/pytz/zoneinfo/Etc/Zulu',
   'DATA'),
  ('pytz/zoneinfo/Asia/Qostanay',
   '/usr/lib/python2.7/site-packages/pytz/zoneinfo/Asia/Qostanay',
   'DATA'),
  ('pytz/zoneinfo/Africa/Sao_Tome',
   '/usr/lib/python2.7/site-packages/pytz/zoneinfo/Africa/Sao_Tome',
   'DATA'),
  ('pytz/zoneinfo/Etc/GMT+9',
   '/usr/lib/python2.7/site-packages/pytz/zoneinfo/Etc/GMT+9',
   'DATA'),
  ('pytz/zoneinfo/ROK',
   '/usr/lib/python2.7/site-packages/pytz/zoneinfo/ROK',
   'DATA'),
  ('pytz/zoneinfo/Africa/Lagos',
   '/usr/lib/python2.7/site-packages/pytz/zoneinfo/Africa/Lagos',
   'DATA'),
  ('pytz/zoneinfo/America/Argentina/Jujuy',
   '/usr/lib/python2.7/site-packages/pytz/zoneinfo/America/Argentina/Jujuy',
   'DATA'),
  ('pytz/zoneinfo/Asia/Kabul',
   '/usr/lib/python2.7/site-packages/pytz/zoneinfo/Asia/Kabul',
   'DATA'),
  ('pytz/__init__.pyo',
   '/usr/lib/python2.7/site-packages/pytz/__init__.pyo',
   'DATA'),
  ('pytz/zoneinfo/Asia/Tel_Aviv',
   '/usr/lib/python2.7/site-packages/pytz/zoneinfo/Asia/Tel_Aviv',
   'DATA'),
  ('pytz/zoneinfo/Etc/GMT-4',
   '/usr/lib/python2.7/site-packages/pytz/zoneinfo/Etc/GMT-4',
   'DATA'),
  ('pytz/zoneinfo/America/Lower_Princes',
   '/usr/lib/python2.7/site-packages/pytz/zoneinfo/America/Lower_Princes',
   'DATA'),
  ('pytz/zoneinfo/Antarctica/South_Pole',
   '/usr/lib/python2.7/site-packages/pytz/zoneinfo/Antarctica/South_Pole',
   'DATA'),
  ('pytz/zoneinfo/Asia/Nicosia',
   '/usr/lib/python2.7/site-packages/pytz/zoneinfo/Asia/Nicosia',
   'DATA'),
  ('pytz/zoneinfo/UCT',
   '/usr/lib/python2.7/site-packages/pytz/zoneinfo/UCT',
   'DATA'),
  ('pytz/zoneinfo/Asia/Atyrau',
   '/usr/lib/python2.7/site-packages/pytz/zoneinfo/Asia/Atyrau',
   'DATA'),
  ('pytz/zoneinfo/Pacific/Fiji',
   '/usr/lib/python2.7/site-packages/pytz/zoneinfo/Pacific/Fiji',
   'DATA'),
  ('pytz/zoneinfo/America/Indiana/Indianapolis',
   '/usr/lib/python2.7/site-packages/pytz/zoneinfo/America/Indiana/Indianapolis',
   'DATA'),
  ('pytz/zoneinfo/ROC',
   '/usr/lib/python2.7/site-packages/pytz/zoneinfo/ROC',
   'DATA'),
  ('pytz/zoneinfo/America/Guadeloupe',
   '/usr/lib/python2.7/site-packages/pytz/zoneinfo/America/Guadeloupe',
   'DATA'),
  ('pytz/zoneinfo/Africa/El_Aaiun',
   '/usr/lib/python2.7/site-packages/pytz/zoneinfo/Africa/El_Aaiun',
   'DATA'),
  ('pytz/zoneinfo/Africa/Conakry',
   '/usr/lib/python2.7/site-packages/pytz/zoneinfo/Africa/Conakry',
   'DATA'),
  ('pytz/zoneinfo/America/Belem',
   '/usr/lib/python2.7/site-packages/pytz/zoneinfo/America/Belem',
   'DATA'),
  ('pytz/zoneinfo/Asia/Dili',
   '/usr/lib/python2.7/site-packages/pytz/zoneinfo/Asia/Dili',
   'DATA'),
  ('pytz/zoneinfo/Asia/Aqtau',
   '/usr/lib/python2.7/site-packages/pytz/zoneinfo/Asia/Aqtau',
   'DATA'),
  ('pytz/zoneinfo/Turkey',
   '/usr/lib/python2.7/site-packages/pytz/zoneinfo/Turkey',
   'DATA'),
  ('pytz/zoneinfo/Africa/Douala',
   '/usr/lib/python2.7/site-packages/pytz/zoneinfo/Africa/Douala',
   'DATA'),
  ('pytz/zoneinfo/Antarctica/Troll',
   '/usr/lib/python2.7/site-packages/pytz/zoneinfo/Antarctica/Troll',
   'DATA'),
  ('pytz/zoneinfo/Pacific/Norfolk',
   '/usr/lib/python2.7/site-packages/pytz/zoneinfo/Pacific/Norfolk',
   'DATA'),
  ('pytz/zoneinfo/Arctic/Longyearbyen',
   '/usr/lib/python2.7/site-packages/pytz/zoneinfo/Arctic/Longyearbyen',
   'DATA'),
  ('pytz/zoneinfo/America/Punta_Arenas',
   '/usr/lib/python2.7/site-packages/pytz/zoneinfo/America/Punta_Arenas',
   'DATA'),
  ('pytz/zoneinfo/Europe/London',
   '/usr/lib/python2.7/site-packages/pytz/zoneinfo/Europe/London',
   'DATA'),
  ('pytz/zoneinfo/Pacific/Midway',
   '/usr/lib/python2.7/site-packages/pytz/zoneinfo/Pacific/Midway',
   'DATA'),
  ('pytz/zoneinfo/Africa/Lome',
   '/usr/lib/python2.7/site-packages/pytz/zoneinfo/Africa/Lome',
   'DATA'),
  ('pytz/zoneinfo/Asia/Jayapura',
   '/usr/lib/python2.7/site-packages/pytz/zoneinfo/Asia/Jayapura',
   'DATA'),
  ('pytz/zoneinfo/America/Cambridge_Bay',
   '/usr/lib/python2.7/site-packages/pytz/zoneinfo/America/Cambridge_Bay',
   'DATA'),
  ('pytz/zoneinfo/America/Louisville',
   '/usr/lib/python2.7/site-packages/pytz/zoneinfo/America/Louisville',
   'DATA'),
  ('pytz/zoneinfo/Indian/Chagos',
   '/usr/lib/python2.7/site-packages/pytz/zoneinfo/Indian/Chagos',
   'DATA'),
  ('pytz/zoneinfo/Pacific/Wake',
   '/usr/lib/python2.7/site-packages/pytz/zoneinfo/Pacific/Wake',
   'DATA'),
  ('pytz/zoneinfo/Africa/Banjul',
   '/usr/lib/python2.7/site-packages/pytz/zoneinfo/Africa/Banjul',
   'DATA'),
  ('pytz/zoneinfo/Europe/Guernsey',
   '/usr/lib/python2.7/site-packages/pytz/zoneinfo/Europe/Guernsey',
   'DATA'),
  ('pytz/zoneinfo/Etc/GMT+4',
   '/usr/lib/python2.7/site-packages/pytz/zoneinfo/Etc/GMT+4',
   'DATA'),
  ('pytz/zoneinfo/America/Cayman',
   '/usr/lib/python2.7/site-packages/pytz/zoneinfo/America/Cayman',
   'DATA'),
  ('pytz/zoneinfo/America/Whitehorse',
   '/usr/lib/python2.7/site-packages/pytz/zoneinfo/America/Whitehorse',
   'DATA'),
  ('pytz/zoneinfo/America/Santarem',
   '/usr/lib/python2.7/site-packages/pytz/zoneinfo/America/Santarem',
   'DATA'),
  ('pytz/zoneinfo/EET',
   '/usr/lib/python2.7/site-packages/pytz/zoneinfo/EET',
   'DATA'),
  ('pytz/zoneinfo/Europe/Riga',
   '/usr/lib/python2.7/site-packages/pytz/zoneinfo/Europe/Riga',
   'DATA'),
  ('pytz/zoneinfo/Australia/Queensland',
   '/usr/lib/python2.7/site-packages/pytz/zoneinfo/Australia/Queensland',
   'DATA'),
  ('pytz/zoneinfo/posixrules',
   '/usr/lib/python2.7/site-packages/pytz/zoneinfo/posixrules',
   'DATA'),
  ('pytz/zoneinfo/America/Rosario',
   '/usr/lib/python2.7/site-packages/pytz/zoneinfo/America/Rosario',
   'DATA'),
  ('pytz/zoneinfo/America/Bogota',
   '/usr/lib/python2.7/site-packages/pytz/zoneinfo/America/Bogota',
   'DATA'),
  ('pytz/zoneinfo/America/Aruba',
   '/usr/lib/python2.7/site-packages/pytz/zoneinfo/America/Aruba',
   'DATA'),
  ('pytz/zoneinfo/Atlantic/Jan_Mayen',
   '/usr/lib/python2.7/site-packages/pytz/zoneinfo/Atlantic/Jan_Mayen',
   'DATA'),
  ('pytz/zoneinfo/Iran',
   '/usr/lib/python2.7/site-packages/pytz/zoneinfo/Iran',
   'DATA'),
  ('pytz/zoneinfo/Asia/Chungking',
   '/usr/lib/python2.7/site-packages/pytz/zoneinfo/Asia/Chungking',
   'DATA'),
  ('pytz/zoneinfo/W-SU',
   '/usr/lib/python2.7/site-packages/pytz/zoneinfo/W-SU',
   'DATA'),
  ('pytz/zoneinfo/Asia/Ulaanbaatar',
   '/usr/lib/python2.7/site-packages/pytz/zoneinfo/Asia/Ulaanbaatar',
   'DATA'),
  ('pytz/zoneinfo/Asia/Irkutsk',
   '/usr/lib/python2.7/site-packages/pytz/zoneinfo/Asia/Irkutsk',
   'DATA'),
  ('pytz/zoneinfo/Africa/Libreville',
   '/usr/lib/python2.7/site-packages/pytz/zoneinfo/Africa/Libreville',
   'DATA'),
  ('pytz/zoneinfo/Europe/Vaduz',
   '/usr/lib/python2.7/site-packages/pytz/zoneinfo/Europe/Vaduz',
   'DATA'),
  ('pytz/zoneinfo/Asia/Ashgabat',
   '/usr/lib/python2.7/site-packages/pytz/zoneinfo/Asia/Ashgabat',
   'DATA'),
  ('pytz/zoneinfo/Iceland',
   '/usr/lib/python2.7/site-packages/pytz/zoneinfo/Iceland',
   'DATA'),
  ('pytz/zoneinfo/Canada/Eastern',
   '/usr/lib/python2.7/site-packages/pytz/zoneinfo/Canada/Eastern',
   'DATA'),
  ('pytz/zoneinfo/Antarctica/Syowa',
   '/usr/lib/python2.7/site-packages/pytz/zoneinfo/Antarctica/Syowa',
   'DATA'),
  ('pytz/zoneinfo/Indian/Maldives',
   '/usr/lib/python2.7/site-packages/pytz/zoneinfo/Indian/Maldives',
   'DATA'),
  ('pytz/zoneinfo/Asia/Choibalsan',
   '/usr/lib/python2.7/site-packages/pytz/zoneinfo/Asia/Choibalsan',
   'DATA'),
  ('pytz/zoneinfo/Etc/GMT+11',
   '/usr/lib/python2.7/site-packages/pytz/zoneinfo/Etc/GMT+11',
   'DATA'),
  ('pytz/zoneinfo/America/Asuncion',
   '/usr/lib/python2.7/site-packages/pytz/zoneinfo/America/Asuncion',
   'DATA'),
  ('pytz/zoneinfo/Canada/Saskatchewan',
   '/usr/lib/python2.7/site-packages/pytz/zoneinfo/Canada/Saskatchewan',
   'DATA'),
  ('pytz/zoneinfo/America/Antigua',
   '/usr/lib/python2.7/site-packages/pytz/zoneinfo/America/Antigua',
   'DATA'),
  ('pytz/zoneinfo/Europe/Luxembourg',
   '/usr/lib/python2.7/site-packages/pytz/zoneinfo/Europe/Luxembourg',
   'DATA'),
  ('pytz/zoneinfo/Asia/Bishkek',
   '/usr/lib/python2.7/site-packages/pytz/zoneinfo/Asia/Bishkek',
   'DATA'),
  ('pytz/zoneinfo/Europe/Chisinau',
   '/usr/lib/python2.7/site-packages/pytz/zoneinfo/Europe/Chisinau',
   'DATA'),
  ('pytz/zoneinfo/Antarctica/Rothera',
   '/usr/lib/python2.7/site-packages/pytz/zoneinfo/Antarctica/Rothera',
   'DATA'),
  ('pytz/zoneinfo/America/Pangnirtung',
   '/usr/lib/python2.7/site-packages/pytz/zoneinfo/America/Pangnirtung',
   'DATA'),
  ('pytz/zoneinfo/Pacific/Ponape',
   '/usr/lib/python2.7/site-packages/pytz/zoneinfo/Pacific/Ponape',
   'DATA'),
  ('pytz/zoneinfo/Etc/UTC',
   '/usr/lib/python2.7/site-packages/pytz/zoneinfo/Etc/UTC',
   'DATA'),
  ('pytz/zoneinfo/Zulu',
   '/usr/lib/python2.7/site-packages/pytz/zoneinfo/Zulu',
   'DATA'),
  ('pytz/zoneinfo/America/Miquelon',
   '/usr/lib/python2.7/site-packages/pytz/zoneinfo/America/Miquelon',
   'DATA'),
  ('pytz/tzinfo.pyo',
   '/usr/lib/python2.7/site-packages/pytz/tzinfo.pyo',
   'DATA'),
  ('pytz/zoneinfo/Australia/Canberra',
   '/usr/lib/python2.7/site-packages/pytz/zoneinfo/Australia/Canberra',
   'DATA'),
  ('pytz/zoneinfo/Asia/Sakhalin',
   '/usr/lib/python2.7/site-packages/pytz/zoneinfo/Asia/Sakhalin',
   'DATA'),
  ('pytz/zoneinfo/America/Jamaica',
   '/usr/lib/python2.7/site-packages/pytz/zoneinfo/America/Jamaica',
   'DATA'),
  ('pytz/zoneinfo/Australia/Broken_Hill',
   '/usr/lib/python2.7/site-packages/pytz/zoneinfo/Australia/Broken_Hill',
   'DATA'),
  ('pytz/zoneinfo/Australia/North',
   '/usr/lib/python2.7/site-packages/pytz/zoneinfo/Australia/North',
   'DATA'),
  ('pytz/zoneinfo/America/Hermosillo',
   '/usr/lib/python2.7/site-packages/pytz/zoneinfo/America/Hermosillo',
   'DATA'),
  ('pytz/zoneinfo/Europe/San_Marino',
   '/usr/lib/python2.7/site-packages/pytz/zoneinfo/Europe/San_Marino',
   'DATA'),
  ('pytz/zoneinfo/Australia/Brisbane',
   '/usr/lib/python2.7/site-packages/pytz/zoneinfo/Australia/Brisbane',
   'DATA'),
  ('pytz/zoneinfo/America/Havana',
   '/usr/lib/python2.7/site-packages/pytz/zoneinfo/America/Havana',
   'DATA'),
  ('pytz/zoneinfo/Asia/Ulan_Bator',
   '/usr/lib/python2.7/site-packages/pytz/zoneinfo/Asia/Ulan_Bator',
   'DATA'),
  ('pytz/zoneinfo/Europe/Berlin',
   '/usr/lib/python2.7/site-packages/pytz/zoneinfo/Europe/Berlin',
   'DATA'),
  ('pytz/zoneinfo/Africa/Maseru',
   '/usr/lib/python2.7/site-packages/pytz/zoneinfo/Africa/Maseru',
   'DATA'),
  ('pytz/zoneinfo/Europe/Podgorica',
   '/usr/lib/python2.7/site-packages/pytz/zoneinfo/Europe/Podgorica',
   'DATA'),
  ('pytz/zoneinfo/Indian/Antananarivo',
   '/usr/lib/python2.7/site-packages/pytz/zoneinfo/Indian/Antananarivo',
   'DATA'),
  ('pytz/zoneinfo/America/Porto_Velho',
   '/usr/lib/python2.7/site-packages/pytz/zoneinfo/America/Porto_Velho',
   'DATA'),
  ('pytz/zoneinfo/Atlantic/Cape_Verde',
   '/usr/lib/python2.7/site-packages/pytz/zoneinfo/Atlantic/Cape_Verde',
   'DATA'),
  ('pytz/zoneinfo/Africa/Algiers',
   '/usr/lib/python2.7/site-packages/pytz/zoneinfo/Africa/Algiers',
   'DATA'),
  ('pytz/zoneinfo/Australia/NSW',
   '/usr/lib/python2.7/site-packages/pytz/zoneinfo/Australia/NSW',
   'DATA'),
  ('pytz/zoneinfo/Europe/Zagreb',
   '/usr/lib/python2.7/site-packages/pytz/zoneinfo/Europe/Zagreb',
   'DATA'),
  ('pytz/zoneinfo/Pacific/Auckland',
   '/usr/lib/python2.7/site-packages/pytz/zoneinfo/Pacific/Auckland',
   'DATA'),
  ('pytz/zoneinfo/America/Dawson_Creek',
   '/usr/lib/python2.7/site-packages/pytz/zoneinfo/America/Dawson_Creek',
   'DATA'),
  ('pytz/zoneinfo/Europe/Samara',
   '/usr/lib/python2.7/site-packages/pytz/zoneinfo/Europe/Samara',
   'DATA'),
  ('pytz/zoneinfo/Africa/Nairobi',
   '/usr/lib/python2.7/site-packages/pytz/zoneinfo/Africa/Nairobi',
   'DATA'),
  ('pytz/zoneinfo/GMT+0',
   '/usr/lib/python2.7/site-packages/pytz/zoneinfo/GMT+0',
   'DATA'),
  ('pytz/zoneinfo/Etc/GMT-8',
   '/usr/lib/python2.7/site-packages/pytz/zoneinfo/Etc/GMT-8',
   'DATA'),
  ('pytz/zoneinfo/Africa/Windhoek',
   '/usr/lib/python2.7/site-packages/pytz/zoneinfo/Africa/Windhoek',
   'DATA'),
  ('pytz/zoneinfo/Etc/GMT-9',
   '/usr/lib/python2.7/site-packages/pytz/zoneinfo/Etc/GMT-9',
   'DATA'),
  ('pytz/zoneinfo/America/Sao_Paulo',
   '/usr/lib/python2.7/site-packages/pytz/zoneinfo/America/Sao_Paulo',
   'DATA'),
  ('pytz/zoneinfo/Etc/GMT-6',
   '/usr/lib/python2.7/site-packages/pytz/zoneinfo/Etc/GMT-6',
   'DATA'),
  ('pytz/zoneinfo/Asia/Kamchatka',
   '/usr/lib/python2.7/site-packages/pytz/zoneinfo/Asia/Kamchatka',
   'DATA'),
  ('pytz/zoneinfo/America/Mazatlan',
   '/usr/lib/python2.7/site-packages/pytz/zoneinfo/America/Mazatlan',
   'DATA'),
  ('pytz/zoneinfo/Atlantic/Reykjavik',
   '/usr/lib/python2.7/site-packages/pytz/zoneinfo/Atlantic/Reykjavik',
   'DATA'),
  ('pytz/zoneinfo/Africa/Dakar',
   '/usr/lib/python2.7/site-packages/pytz/zoneinfo/Africa/Dakar',
   'DATA'),
  ('pytz/zoneinfo/Portugal',
   '/usr/lib/python2.7/site-packages/pytz/zoneinfo/Portugal',
   'DATA'),
  ('pytz/zoneinfo/Cuba',
   '/usr/lib/python2.7/site-packages/pytz/zoneinfo/Cuba',
   'DATA'),
  ('pytz/zoneinfo/UTC',
   '/usr/lib/python2.7/site-packages/pytz/zoneinfo/UTC',
   'DATA'),
  ('pytz/zoneinfo/Africa/Lubumbashi',
   '/usr/lib/python2.7/site-packages/pytz/zoneinfo/Africa/Lubumbashi',
   'DATA'),
  ('pytz/zoneinfo/Etc/GMT+10',
   '/usr/lib/python2.7/site-packages/pytz/zoneinfo/Etc/GMT+10',
   'DATA'),
  ('pytz/zoneinfo/Europe/Bratislava',
   '/usr/lib/python2.7/site-packages/pytz/zoneinfo/Europe/Bratislava',
   'DATA'),
  ('pytz/zoneinfo/Asia/Tehran',
   '/usr/lib/python2.7/site-packages/pytz/zoneinfo/Asia/Tehran',
   'DATA'),
  ('pytz/zoneinfo/US/Central',
   '/usr/lib/python2.7/site-packages/pytz/zoneinfo/US/Central',
   'DATA'),
  ('pytz/zoneinfo/Etc/GMT+12',
   '/usr/lib/python2.7/site-packages/pytz/zoneinfo/Etc/GMT+12',
   'DATA'),
  ('pytz/zoneinfo/America/Nome',
   '/usr/lib/python2.7/site-packages/pytz/zoneinfo/America/Nome',
   'DATA'),
  ('pytz/zoneinfo/America/Edmonton',
   '/usr/lib/python2.7/site-packages/pytz/zoneinfo/America/Edmonton',
   'DATA'),
  ('pytz/zoneinfo/America/Noronha',
   '/usr/lib/python2.7/site-packages/pytz/zoneinfo/America/Noronha',
   'DATA'),
  ('pytz/zoneinfo/America/Vancouver',
   '/usr/lib/python2.7/site-packages/pytz/zoneinfo/America/Vancouver',
   'DATA'),
  ('pytz/zoneinfo/Etc/GMT-1',
   '/usr/lib/python2.7/site-packages/pytz/zoneinfo/Etc/GMT-1',
   'DATA'),
  ('pytz/zoneinfo/America/Kralendijk',
   '/usr/lib/python2.7/site-packages/pytz/zoneinfo/America/Kralendijk',
   'DATA'),
  ('pytz/zoneinfo/GMT0',
   '/usr/lib/python2.7/site-packages/pytz/zoneinfo/GMT0',
   'DATA'),
  ('pytz/zoneinfo/Europe/Copenhagen',
   '/usr/lib/python2.7/site-packages/pytz/zoneinfo/Europe/Copenhagen',
   'DATA'),
  ('pytz/zoneinfo/Africa/Kinshasa',
   '/usr/lib/python2.7/site-packages/pytz/zoneinfo/Africa/Kinshasa',
   'DATA'),
  ('pytz/zoneinfo/America/Port_of_Spain',
   '/usr/lib/python2.7/site-packages/pytz/zoneinfo/America/Port_of_Spain',
   'DATA'),
  ('pytz/zoneinfo/Europe/Saratov',
   '/usr/lib/python2.7/site-packages/pytz/zoneinfo/Europe/Saratov',
   'DATA'),
  ('pytz/zoneinfo/Asia/Novosibirsk',
   '/usr/lib/python2.7/site-packages/pytz/zoneinfo/Asia/Novosibirsk',
   'DATA'),
  ('pytz/zoneinfo/America/Blanc-Sablon',
   '/usr/lib/python2.7/site-packages/pytz/zoneinfo/America/Blanc-Sablon',
   'DATA'),
  ('pytz/zoneinfo/GMT',
   '/usr/lib/python2.7/site-packages/pytz/zoneinfo/GMT',
   'DATA'),
  ('pytz/zoneinfo/US/East-Indiana',
   '/usr/lib/python2.7/site-packages/pytz/zoneinfo/US/East-Indiana',
   'DATA'),
  ('pytz/zoneinfo/America/Porto_Acre',
   '/usr/lib/python2.7/site-packages/pytz/zoneinfo/America/Porto_Acre',
   'DATA'),
  ('pytz/zoneinfo/Asia/Yakutsk',
   '/usr/lib/python2.7/site-packages/pytz/zoneinfo/Asia/Yakutsk',
   'DATA'),
  ('pytz/zoneinfo/America/Kentucky/Louisville',
   '/usr/lib/python2.7/site-packages/pytz/zoneinfo/America/Kentucky/Louisville',
   'DATA'),
  ('pytz/zoneinfo/Pacific/Palau',
   '/usr/lib/python2.7/site-packages/pytz/zoneinfo/Pacific/Palau',
   'DATA'),
  ('pytz/zoneinfo/Asia/Tashkent',
   '/usr/lib/python2.7/site-packages/pytz/zoneinfo/Asia/Tashkent',
   'DATA'),
  ('pytz/zoneinfo/Europe/Isle_of_Man',
   '/usr/lib/python2.7/site-packages/pytz/zoneinfo/Europe/Isle_of_Man',
   'DATA'),
  ('pytz/zoneinfo/Asia/Qatar',
   '/usr/lib/python2.7/site-packages/pytz/zoneinfo/Asia/Qatar',
   'DATA'),
  ('pytz/zoneinfo/America/Boa_Vista',
   '/usr/lib/python2.7/site-packages/pytz/zoneinfo/America/Boa_Vista',
   'DATA'),
  ('pytz/zoneinfo/Asia/Yangon',
   '/usr/lib/python2.7/site-packages/pytz/zoneinfo/Asia/Yangon',
   'DATA'),
  ('pytz/zoneinfo/Europe/Simferopol',
   '/usr/lib/python2.7/site-packages/pytz/zoneinfo/Europe/Simferopol',
   'DATA'),
  ('pytz/zoneinfo/America/Belize',
   '/usr/lib/python2.7/site-packages/pytz/zoneinfo/America/Belize',
   'DATA'),
  ('pytz/zoneinfo/Pacific/Easter',
   '/usr/lib/python2.7/site-packages/pytz/zoneinfo/Pacific/Easter',
   'DATA'),
  ('pytz/zoneinfo/Pacific/Fakaofo',
   '/usr/lib/python2.7/site-packages/pytz/zoneinfo/Pacific/Fakaofo',
   'DATA'),
  ('pytz/zoneinfo/Asia/Ho_Chi_Minh',
   '/usr/lib/python2.7/site-packages/pytz/zoneinfo/Asia/Ho_Chi_Minh',
   'DATA'),
  ('pytz/tzfile.pyo',
   '/usr/lib/python2.7/site-packages/pytz/tzfile.pyo',
   'DATA'),
  ('pytz/zoneinfo/America/Tortola',
   '/usr/lib/python2.7/site-packages/pytz/zoneinfo/America/Tortola',
   'DATA'),
  ('pytz/zoneinfo/Asia/Ujung_Pandang',
   '/usr/lib/python2.7/site-packages/pytz/zoneinfo/Asia/Ujung_Pandang',
   'DATA'),
  ('pytz/zoneinfo/America/Grenada',
   '/usr/lib/python2.7/site-packages/pytz/zoneinfo/America/Grenada',
   'DATA'),
  ('pytz/zoneinfo/Asia/Taipei',
   '/usr/lib/python2.7/site-packages/pytz/zoneinfo/Asia/Taipei',
   'DATA'),
  ('pytz/zoneinfo/Australia/Perth',
   '/usr/lib/python2.7/site-packages/pytz/zoneinfo/Australia/Perth',
   'DATA'),
  ('pytz/zoneinfo/Indian/Cocos',
   '/usr/lib/python2.7/site-packages/pytz/zoneinfo/Indian/Cocos',
   'DATA'),
  ('pytz/zoneinfo/US/Arizona',
   '/usr/lib/python2.7/site-packages/pytz/zoneinfo/US/Arizona',
   'DATA'),
  ('pytz/zoneinfo/Asia/Pyongyang',
   '/usr/lib/python2.7/site-packages/pytz/zoneinfo/Asia/Pyongyang',
   'DATA'),
  ('pytz/zoneinfo/Atlantic/South_Georgia',
   '/usr/lib/python2.7/site-packages/pytz/zoneinfo/Atlantic/South_Georgia',
   'DATA'),
  ('pytz/zoneinfo/Asia/Phnom_Penh',
   '/usr/lib/python2.7/site-packages/pytz/zoneinfo/Asia/Phnom_Penh',
   'DATA'),
  ('pytz/zoneinfo/Asia/Hong_Kong',
   '/usr/lib/python2.7/site-packages/pytz/zoneinfo/Asia/Hong_Kong',
   'DATA'),
  ('pytz/zoneinfo/America/St_Thomas',
   '/usr/lib/python2.7/site-packages/pytz/zoneinfo/America/St_Thomas',
   'DATA'),
  ('pytz/zoneinfo/America/Coral_Harbour',
   '/usr/lib/python2.7/site-packages/pytz/zoneinfo/America/Coral_Harbour',
   'DATA'),
  ('pytz/zoneinfo/America/Cayenne',
   '/usr/lib/python2.7/site-packages/pytz/zoneinfo/America/Cayenne',
   'DATA'),
  ('pytz/zoneinfo/Etc/GMT-3',
   '/usr/lib/python2.7/site-packages/pytz/zoneinfo/Etc/GMT-3',
   'DATA'),
  ('pytz/zoneinfo/Asia/Ashkhabad',
   '/usr/lib/python2.7/site-packages/pytz/zoneinfo/Asia/Ashkhabad',
   'DATA'),
  ('pytz/zoneinfo/America/St_Vincent',
   '/usr/lib/python2.7/site-packages/pytz/zoneinfo/America/St_Vincent',
   'DATA'),
  ('pytz/zoneinfo/Australia/LHI',
   '/usr/lib/python2.7/site-packages/pytz/zoneinfo/Australia/LHI',
   'DATA'),
  ('pytz/zoneinfo/Pacific/Gambier',
   '/usr/lib/python2.7/site-packages/pytz/zoneinfo/Pacific/Gambier',
   'DATA'),
  ('pytz/zoneinfo/America/Argentina/Ushuaia',
   '/usr/lib/python2.7/site-packages/pytz/zoneinfo/America/Argentina/Ushuaia',
   'DATA'),
  ('pytz/zoneinfo/Asia/Anadyr',
   '/usr/lib/python2.7/site-packages/pytz/zoneinfo/Asia/Anadyr',
   'DATA'),
  ('pytz/zoneinfo/Kwajalein',
   '/usr/lib/python2.7/site-packages/pytz/zoneinfo/Kwajalein',
   'DATA'),
  ('pytz/zoneinfo/America/Chihuahua',
   '/usr/lib/python2.7/site-packages/pytz/zoneinfo/America/Chihuahua',
   'DATA'),
  ('pytz/zoneinfo/Antarctica/Davis',
   '/usr/lib/python2.7/site-packages/pytz/zoneinfo/Antarctica/Davis',
   'DATA'),
  ('pytz/zoneinfo/Asia/Calcutta',
   '/usr/lib/python2.7/site-packages/pytz/zoneinfo/Asia/Calcutta',
   'DATA'),
  ('pytz/zoneinfo/Europe/Brussels',
   '/usr/lib/python2.7/site-packages/pytz/zoneinfo/Europe/Brussels',
   'DATA'),
  ('pytz/zoneinfo/America/Bahia',
   '/usr/lib/python2.7/site-packages/pytz/zoneinfo/America/Bahia',
   'DATA'),
  ('pytz/zoneinfo/NZ-CHAT',
   '/usr/lib/python2.7/site-packages/pytz/zoneinfo/NZ-CHAT',
   'DATA'),
  ('pytz/zoneinfo/Africa/Tunis',
   '/usr/lib/python2.7/site-packages/pytz/zoneinfo/Africa/Tunis',
   'DATA'),
  ('pytz/zoneinfo/America/Cancun',
   '/usr/lib/python2.7/site-packages/pytz/zoneinfo/America/Cancun',
   'DATA'),
  ('pytz/zoneinfo/Chile/EasterIsland',
   '/usr/lib/python2.7/site-packages/pytz/zoneinfo/Chile/EasterIsland',
   'DATA'),
  ('pytz/zoneinfo/America/Cuiaba',
   '/usr/lib/python2.7/site-packages/pytz/zoneinfo/America/Cuiaba',
   'DATA'),
  ('pytz/zoneinfo/Africa/Cairo',
   '/usr/lib/python2.7/site-packages/pytz/zoneinfo/Africa/Cairo',
   'DATA'),
  ('pytz/zoneinfo/Australia/South',
   '/usr/lib/python2.7/site-packages/pytz/zoneinfo/Australia/South',
   'DATA'),
  ('pytz/zoneinfo/Asia/Aden',
   '/usr/lib/python2.7/site-packages/pytz/zoneinfo/Asia/Aden',
   'DATA'),
  ('pytz/zoneinfo/America/Adak',
   '/usr/lib/python2.7/site-packages/pytz/zoneinfo/America/Adak',
   'DATA'),
  ('pytz/zoneinfo/Asia/Srednekolymsk',
   '/usr/lib/python2.7/site-packages/pytz/zoneinfo/Asia/Srednekolymsk',
   'DATA'),
  ('pytz/zoneinfo/America/North_Dakota/New_Salem',
   '/usr/lib/python2.7/site-packages/pytz/zoneinfo/America/North_Dakota/New_Salem',
   'DATA'),
  ('pytz/zoneinfo/Asia/Tokyo',
   '/usr/lib/python2.7/site-packages/pytz/zoneinfo/Asia/Tokyo',
   'DATA'),
  ('pytz/zoneinfo/US/Indiana-Starke',
   '/usr/lib/python2.7/site-packages/pytz/zoneinfo/US/Indiana-Starke',
   'DATA'),
  ('pytz/zoneinfo/America/Grand_Turk',
   '/usr/lib/python2.7/site-packages/pytz/zoneinfo/America/Grand_Turk',
   'DATA'),
  ('pytz/zoneinfo/Africa/Brazzaville',
   '/usr/lib/python2.7/site-packages/pytz/zoneinfo/Africa/Brazzaville',
   'DATA'),
  ('pytz/zoneinfo/Asia/Dacca',
   '/usr/lib/python2.7/site-packages/pytz/zoneinfo/Asia/Dacca',
   'DATA'),
  ('pytz/zoneinfo/Asia/Samarkand',
   '/usr/lib/python2.7/site-packages/pytz/zoneinfo/Asia/Samarkand',
   'DATA'),
  ('pytz/zoneinfo/Australia/Lord_Howe',
   '/usr/lib/python2.7/site-packages/pytz/zoneinfo/Australia/Lord_Howe',
   'DATA'),
  ('pytz/zoneinfo/America/Sitka',
   '/usr/lib/python2.7/site-packages/pytz/zoneinfo/America/Sitka',
   'DATA'),
  ('pytz/zoneinfo/Canada/Yukon',
   '/usr/lib/python2.7/site-packages/pytz/zoneinfo/Canada/Yukon',
   'DATA'),
  ('pytz/zoneinfo/America/Fort_Nelson',
   '/usr/lib/python2.7/site-packages/pytz/zoneinfo/America/Fort_Nelson',
   'DATA'),
  ('pytz/zoneinfo/Indian/Kerguelen',
   '/usr/lib/python2.7/site-packages/pytz/zoneinfo/Indian/Kerguelen',
   'DATA'),
  ('pytz/zoneinfo/Europe/Dublin',
   '/usr/lib/python2.7/site-packages/pytz/zoneinfo/Europe/Dublin',
   'DATA'),
  ('pytz/zoneinfo/Australia/Darwin',
   '/usr/lib/python2.7/site-packages/pytz/zoneinfo/Australia/Darwin',
   'DATA'),
  ('pytz/zoneinfo/America/Guayaquil',
   '/usr/lib/python2.7/site-packages/pytz/zoneinfo/America/Guayaquil',
   'DATA'),
  ('pytz/zoneinfo/Australia/Sydney',
   '/usr/lib/python2.7/site-packages/pytz/zoneinfo/Australia/Sydney',
   'DATA'),
  ('pytz/zoneinfo/Europe/Busingen',
   '/usr/lib/python2.7/site-packages/pytz/zoneinfo/Europe/Busingen',
   'DATA'),
  ('pytz/zoneinfo/America/Argentina/Buenos_Aires',
   '/usr/lib/python2.7/site-packages/pytz/zoneinfo/America/Argentina/Buenos_Aires',
   'DATA'),
  ('pytz/zoneinfo/Atlantic/Stanley',
   '/usr/lib/python2.7/site-packages/pytz/zoneinfo/Atlantic/Stanley',
   'DATA'),
  ('pytz/zoneinfo/Asia/Aqtobe',
   '/usr/lib/python2.7/site-packages/pytz/zoneinfo/Asia/Aqtobe',
   'DATA'),
  ('pytz/zoneinfo/America/Ensenada',
   '/usr/lib/python2.7/site-packages/pytz/zoneinfo/America/Ensenada',
   'DATA'),
  ('pytz/zoneinfo/Mexico/BajaSur',
   '/usr/lib/python2.7/site-packages/pytz/zoneinfo/Mexico/BajaSur',
   'DATA'),
  ('pytz/zoneinfo/Pacific/Galapagos',
   '/usr/lib/python2.7/site-packages/pytz/zoneinfo/Pacific/Galapagos',
   'DATA'),
  ('pytz/zoneinfo/Africa/Malabo',
   '/usr/lib/python2.7/site-packages/pytz/zoneinfo/Africa/Malabo',
   'DATA'),
  ('pytz/zoneinfo/Pacific/Kwajalein',
   '/usr/lib/python2.7/site-packages/pytz/zoneinfo/Pacific/Kwajalein',
   'DATA'),
  ('pytz/zoneinfo/Europe/Tiraspol',
   '/usr/lib/python2.7/site-packages/pytz/zoneinfo/Europe/Tiraspol',
   'DATA'),
  ('pytz/zoneinfo/America/Puerto_Rico',
   '/usr/lib/python2.7/site-packages/pytz/zoneinfo/America/Puerto_Rico',
   'DATA'),
  ('pytz/zoneinfo/Etc/GMT+1',
   '/usr/lib/python2.7/site-packages/pytz/zoneinfo/Etc/GMT+1',
   'DATA'),
  ('pytz/zoneinfo/Europe/Nicosia',
   '/usr/lib/python2.7/site-packages/pytz/zoneinfo/Europe/Nicosia',
   'DATA'),
  ('pytz/zoneinfo/Africa/Mbabane',
   '/usr/lib/python2.7/site-packages/pytz/zoneinfo/Africa/Mbabane',
   'DATA'),
  ('pytz/zoneinfo/America/Anchorage',
   '/usr/lib/python2.7/site-packages/pytz/zoneinfo/America/Anchorage',
   'DATA'),
  ('pytz/zoneinfo/Asia/Magadan',
   '/usr/lib/python2.7/site-packages/pytz/zoneinfo/Asia/Magadan',
   'DATA'),
  ('pytz/zoneinfo/Africa/Juba',
   '/usr/lib/python2.7/site-packages/pytz/zoneinfo/Africa/Juba',
   'DATA'),
  ('pytz/zoneinfo/Atlantic/Azores',
   '/usr/lib/python2.7/site-packages/pytz/zoneinfo/Atlantic/Azores',
   'DATA'),
  ('pytz/zoneinfo/America/Maceio',
   '/usr/lib/python2.7/site-packages/pytz/zoneinfo/America/Maceio',
   'DATA'),
  ('pytz/zoneinfo/US/Pacific',
   '/usr/lib/python2.7/site-packages/pytz/zoneinfo/US/Pacific',
   'DATA'),
  ('pytz/zoneinfo/Jamaica',
   '/usr/lib/python2.7/site-packages/pytz/zoneinfo/Jamaica',
   'DATA'),
  ('pytz/zoneinfo/Asia/Brunei',
   '/usr/lib/python2.7/site-packages/pytz/zoneinfo/Asia/Brunei',
   'DATA'),
  ('pytz/zoneinfo/tzdata.zi',
   '/usr/lib/python2.7/site-packages/pytz/zoneinfo/tzdata.zi',
   'DATA'),
  ('pytz/zoneinfo/Africa/Maputo',
   '/usr/lib/python2.7/site-packages/pytz/zoneinfo/Africa/Maputo',
   'DATA'),
  ('pytz/zoneinfo/Pacific/Yap',
   '/usr/lib/python2.7/site-packages/pytz/zoneinfo/Pacific/Yap',
   'DATA'),
  ('pytz/zoneinfo/WET',
   '/usr/lib/python2.7/site-packages/pytz/zoneinfo/WET',
   'DATA'),
  ('pytz/zoneinfo/America/Rio_Branco',
   '/usr/lib/python2.7/site-packages/pytz/zoneinfo/America/Rio_Branco',
   'DATA'),
  ('pytz/zoneinfo/Canada/Atlantic',
   '/usr/lib/python2.7/site-packages/pytz/zoneinfo/Canada/Atlantic',
   'DATA'),
  ('pytz/zoneinfo/Antarctica/Palmer',
   '/usr/lib/python2.7/site-packages/pytz/zoneinfo/Antarctica/Palmer',
   'DATA'),
  ('pytz/zoneinfo/Europe/Uzhgorod',
   '/usr/lib/python2.7/site-packages/pytz/zoneinfo/Europe/Uzhgorod',
   'DATA'),
  ('pytz/zoneinfo/Antarctica/Vostok',
   '/usr/lib/python2.7/site-packages/pytz/zoneinfo/Antarctica/Vostok',
   'DATA'),
  ('pytz/zoneinfo/Asia/Baku',
   '/usr/lib/python2.7/site-packages/pytz/zoneinfo/Asia/Baku',
   'DATA'),
  ('pytz/zoneinfo/Europe/Monaco',
   '/usr/lib/python2.7/site-packages/pytz/zoneinfo/Europe/Monaco',
   'DATA'),
  ('pytz/zoneinfo/Europe/Paris',
   '/usr/lib/python2.7/site-packages/pytz/zoneinfo/Europe/Paris',
   'DATA'),
  ('pytz/zoneinfo/America/Argentina/Salta',
   '/usr/lib/python2.7/site-packages/pytz/zoneinfo/America/Argentina/Salta',
   'DATA'),
  ('pytz/zoneinfo/Pacific/Nauru',
   '/usr/lib/python2.7/site-packages/pytz/zoneinfo/Pacific/Nauru',
   'DATA'),
  ('pytz/zoneinfo/Asia/Dushanbe',
   '/usr/lib/python2.7/site-packages/pytz/zoneinfo/Asia/Dushanbe',
   'DATA'),
  ('pytz/zoneinfo/Asia/Manila',
   '/usr/lib/python2.7/site-packages/pytz/zoneinfo/Asia/Manila',
   'DATA'),
  ('pytz/zoneinfo/America/Thule',
   '/usr/lib/python2.7/site-packages/pytz/zoneinfo/America/Thule',
   'DATA'),
  ('pytz/zoneinfo/Asia/Kashgar',
   '/usr/lib/python2.7/site-packages/pytz/zoneinfo/Asia/Kashgar',
   'DATA'),
  ('pytz/zoneinfo/Europe/Belgrade',
   '/usr/lib/python2.7/site-packages/pytz/zoneinfo/Europe/Belgrade',
   'DATA'),
  ('pytz/zoneinfo/America/Guatemala',
   '/usr/lib/python2.7/site-packages/pytz/zoneinfo/America/Guatemala',
   'DATA'),
  ('pytz/zoneinfo/Europe/Malta',
   '/usr/lib/python2.7/site-packages/pytz/zoneinfo/Europe/Malta',
   'DATA'),
  ('pytz/zoneinfo/Mexico/BajaNorte',
   '/usr/lib/python2.7/site-packages/pytz/zoneinfo/Mexico/BajaNorte',
   'DATA'),
  ('pytz/zoneinfo/Asia/Tomsk',
   '/usr/lib/python2.7/site-packages/pytz/zoneinfo/Asia/Tomsk',
   'DATA'),
  ('pytz/reference.pyo',
   '/usr/lib/python2.7/site-packages/pytz/reference.pyo',
   'DATA'),
  ('pytz/zoneinfo/America/Swift_Current',
   '/usr/lib/python2.7/site-packages/pytz/zoneinfo/America/Swift_Current',
   'DATA'),
  ('pytz/zoneinfo/Indian/Mauritius',
   '/usr/lib/python2.7/site-packages/pytz/zoneinfo/Indian/Mauritius',
   'DATA'),
  ('pytz/zoneinfo/Asia/Makassar',
   '/usr/lib/python2.7/site-packages/pytz/zoneinfo/Asia/Makassar',
   'DATA'),
  ('pytz/zoneinfo/Etc/GMT-0',
   '/usr/lib/python2.7/site-packages/pytz/zoneinfo/Etc/GMT-0',
   'DATA'),
  ('pytz/zoneinfo/America/Barbados',
   '/usr/lib/python2.7/site-packages/pytz/zoneinfo/America/Barbados',
   'DATA'),
  ('pytz/zoneinfo/Europe/Zurich',
   '/usr/lib/python2.7/site-packages/pytz/zoneinfo/Europe/Zurich',
   'DATA'),
  ('pytz/zoneinfo/Asia/Krasnoyarsk',
   '/usr/lib/python2.7/site-packages/pytz/zoneinfo/Asia/Krasnoyarsk',
   'DATA'),
  ('pytz/zoneinfo/Asia/Hebron',
   '/usr/lib/python2.7/site-packages/pytz/zoneinfo/Asia/Hebron',
   'DATA'),
  ('pytz/zoneinfo/Africa/Khartoum',
   '/usr/lib/python2.7/site-packages/pytz/zoneinfo/Africa/Khartoum',
   'DATA'),
  ('pytz/zoneinfo/Asia/Qyzylorda',
   '/usr/lib/python2.7/site-packages/pytz/zoneinfo/Asia/Qyzylorda',
   'DATA'),
  ('pytz/zoneinfo/Antarctica/Macquarie',
   '/usr/lib/python2.7/site-packages/pytz/zoneinfo/Antarctica/Macquarie',
   'DATA'),
  ('pytz/zoneinfo/Africa/Freetown',
   '/usr/lib/python2.7/site-packages/pytz/zoneinfo/Africa/Freetown',
   'DATA'),
  ('pytz/zoneinfo/America/Monterrey',
   '/usr/lib/python2.7/site-packages/pytz/zoneinfo/America/Monterrey',
   'DATA'),
  ('pytz/zoneinfo/Asia/Istanbul',
   '/usr/lib/python2.7/site-packages/pytz/zoneinfo/Asia/Istanbul',
   'DATA'),
  ('pytz/zoneinfo/Europe/Helsinki',
   '/usr/lib/python2.7/site-packages/pytz/zoneinfo/Europe/Helsinki',
   'DATA'),
  ('pytz/zoneinfo/America/Mendoza',
   '/usr/lib/python2.7/site-packages/pytz/zoneinfo/America/Mendoza',
   'DATA'),
  ('pytz/zoneinfo/Etc/GMT+7',
   '/usr/lib/python2.7/site-packages/pytz/zoneinfo/Etc/GMT+7',
   'DATA'),
  ('pytz/zoneinfo/US/Michigan',
   '/usr/lib/python2.7/site-packages/pytz/zoneinfo/US/Michigan',
   'DATA'),
  ('pytz/zoneinfo/America/Winnipeg',
   '/usr/lib/python2.7/site-packages/pytz/zoneinfo/America/Winnipeg',
   'DATA'),
  ('pytz/zoneinfo/America/Argentina/Mendoza',
   '/usr/lib/python2.7/site-packages/pytz/zoneinfo/America/Argentina/Mendoza',
   'DATA'),
  ('pytz/zoneinfo/Asia/Dhaka',
   '/usr/lib/python2.7/site-packages/pytz/zoneinfo/Asia/Dhaka',
   'DATA'),
  ('pytz/zoneinfo/Africa/Porto-Novo',
   '/usr/lib/python2.7/site-packages/pytz/zoneinfo/Africa/Porto-Novo',
   'DATA'),
  ('pytz/zoneinfo/America/St_Kitts',
   '/usr/lib/python2.7/site-packages/pytz/zoneinfo/America/St_Kitts',
   'DATA'),
  ('pytz/exceptions.pyo',
   '/usr/lib/python2.7/site-packages/pytz/exceptions.pyo',
   'DATA'),
  ('pytz/zoneinfo/America/Creston',
   '/usr/lib/python2.7/site-packages/pytz/zoneinfo/America/Creston',
   'DATA'),
  ('pytz/zoneinfo/Europe/Skopje',
   '/usr/lib/python2.7/site-packages/pytz/zoneinfo/Europe/Skopje',
   'DATA'),
  ('pytz/zoneinfo/America/Buenos_Aires',
   '/usr/lib/python2.7/site-packages/pytz/zoneinfo/America/Buenos_Aires',
   'DATA'),
  ('pytz/zoneinfo/Pacific/Bougainville',
   '/usr/lib/python2.7/site-packages/pytz/zoneinfo/Pacific/Bougainville',
   'DATA'),
  ('pytz/zoneinfo/America/Cordoba',
   '/usr/lib/python2.7/site-packages/pytz/zoneinfo/America/Cordoba',
   'DATA'),
  ('pytz/zoneinfo/America/Resolute',
   '/usr/lib/python2.7/site-packages/pytz/zoneinfo/America/Resolute',
   'DATA'),
  ('pytz/zoneinfo/America/Tijuana',
   '/usr/lib/python2.7/site-packages/pytz/zoneinfo/America/Tijuana',
   'DATA'),
  ('pytz/zoneinfo/America/Guyana',
   '/usr/lib/python2.7/site-packages/pytz/zoneinfo/America/Guyana',
   'DATA'),
  ('pytz/zoneinfo/Asia/Baghdad',
   '/usr/lib/python2.7/site-packages/pytz/zoneinfo/Asia/Baghdad',
   'DATA'),
  ('pytz/zoneinfo/Pacific/Samoa',
   '/usr/lib/python2.7/site-packages/pytz/zoneinfo/Pacific/Samoa',
   'DATA'),
  ('pytz/zoneinfo/Europe/Sarajevo',
   '/usr/lib/python2.7/site-packages/pytz/zoneinfo/Europe/Sarajevo',
   'DATA'),
  ('pytz/zoneinfo/Canada/Central',
   '/usr/lib/python2.7/site-packages/pytz/zoneinfo/Canada/Central',
   'DATA'),
  ('pytz/zoneinfo/Universal',
   '/usr/lib/python2.7/site-packages/pytz/zoneinfo/Universal',
   'DATA'),
  ('pytz/zoneinfo/Europe/Kiev',
   '/usr/lib/python2.7/site-packages/pytz/zoneinfo/Europe/Kiev',
   'DATA'),
  ('pytz/zoneinfo/America/Inuvik',
   '/usr/lib/python2.7/site-packages/pytz/zoneinfo/America/Inuvik',
   'DATA'),
  ('pytz/zoneinfo/America/Dominica',
   '/usr/lib/python2.7/site-packages/pytz/zoneinfo/America/Dominica',
   'DATA'),
  ('pytz/zoneinfo/Pacific/Truk',
   '/usr/lib/python2.7/site-packages/pytz/zoneinfo/Pacific/Truk',
   'DATA'),
  ('pytz/zoneinfo/America/Port-au-Prince',
   '/usr/lib/python2.7/site-packages/pytz/zoneinfo/America/Port-au-Prince',
   'DATA'),
  ('pytz/zoneinfo/America/Argentina/La_Rioja',
   '/usr/lib/python2.7/site-packages/pytz/zoneinfo/America/Argentina/La_Rioja',
   'DATA'),
  ('pytz/zoneinfo/Europe/Mariehamn',
   '/usr/lib/python2.7/site-packages/pytz/zoneinfo/Europe/Mariehamn',
   'DATA'),
  ('pytz/zoneinfo/Etc/GMT-7',
   '/usr/lib/python2.7/site-packages/pytz/zoneinfo/Etc/GMT-7',
   'DATA'),
  ('pytz/zoneinfo/Antarctica/Casey',
   '/usr/lib/python2.7/site-packages/pytz/zoneinfo/Antarctica/Casey',
   'DATA'),
  ('pytz/zoneinfo/Asia/Amman',
   '/usr/lib/python2.7/site-packages/pytz/zoneinfo/Asia/Amman',
   'DATA'),
  ('pytz/zoneinfo/America/Yellowknife',
   '/usr/lib/python2.7/site-packages/pytz/zoneinfo/America/Yellowknife',
   'DATA'),
  ('pytz/zoneinfo/Indian/Reunion',
   '/usr/lib/python2.7/site-packages/pytz/zoneinfo/Indian/Reunion',
   'DATA'),
  ('pytz/zoneinfo/America/Manaus',
   '/usr/lib/python2.7/site-packages/pytz/zoneinfo/America/Manaus',
   'DATA'),
  ('pytz/zoneinfo/Egypt',
   '/usr/lib/python2.7/site-packages/pytz/zoneinfo/Egypt',
   'DATA'),
  ('pytz/zoneinfo/Europe/Ulyanovsk',
   '/usr/lib/python2.7/site-packages/pytz/zoneinfo/Europe/Ulyanovsk',
   'DATA'),
  ('pytz/zoneinfo/Antarctica/Mawson',
   '/usr/lib/python2.7/site-packages/pytz/zoneinfo/Antarctica/Mawson',
   'DATA'),
  ('pytz/zoneinfo/America/Santo_Domingo',
   '/usr/lib/python2.7/site-packages/pytz/zoneinfo/America/Santo_Domingo',
   'DATA'),
  ('pytz/zoneinfo/US/Eastern',
   '/usr/lib/python2.7/site-packages/pytz/zoneinfo/US/Eastern',
   'DATA'),
  ('pytz/zoneinfo/America/Halifax',
   '/usr/lib/python2.7/site-packages/pytz/zoneinfo/America/Halifax',
   'DATA'),
  ('pytz/zoneinfo/Europe/Minsk',
   '/usr/lib/python2.7/site-packages/pytz/zoneinfo/Europe/Minsk',
   'DATA'),
  ('pytz/zoneinfo/America/St_Barthelemy',
   '/usr/lib/python2.7/site-packages/pytz/zoneinfo/America/St_Barthelemy',
   'DATA'),
  ('pytz/zoneinfo/Hongkong',
   '/usr/lib/python2.7/site-packages/pytz/zoneinfo/Hongkong',
   'DATA'),
  ('pytz/zoneinfo/America/Anguilla',
   '/usr/lib/python2.7/site-packages/pytz/zoneinfo/America/Anguilla',
   'DATA'),
  ('pytz/zoneinfo/America/Catamarca',
   '/usr/lib/python2.7/site-packages/pytz/zoneinfo/America/Catamarca',
   'DATA'),
  ('pytz/zoneinfo/Pacific/Funafuti',
   '/usr/lib/python2.7/site-packages/pytz/zoneinfo/Pacific/Funafuti',
   'DATA'),
  ('pytz/zoneinfo/America/El_Salvador',
   '/usr/lib/python2.7/site-packages/pytz/zoneinfo/America/El_Salvador',
   'DATA'),
  ('pytz/zoneinfo/Atlantic/St_Helena',
   '/usr/lib/python2.7/site-packages/pytz/zoneinfo/Atlantic/St_Helena',
   'DATA'),
  ('pytz/zoneinfo/Europe/Moscow',
   '/usr/lib/python2.7/site-packages/pytz/zoneinfo/Europe/Moscow',
   'DATA'),
  ('pytz/zoneinfo/Etc/GMT+3',
   '/usr/lib/python2.7/site-packages/pytz/zoneinfo/Etc/GMT+3',
   'DATA'),
  ('pytz/zoneinfo/Australia/Victoria',
   '/usr/lib/python2.7/site-packages/pytz/zoneinfo/Australia/Victoria',
   'DATA'),
  ('pytz/zoneinfo/PRC',
   '/usr/lib/python2.7/site-packages/pytz/zoneinfo/PRC',
   'DATA'),
  ('pytz/zoneinfo/Asia/Pontianak',
   '/usr/lib/python2.7/site-packages/pytz/zoneinfo/Asia/Pontianak',
   'DATA'),
  ('pytz/zoneinfo/Atlantic/Faeroe',
   '/usr/lib/python2.7/site-packages/pytz/zoneinfo/Atlantic/Faeroe',
   'DATA'),
  ('pytz/zoneinfo/Asia/Novokuznetsk',
   '/usr/lib/python2.7/site-packages/pytz/zoneinfo/Asia/Novokuznetsk',
   'DATA'),
  ('pytz/zoneinfo/Indian/Mayotte',
   '/usr/lib/python2.7/site-packages/pytz/zoneinfo/Indian/Mayotte',
   'DATA'),
  ('pytz/zoneinfo/Etc/UCT',
   '/usr/lib/python2.7/site-packages/pytz/zoneinfo/Etc/UCT',
   'DATA'),
  ('pytz/zoneinfo/Asia/Thimbu',
   '/usr/lib/python2.7/site-packages/pytz/zoneinfo/Asia/Thimbu',
   'DATA'),
  ('pytz/zoneinfo/Europe/Oslo',
   '/usr/lib/python2.7/site-packages/pytz/zoneinfo/Europe/Oslo',
   'DATA'),
  ('pytz/zoneinfo/America/Mexico_City',
   '/usr/lib/python2.7/site-packages/pytz/zoneinfo/America/Mexico_City',
   'DATA'),
  ('pytz/zoneinfo/Africa/Djibouti',
   '/usr/lib/python2.7/site-packages/pytz/zoneinfo/Africa/Djibouti',
   'DATA'),
  ('pytz/zoneinfo/Europe/Zaporozhye',
   '/usr/lib/python2.7/site-packages/pytz/zoneinfo/Europe/Zaporozhye',
   'DATA'),
  ('pytz/zoneinfo/America/Paramaribo',
   '/usr/lib/python2.7/site-packages/pytz/zoneinfo/America/Paramaribo',
   'DATA'),
  ('pytz/zoneinfo/America/Martinique',
   '/usr/lib/python2.7/site-packages/pytz/zoneinfo/America/Martinique',
   'DATA'),
  ('pytz/zoneinfo/Canada/Pacific',
   '/usr/lib/python2.7/site-packages/pytz/zoneinfo/Canada/Pacific',
   'DATA'),
  ('pytz/zoneinfo/Asia/Singapore',
   '/usr/lib/python2.7/site-packages/pytz/zoneinfo/Asia/Singapore',
   'DATA'),
  ('pytz/zoneinfo/GB-Eire',
   '/usr/lib/python2.7/site-packages/pytz/zoneinfo/GB-Eire',
   'DATA'),
  ('pytz/zoneinfo/Etc/GMT+2',
   '/usr/lib/python2.7/site-packages/pytz/zoneinfo/Etc/GMT+2',
   'DATA'),
  ('pytz/zoneinfo/America/Metlakatla',
   '/usr/lib/python2.7/site-packages/pytz/zoneinfo/America/Metlakatla',
   'DATA'),
  ('pytz/zoneinfo/America/Campo_Grande',
   '/usr/lib/python2.7/site-packages/pytz/zoneinfo/America/Campo_Grande',
   'DATA'),
  ('pytz/zoneinfo/Europe/Kirov',
   '/usr/lib/python2.7/site-packages/pytz/zoneinfo/Europe/Kirov',
   'DATA'),
  ('pytz/zoneinfo/Africa/Bangui',
   '/usr/lib/python2.7/site-packages/pytz/zoneinfo/Africa/Bangui',
   'DATA'),
  ('pytz/zoneinfo/America/Montevideo',
   '/usr/lib/python2.7/site-packages/pytz/zoneinfo/America/Montevideo',
   'DATA'),
  ('pytz/zoneinfo/Australia/Yancowinna',
   '/usr/lib/python2.7/site-packages/pytz/zoneinfo/Australia/Yancowinna',
   'DATA'),
  ('pytz/zoneinfo/America/Goose_Bay',
   '/usr/lib/python2.7/site-packages/pytz/zoneinfo/America/Goose_Bay',
   'DATA'),
  ('pytz/zoneinfo/Pacific/Tahiti',
   '/usr/lib/python2.7/site-packages/pytz/zoneinfo/Pacific/Tahiti',
   'DATA'),
  ('pytz/zoneinfo/Australia/Adelaide',
   '/usr/lib/python2.7/site-packages/pytz/zoneinfo/Australia/Adelaide',
   'DATA'),
  ('pytz/zoneinfo/Atlantic/Faroe',
   '/usr/lib/python2.7/site-packages/pytz/zoneinfo/Atlantic/Faroe',
   'DATA'),
  ('pytz/zoneinfo/America/Montreal',
   '/usr/lib/python2.7/site-packages/pytz/zoneinfo/America/Montreal',
   'DATA'),
  ('pytz/zoneinfo/US/Samoa',
   '/usr/lib/python2.7/site-packages/pytz/zoneinfo/US/Samoa',
   'DATA'),
  ('pytz/zoneinfo/MST',
   '/usr/lib/python2.7/site-packages/pytz/zoneinfo/MST',
   'DATA'),
  ('pytz/zoneinfo/Asia/Seoul',
   '/usr/lib/python2.7/site-packages/pytz/zoneinfo/Asia/Seoul',
   'DATA'),
  ('pytz/zoneinfo/Pacific/Niue',
   '/usr/lib/python2.7/site-packages/pytz/zoneinfo/Pacific/Niue',
   'DATA'),
  ('pytz/zoneinfo/Asia/Muscat',
   '/usr/lib/python2.7/site-packages/pytz/zoneinfo/Asia/Muscat',
   'DATA'),
  ('pytz/zoneinfo/America/Argentina/Tucuman',
   '/usr/lib/python2.7/site-packages/pytz/zoneinfo/America/Argentina/Tucuman',
   'DATA'),
  ('pytz/zoneinfo/America/Bahia_Banderas',
   '/usr/lib/python2.7/site-packages/pytz/zoneinfo/America/Bahia_Banderas',
   'DATA'),
  ('pytz/zoneinfo/Asia/Kuwait',
   '/usr/lib/python2.7/site-packages/pytz/zoneinfo/Asia/Kuwait',
   'DATA'),
  ('pytz/zoneinfo/Africa/Bissau',
   '/usr/lib/python2.7/site-packages/pytz/zoneinfo/Africa/Bissau',
   'DATA'),
  ('pytz/zoneinfo/America/Kentucky/Monticello',
   '/usr/lib/python2.7/site-packages/pytz/zoneinfo/America/Kentucky/Monticello',
   'DATA'),
  ('pytz/zoneinfo/Africa/Monrovia',
   '/usr/lib/python2.7/site-packages/pytz/zoneinfo/Africa/Monrovia',
   'DATA'),
  ('pytz/zoneinfo/America/St_Johns',
   '/usr/lib/python2.7/site-packages/pytz/zoneinfo/America/St_Johns',
   'DATA'),
  ('pytz/zoneinfo/US/Alaska',
   '/usr/lib/python2.7/site-packages/pytz/zoneinfo/US/Alaska',
   'DATA'),
  ('pytz/zoneinfo/Asia/Tbilisi',
   '/usr/lib/python2.7/site-packages/pytz/zoneinfo/Asia/Tbilisi',
   'DATA'),
  ('pytz/zoneinfo/America/Glace_Bay',
   '/usr/lib/python2.7/site-packages/pytz/zoneinfo/America/Glace_Bay',
   'DATA'),
  ('pytz/zoneinfo/Europe/Kaliningrad',
   '/usr/lib/python2.7/site-packages/pytz/zoneinfo/Europe/Kaliningrad',
   'DATA'),
  ('pytz/zoneinfo/Pacific/Marquesas',
   '/usr/lib/python2.7/site-packages/pytz/zoneinfo/Pacific/Marquesas',
   'DATA'),
  ('pytz/zoneinfo/America/Dawson',
   '/usr/lib/python2.7/site-packages/pytz/zoneinfo/America/Dawson',
   'DATA'),
  ('pytz/zoneinfo/Etc/GMT-11',
   '/usr/lib/python2.7/site-packages/pytz/zoneinfo/Etc/GMT-11',
   'DATA'),
  ('pytz/zoneinfo/Pacific/Chatham',
   '/usr/lib/python2.7/site-packages/pytz/zoneinfo/Pacific/Chatham',
   'DATA'),
  ('pytz/zoneinfo/America/Scoresbysund',
   '/usr/lib/python2.7/site-packages/pytz/zoneinfo/America/Scoresbysund',
   'DATA'),
  ('pytz/zoneinfo/Asia/Bangkok',
   '/usr/lib/python2.7/site-packages/pytz/zoneinfo/Asia/Bangkok',
   'DATA'),
  ('pytz/zoneinfo/Asia/Damascus',
   '/usr/lib/python2.7/site-packages/pytz/zoneinfo/Asia/Damascus',
   'DATA'),
  ('pytz/zoneinfo/Asia/Jerusalem',
   '/usr/lib/python2.7/site-packages/pytz/zoneinfo/Asia/Jerusalem',
   'DATA'),
  ('pytz/zoneinfo/Asia/Macao',
   '/usr/lib/python2.7/site-packages/pytz/zoneinfo/Asia/Macao',
   'DATA'),
  ('pytz/zoneinfo/Indian/Comoro',
   '/usr/lib/python2.7/site-packages/pytz/zoneinfo/Indian/Comoro',
   'DATA'),
  ('pytz/zoneinfo/America/Montserrat',
   '/usr/lib/python2.7/site-packages/pytz/zoneinfo/America/Montserrat',
   'DATA'),
  ('pytz/zoneinfo/Asia/Yerevan',
   '/usr/lib/python2.7/site-packages/pytz/zoneinfo/Asia/Yerevan',
   'DATA'),
  ('pytz/zoneinfo/Europe/Athens',
   '/usr/lib/python2.7/site-packages/pytz/zoneinfo/Europe/Athens',
   'DATA'),
  ('pytz/zoneinfo/America/Juneau',
   '/usr/lib/python2.7/site-packages/pytz/zoneinfo/America/Juneau',
   'DATA'),
  ('pytz/zoneinfo/Pacific/Kosrae',
   '/usr/lib/python2.7/site-packages/pytz/zoneinfo/Pacific/Kosrae',
   'DATA'),
  ('pytz/zoneinfo/America/Argentina/San_Juan',
   '/usr/lib/python2.7/site-packages/pytz/zoneinfo/America/Argentina/San_Juan',
   'DATA'),
  ('pytz/zoneinfo/Europe/Astrakhan',
   '/usr/lib/python2.7/site-packages/pytz/zoneinfo/Europe/Astrakhan',
   'DATA'),
  ('pytz/zoneinfo/America/Boise',
   '/usr/lib/python2.7/site-packages/pytz/zoneinfo/America/Boise',
   'DATA'),
  ('pytz/zoneinfo/America/La_Paz',
   '/usr/lib/python2.7/site-packages/pytz/zoneinfo/America/La_Paz',
   'DATA'),
  ('pytz/zoneinfo/Asia/Dubai',
   '/usr/lib/python2.7/site-packages/pytz/zoneinfo/Asia/Dubai',
   'DATA'),
  ('pytz/zoneinfo/MST7MDT',
   '/usr/lib/python2.7/site-packages/pytz/zoneinfo/MST7MDT',
   'DATA'),
  ('pytz/zoneinfo/US/Hawaii',
   '/usr/lib/python2.7/site-packages/pytz/zoneinfo/US/Hawaii',
   'DATA'),
  ('pytz/zoneinfo/Brazil/DeNoronha',
   '/usr/lib/python2.7/site-packages/pytz/zoneinfo/Brazil/DeNoronha',
   'DATA'),
  ('pytz/zoneinfo/Brazil/Acre',
   '/usr/lib/python2.7/site-packages/pytz/zoneinfo/Brazil/Acre',
   'DATA'),
  ('pytz/zoneinfo/Asia/Kathmandu',
   '/usr/lib/python2.7/site-packages/pytz/zoneinfo/Asia/Kathmandu',
   'DATA'),
  ('pytz/zoneinfo/Australia/ACT',
   '/usr/lib/python2.7/site-packages/pytz/zoneinfo/Australia/ACT',
   'DATA'),
  ('pytz/zoneinfo/Asia/Vientiane',
   '/usr/lib/python2.7/site-packages/pytz/zoneinfo/Asia/Vientiane',
   'DATA'),
  ('pytz/zoneinfo/America/Rainy_River',
   '/usr/lib/python2.7/site-packages/pytz/zoneinfo/America/Rainy_River',
   'DATA'),
  ('pytz/zoneinfo/America/Nassau',
   '/usr/lib/python2.7/site-packages/pytz/zoneinfo/America/Nassau',
   'DATA'),
  ('pytz/zoneinfo/Brazil/East',
   '/usr/lib/python2.7/site-packages/pytz/zoneinfo/Brazil/East',
   'DATA'),
  ('pytz/zoneinfo/Asia/Omsk',
   '/usr/lib/python2.7/site-packages/pytz/zoneinfo/Asia/Omsk',
   'DATA'),
  ('pytz/zoneinfo/Europe/Madrid',
   '/usr/lib/python2.7/site-packages/pytz/zoneinfo/Europe/Madrid',
   'DATA'),
  ('pytz/zoneinfo/Etc/Universal',
   '/usr/lib/python2.7/site-packages/pytz/zoneinfo/Etc/Universal',
   'DATA'),
  ('pytz/zoneinfo/Asia/Riyadh',
   '/usr/lib/python2.7/site-packages/pytz/zoneinfo/Asia/Riyadh',
   'DATA'),
  ('pytz/zoneinfo/Africa/Nouakchott',
   '/usr/lib/python2.7/site-packages/pytz/zoneinfo/Africa/Nouakchott',
   'DATA'),
  ('pytz/zoneinfo/iso3166.tab',
   '/usr/lib/python2.7/site-packages/pytz/zoneinfo/iso3166.tab',
   'DATA'),
  ('pytz/zoneinfo/Africa/Ceuta',
   '/usr/lib/python2.7/site-packages/pytz/zoneinfo/Africa/Ceuta',
   'DATA'),
  ('pytz/zoneinfo/Europe/Vienna',
   '/usr/lib/python2.7/site-packages/pytz/zoneinfo/Europe/Vienna',
   'DATA'),
  ('pytz/zoneinfo/US/Aleutian',
   '/usr/lib/python2.7/site-packages/pytz/zoneinfo/US/Aleutian',
   'DATA'),
  ('pytz/zoneinfo/Africa/Blantyre',
   '/usr/lib/python2.7/site-packages/pytz/zoneinfo/Africa/Blantyre',
   'DATA'),
  ('pytz/zoneinfo/Pacific/Kiritimati',
   '/usr/lib/python2.7/site-packages/pytz/zoneinfo/Pacific/Kiritimati',
   'DATA'),
  ('pytz/zoneinfo/Europe/Sofia',
   '/usr/lib/python2.7/site-packages/pytz/zoneinfo/Europe/Sofia',
   'DATA'),
  ('pytz/zoneinfo/Europe/Budapest',
   '/usr/lib/python2.7/site-packages/pytz/zoneinfo/Europe/Budapest',
   'DATA'),
  ('pytz/zoneinfo/Europe/Istanbul',
   '/usr/lib/python2.7/site-packages/pytz/zoneinfo/Europe/Istanbul',
   'DATA'),
  ('pytz/zoneinfo/Asia/Macau',
   '/usr/lib/python2.7/site-packages/pytz/zoneinfo/Asia/Macau',
   'DATA'),
  ('pytz/zoneinfo/Africa/Niamey',
   '/usr/lib/python2.7/site-packages/pytz/zoneinfo/Africa/Niamey',
   'DATA'),
  ('pytz/zoneinfo/America/Managua',
   '/usr/lib/python2.7/site-packages/pytz/zoneinfo/America/Managua',
   'DATA'),
  ('pytz/zoneinfo/Australia/Eucla',
   '/usr/lib/python2.7/site-packages/pytz/zoneinfo/Australia/Eucla',
   'DATA'),
  ('pytz/zoneinfo/America/Yakutat',
   '/usr/lib/python2.7/site-packages/pytz/zoneinfo/America/Yakutat',
   'DATA'),
  ('pytz/zoneinfo/America/Menominee',
   '/usr/lib/python2.7/site-packages/pytz/zoneinfo/America/Menominee',
   'DATA'),
  ('pytz/zoneinfo/US/Mountain',
   '/usr/lib/python2.7/site-packages/pytz/zoneinfo/US/Mountain',
   'DATA'),
  ('pytz/zoneinfo/America/Phoenix',
   '/usr/lib/python2.7/site-packages/pytz/zoneinfo/America/Phoenix',
   'DATA'),
  ('pytz/zoneinfo/CST6CDT',
   '/usr/lib/python2.7/site-packages/pytz/zoneinfo/CST6CDT',
   'DATA'),
  ('pytz/zoneinfo/Pacific/Honolulu',
   '/usr/lib/python2.7/site-packages/pytz/zoneinfo/Pacific/Honolulu',
   'DATA'),
  ('pytz/zoneinfo/Atlantic/Madeira',
   '/usr/lib/python2.7/site-packages/pytz/zoneinfo/Atlantic/Madeira',
   'DATA'),
  ('pytz/zoneinfo/Navajo',
   '/usr/lib/python2.7/site-packages/pytz/zoneinfo/Navajo',
   'DATA'),
  ('pytz/zoneinfo/Australia/Hobart',
   '/usr/lib/python2.7/site-packages/pytz/zoneinfo/Australia/Hobart',
   'DATA'),
  ('pytz/zoneinfo/Europe/Jersey',
   '/usr/lib/python2.7/site-packages/pytz/zoneinfo/Europe/Jersey',
   'DATA'),
  ('pytz/zoneinfo/Asia/Karachi',
   '/usr/lib/python2.7/site-packages/pytz/zoneinfo/Asia/Karachi',
   'DATA'),
  ('pytz/zoneinfo/Indian/Christmas',
   '/usr/lib/python2.7/site-packages/pytz/zoneinfo/Indian/Christmas',
   'DATA'),
  ('pytz/zoneinfo/GB',
   '/usr/lib/python2.7/site-packages/pytz/zoneinfo/GB',
   'DATA'),
  ('pytz/zoneinfo/Etc/GMT+6',
   '/usr/lib/python2.7/site-packages/pytz/zoneinfo/Etc/GMT+6',
   'DATA'),
  ('pytz/zoneinfo/Asia/Gaza',
   '/usr/lib/python2.7/site-packages/pytz/zoneinfo/Asia/Gaza',
   'DATA'),
  ('pytz/zoneinfo/America/Atka',
   '/usr/lib/python2.7/site-packages/pytz/zoneinfo/America/Atka',
   'DATA'),
  ('pytz/zoneinfo/Etc/GMT-14',
   '/usr/lib/python2.7/site-packages/pytz/zoneinfo/Etc/GMT-14',
   'DATA'),
  ('pytz/zoneinfo/GMT-0',
   '/usr/lib/python2.7/site-packages/pytz/zoneinfo/GMT-0',
   'DATA'),
  ('pytz/zoneinfo/Israel',
   '/usr/lib/python2.7/site-packages/pytz/zoneinfo/Israel',
   'DATA'),
  ('pytz/zoneinfo/Asia/Kuala_Lumpur',
   '/usr/lib/python2.7/site-packages/pytz/zoneinfo/Asia/Kuala_Lumpur',
   'DATA'),
  ('pytz/zoneinfo/America/Detroit',
   '/usr/lib/python2.7/site-packages/pytz/zoneinfo/America/Detroit',
   'DATA'),
  ('pytz/zoneinfo/Etc/GMT-12',
   '/usr/lib/python2.7/site-packages/pytz/zoneinfo/Etc/GMT-12',
   'DATA'),
  ('pytz/zoneinfo/Europe/Lisbon',
   '/usr/lib/python2.7/site-packages/pytz/zoneinfo/Europe/Lisbon',
   'DATA'),
  ('pytz/zoneinfo/Africa/Ndjamena',
   '/usr/lib/python2.7/site-packages/pytz/zoneinfo/Africa/Ndjamena',
   'DATA'),
  ('pytz/zoneinfo/Africa/Asmera',
   '/usr/lib/python2.7/site-packages/pytz/zoneinfo/Africa/Asmera',
   'DATA'),
  ('pytz/zoneinfo/Etc/GMT-10',
   '/usr/lib/python2.7/site-packages/pytz/zoneinfo/Etc/GMT-10',
   'DATA'),
  ('pytz/zoneinfo/Europe/Tallinn',
   '/usr/lib/python2.7/site-packages/pytz/zoneinfo/Europe/Tallinn',
   'DATA'),
  ('pytz/zoneinfo/America/Iqaluit',
   '/usr/lib/python2.7/site-packages/pytz/zoneinfo/America/Iqaluit',
   'DATA'),
  ('pytz/zoneinfo/Atlantic/Bermuda',
   '/usr/lib/python2.7/site-packages/pytz/zoneinfo/Atlantic/Bermuda',
   'DATA'),
  ('pytz/zoneinfo/Asia/Urumqi',
   '/usr/lib/python2.7/site-packages/pytz/zoneinfo/Asia/Urumqi',
   'DATA'),
  ('pytz/zoneinfo/America/Indiana/Knox',
   '/usr/lib/python2.7/site-packages/pytz/zoneinfo/America/Indiana/Knox',
   'DATA'),
  ('pytz/zoneinfo/Africa/Casablanca',
   '/usr/lib/python2.7/site-packages/pytz/zoneinfo/Africa/Casablanca',
   'DATA'),
  ('pytz/zoneinfo/America/Santiago',
   '/usr/lib/python2.7/site-packages/pytz/zoneinfo/America/Santiago',
   'DATA'),
  ('pytz/zoneinfo/Asia/Vladivostok',
   '/usr/lib/python2.7/site-packages/pytz/zoneinfo/Asia/Vladivostok',
   'DATA'),
  ('pytz/zoneinfo/Asia/Thimphu',
   '/usr/lib/python2.7/site-packages/pytz/zoneinfo/Asia/Thimphu',
   'DATA'),
  ('pytz/zoneinfo/Asia/Khandyga',
   '/usr/lib/python2.7/site-packages/pytz/zoneinfo/Asia/Khandyga',
   'DATA'),
  ('pytz/zoneinfo/Etc/GMT+0',
   '/usr/lib/python2.7/site-packages/pytz/zoneinfo/Etc/GMT+0',
   'DATA'),
  ('pytz/zoneinfo/America/North_Dakota/Beulah',
   '/usr/lib/python2.7/site-packages/pytz/zoneinfo/America/North_Dakota/Beulah',
   'DATA'),
  ('pytz/zoneinfo/Europe/Prague',
   '/usr/lib/python2.7/site-packages/pytz/zoneinfo/Europe/Prague',
   'DATA'),
  ('include/python2.7/pyconfig-64.h',
   '/usr/include/python2.7/pyconfig-64.h',
   'DATA'),
  ('pytz/zoneinfo/America/Shiprock',
   '/usr/lib/python2.7/site-packages/pytz/zoneinfo/America/Shiprock',
   'DATA'),
  ('pytz/zoneinfo/Pacific/Noumea',
   '/usr/lib/python2.7/site-packages/pytz/zoneinfo/Pacific/Noumea',
   'DATA'),
  ('pytz/zoneinfo/Europe/Volgograd',
   '/usr/lib/python2.7/site-packages/pytz/zoneinfo/Europe/Volgograd',
   'DATA'),
  ('pytz/zoneinfo/America/Argentina/San_Luis',
   '/usr/lib/python2.7/site-packages/pytz/zoneinfo/America/Argentina/San_Luis',
   'DATA'),
  ('pytz/zoneinfo/Australia/Melbourne',
   '/usr/lib/python2.7/site-packages/pytz/zoneinfo/Australia/Melbourne',
   'DATA'),
  ('pytz/zoneinfo/America/North_Dakota/Center',
   '/usr/lib/python2.7/site-packages/pytz/zoneinfo/America/North_Dakota/Center',
   'DATA'),
  ('pytz/zoneinfo/Africa/Kampala',
   '/usr/lib/python2.7/site-packages/pytz/zoneinfo/Africa/Kampala',
   'DATA'),
  ('pytz/zoneinfo/Europe/Warsaw',
   '/usr/lib/python2.7/site-packages/pytz/zoneinfo/Europe/Warsaw',
   'DATA'),
  ('pytz/zoneinfo/Australia/Lindeman',
   '/usr/lib/python2.7/site-packages/pytz/zoneinfo/Australia/Lindeman',
   'DATA'),
  ('pytz/zoneinfo/Pacific/Guadalcanal',
   '/usr/lib/python2.7/site-packages/pytz/zoneinfo/Pacific/Guadalcanal',
   'DATA')],)
