('/root/loganal/agent/build/inf_agent/inf_agent',
 True,
 False,
 True,
 None,
 None,
 False,
 False,
 None,
 True,
 'inf_agent.pkg',
 [('PYZ-00.pyz', '/root/loganal/agent/build/inf_agent/PYZ-00.pyz', 'PYZ'),
  ('_struct', '/usr/lib64/python2.7/lib-dynload/_struct.so', 'EXTENSION'),
  ('zlib', '/usr/lib64/python2.7/lib-dynload/zlibmodule.so', 'EXTENSION'),
  ('struct', '/usr/lib64/python2.7/struct.pyc', 'PYMODULE'),
  ('pyimod01_os_path',
   '/usr/lib/python2.7/site-packages/PyInstaller/loader/pyimod01_os_path.pyc',
   'PYMODULE'),
  ('pyimod02_archive',
   '/usr/lib/python2.7/site-packages/PyInstaller/loader/pyimod02_archive.pyc',
   'PYMODULE'),
  ('pyimod03_importers',
   '/usr/lib/python2.7/site-packages/PyInstaller/loader/pyimod03_importers.pyc',
   'PYMODULE'),
  ('pyiboot01_bootstrap',
   '/usr/lib/python2.7/site-packages/PyInstaller/loader/pyiboot01_bootstrap.py',
   'PYSOURCE'),
  ('pyi_rth_pkgres',
   '/usr/lib/python2.7/site-packages/PyInstaller/loader/rthooks/pyi_rth_pkgres.py',
   'PYSOURCE'),
  ('pyi_rth_multiprocessing',
   '/usr/lib/python2.7/site-packages/PyInstaller/loader/rthooks/pyi_rth_multiprocessing.py',
   'PYSOURCE'),
  ('inf_agent', '/root/loganal/agent/inf_agent.py', 'PYSOURCE')],
 [],
 False,
 False,
 1586182892,
 [('run',
   '/usr/lib/python2.7/site-packages/PyInstaller/bootloader/Linux-64bit/run',
   'EXECUTABLE')])
