('/root/loganal/agent/build/collector/PYZ-00.pyz',
 [('multiprocessing.forking',
   '/usr/lib64/python2.7/multiprocessing/forking.py',
   'PYMODULE'),
  ('random', '/usr/lib64/python2.7/random.py', 'PYMODULE'),
  ('hashlib', '/usr/lib64/python2.7/hashlib.py', 'PYMODULE'),
  ('struct', '/usr/lib64/python2.7/struct.py', 'PYMODULE'),
  ('logging', '/usr/lib64/python2.7/logging/__init__.py', 'PYMODULE'),
  ('atexit', '/usr/lib64/python2.7/atexit.py', 'PYMODULE'),
  ('threading', '/usr/lib64/python2.7/threading.py', 'PYMODULE'),
  ('_threading_local',
   '/usr/lib64/python2.7/_threading_local.py',
   'PYMODULE'),
  ('collections', '/usr/lib64/python2.7/collections.py', 'PYMODULE'),
  ('doctest', '/usr/lib64/python2.7/doctest.py', 'PYMODULE'),
  ('StringIO', '/usr/lib64/python2.7/StringIO.py', 'PYMODULE'),
  ('tempfile', '/usr/lib64/python2.7/tempfile.py', 'PYMODULE'),
  ('io', '/usr/lib64/python2.7/io.py', 'PYMODULE'),
  ('abc', '/usr/lib64/python2.7/abc.py', 'PYMODULE'),
  ('_weakrefset', '/usr/lib64/python2.7/_weakrefset.py', 'PYMODULE'),
  ('pdb', '/usr/lib64/python2.7/pdb.py', 'PYMODULE'),
  ('shlex', '/usr/lib64/python2.7/shlex.py', 'PYMODULE'),
  ('posixpath', '/usr/lib64/python2.7/posixpath.py', 'PYMODULE'),
  ('genericpath', '/usr/lib64/python2.7/genericpath.py', 'PYMODULE'),
  ('stat', '/usr/lib64/python2.7/stat.py', 'PYMODULE'),
  ('pprint', '/usr/lib64/python2.7/pprint.py', 'PYMODULE'),
  ('repr', '/usr/lib64/python2.7/repr.py', 'PYMODULE'),
  ('bdb', '/usr/lib64/python2.7/bdb.py', 'PYMODULE'),
  ('fnmatch', '/usr/lib64/python2.7/fnmatch.py', 'PYMODULE'),
  ('cmd', '/usr/lib64/python2.7/cmd.py', 'PYMODULE'),
  ('string', '/usr/lib64/python2.7/string.py', 'PYMODULE'),
  ('difflib', '/usr/lib64/python2.7/difflib.py', 'PYMODULE'),
  ('unittest', '/usr/lib64/python2.7/unittest/__init__.py', 'PYMODULE'),
  ('unittest.signals',
   '/usr/lib64/python2.7/unittest/signals.py',
   'PYMODULE'),
  ('unittest.main', '/usr/lib64/python2.7/unittest/main.py', 'PYMODULE'),
  ('optparse', '/usr/lib64/python2.7/optparse.py', 'PYMODULE'),
  ('gettext', '/usr/lib64/python2.7/gettext.py', 'PYMODULE'),
  ('tokenize', '/usr/lib64/python2.7/tokenize.py', 'PYMODULE'),
  ('token', '/usr/lib64/python2.7/token.py', 'PYMODULE'),
  ('copy', '/usr/lib64/python2.7/copy.py', 'PYMODULE'),
  ('copy_reg', '/usr/lib64/python2.7/copy_reg.py', 'PYMODULE'),
  ('locale', '/usr/lib64/python2.7/locale.py', 'PYMODULE'),
  ('encodings.aliases',
   '/usr/lib64/python2.7/encodings/aliases.py',
   'PYMODULE'),
  ('encodings', '/usr/lib64/python2.7/encodings/__init__.py', 'PYMODULE'),
  ('encodings.idna', '/usr/lib64/python2.7/encodings/idna.py', 'PYMODULE'),
  ('stringprep', '/usr/lib64/python2.7/stringprep.py', 'PYMODULE'),
  ('encodings.mbcs', '/usr/lib64/python2.7/encodings/mbcs.py', 'PYMODULE'),
  ('encodings.raw_unicode_escape',
   '/usr/lib64/python2.7/encodings/raw_unicode_escape.py',
   'PYMODULE'),
  ('encodings.gb18030',
   '/usr/lib64/python2.7/encodings/gb18030.py',
   'PYMODULE'),
  ('encodings.shift_jisx0213',
   '/usr/lib64/python2.7/encodings/shift_jisx0213.py',
   'PYMODULE'),
  ('encodings.ascii', '/usr/lib64/python2.7/encodings/ascii.py', 'PYMODULE'),
  ('encodings.cp861', '/usr/lib64/python2.7/encodings/cp861.py', 'PYMODULE'),
  ('encodings.cp860', '/usr/lib64/python2.7/encodings/cp860.py', 'PYMODULE'),
  ('encodings.cp863', '/usr/lib64/python2.7/encodings/cp863.py', 'PYMODULE'),
  ('encodings.cp862', '/usr/lib64/python2.7/encodings/cp862.py', 'PYMODULE'),
  ('encodings.cp865', '/usr/lib64/python2.7/encodings/cp865.py', 'PYMODULE'),
  ('encodings.big5hkscs',
   '/usr/lib64/python2.7/encodings/big5hkscs.py',
   'PYMODULE'),
  ('encodings.cp866', '/usr/lib64/python2.7/encodings/cp866.py', 'PYMODULE'),
  ('encodings.cp869', '/usr/lib64/python2.7/encodings/cp869.py', 'PYMODULE'),
  ('encodings.mac_latin2',
   '/usr/lib64/python2.7/encodings/mac_latin2.py',
   'PYMODULE'),
  ('encodings.hex_codec',
   '/usr/lib64/python2.7/encodings/hex_codec.py',
   'PYMODULE'),
  ('encodings.cp950', '/usr/lib64/python2.7/encodings/cp950.py', 'PYMODULE'),
  ('encodings.quopri_codec',
   '/usr/lib64/python2.7/encodings/quopri_codec.py',
   'PYMODULE'),
  ('quopri', '/usr/lib64/python2.7/quopri.py', 'PYMODULE'),
  ('encodings.utf_32_be',
   '/usr/lib64/python2.7/encodings/utf_32_be.py',
   'PYMODULE'),
  ('encodings.string_escape',
   '/usr/lib64/python2.7/encodings/string_escape.py',
   'PYMODULE'),
  ('encodings.cp1250',
   '/usr/lib64/python2.7/encodings/cp1250.py',
   'PYMODULE'),
  ('encodings.cp1251',
   '/usr/lib64/python2.7/encodings/cp1251.py',
   'PYMODULE'),
  ('encodings.cp1252',
   '/usr/lib64/python2.7/encodings/cp1252.py',
   'PYMODULE'),
  ('encodings.cp1253',
   '/usr/lib64/python2.7/encodings/cp1253.py',
   'PYMODULE'),
  ('encodings.cp1254',
   '/usr/lib64/python2.7/encodings/cp1254.py',
   'PYMODULE'),
  ('encodings.cp1255',
   '/usr/lib64/python2.7/encodings/cp1255.py',
   'PYMODULE'),
  ('encodings.cp1256',
   '/usr/lib64/python2.7/encodings/cp1256.py',
   'PYMODULE'),
  ('encodings.cp1257',
   '/usr/lib64/python2.7/encodings/cp1257.py',
   'PYMODULE'),
  ('encodings.cp1258',
   '/usr/lib64/python2.7/encodings/cp1258.py',
   'PYMODULE'),
  ('encodings.euc_jp',
   '/usr/lib64/python2.7/encodings/euc_jp.py',
   'PYMODULE'),
  ('encodings.hz', '/usr/lib64/python2.7/encodings/hz.py', 'PYMODULE'),
  ('encodings.mac_cyrillic',
   '/usr/lib64/python2.7/encodings/mac_cyrillic.py',
   'PYMODULE'),
  ('encodings.iso2022_kr',
   '/usr/lib64/python2.7/encodings/iso2022_kr.py',
   'PYMODULE'),
  ('encodings.unicode_internal',
   '/usr/lib64/python2.7/encodings/unicode_internal.py',
   'PYMODULE'),
  ('encodings.cp500', '/usr/lib64/python2.7/encodings/cp500.py', 'PYMODULE'),
  ('encodings.iso8859_10',
   '/usr/lib64/python2.7/encodings/iso8859_10.py',
   'PYMODULE'),
  ('encodings.iso8859_11',
   '/usr/lib64/python2.7/encodings/iso8859_11.py',
   'PYMODULE'),
  ('encodings.iso8859_13',
   '/usr/lib64/python2.7/encodings/iso8859_13.py',
   'PYMODULE'),
  ('encodings.iso8859_14',
   '/usr/lib64/python2.7/encodings/iso8859_14.py',
   'PYMODULE'),
  ('encodings.cp424', '/usr/lib64/python2.7/encodings/cp424.py', 'PYMODULE'),
  ('encodings.iso8859_16',
   '/usr/lib64/python2.7/encodings/iso8859_16.py',
   'PYMODULE'),
  ('encodings.cp1006',
   '/usr/lib64/python2.7/encodings/cp1006.py',
   'PYMODULE'),
  ('encodings.hp_roman8',
   '/usr/lib64/python2.7/encodings/hp_roman8.py',
   'PYMODULE'),
  ('encodings.charmap',
   '/usr/lib64/python2.7/encodings/charmap.py',
   'PYMODULE'),
  ('encodings.utf_32',
   '/usr/lib64/python2.7/encodings/utf_32.py',
   'PYMODULE'),
  ('encodings.latin_1',
   '/usr/lib64/python2.7/encodings/latin_1.py',
   'PYMODULE'),
  ('encodings.utf_16_be',
   '/usr/lib64/python2.7/encodings/utf_16_be.py',
   'PYMODULE'),
  ('encodings.cp737', '/usr/lib64/python2.7/encodings/cp737.py', 'PYMODULE'),
  ('encodings.utf_16',
   '/usr/lib64/python2.7/encodings/utf_16.py',
   'PYMODULE'),
  ('encodings.cp437', '/usr/lib64/python2.7/encodings/cp437.py', 'PYMODULE'),
  ('encodings.mac_roman',
   '/usr/lib64/python2.7/encodings/mac_roman.py',
   'PYMODULE'),
  ('encodings.mac_centeuro',
   '/usr/lib64/python2.7/encodings/mac_centeuro.py',
   'PYMODULE'),
  ('encodings.mac_croatian',
   '/usr/lib64/python2.7/encodings/mac_croatian.py',
   'PYMODULE'),
  ('encodings.punycode',
   '/usr/lib64/python2.7/encodings/punycode.py',
   'PYMODULE'),
  ('encodings.unicode_escape',
   '/usr/lib64/python2.7/encodings/unicode_escape.py',
   'PYMODULE'),
  ('encodings.bz2_codec',
   '/usr/lib64/python2.7/encodings/bz2_codec.py',
   'PYMODULE'),
  ('encodings.rot_13',
   '/usr/lib64/python2.7/encodings/rot_13.py',
   'PYMODULE'),
  ('encodings.cp874', '/usr/lib64/python2.7/encodings/cp874.py', 'PYMODULE'),
  ('encodings.cp875', '/usr/lib64/python2.7/encodings/cp875.py', 'PYMODULE'),
  ('encodings.cp720', '/usr/lib64/python2.7/encodings/cp720.py', 'PYMODULE'),
  ('encodings.tis_620',
   '/usr/lib64/python2.7/encodings/tis_620.py',
   'PYMODULE'),
  ('encodings.zlib_codec',
   '/usr/lib64/python2.7/encodings/zlib_codec.py',
   'PYMODULE'),
  ('encodings.iso2022_jp_2004',
   '/usr/lib64/python2.7/encodings/iso2022_jp_2004.py',
   'PYMODULE'),
  ('encodings.euc_jisx0213',
   '/usr/lib64/python2.7/encodings/euc_jisx0213.py',
   'PYMODULE'),
  ('encodings.ptcp154',
   '/usr/lib64/python2.7/encodings/ptcp154.py',
   'PYMODULE'),
  ('encodings.uu_codec',
   '/usr/lib64/python2.7/encodings/uu_codec.py',
   'PYMODULE'),
  ('encodings.utf_16_le',
   '/usr/lib64/python2.7/encodings/utf_16_le.py',
   'PYMODULE'),
  ('encodings.iso2022_jp_2',
   '/usr/lib64/python2.7/encodings/iso2022_jp_2.py',
   'PYMODULE'),
  ('encodings.iso2022_jp_3',
   '/usr/lib64/python2.7/encodings/iso2022_jp_3.py',
   'PYMODULE'),
  ('encodings.iso2022_jp_1',
   '/usr/lib64/python2.7/encodings/iso2022_jp_1.py',
   'PYMODULE'),
  ('encodings.mac_romanian',
   '/usr/lib64/python2.7/encodings/mac_romanian.py',
   'PYMODULE'),
  ('encodings.cp1026',
   '/usr/lib64/python2.7/encodings/cp1026.py',
   'PYMODULE'),
  ('encodings.mac_farsi',
   '/usr/lib64/python2.7/encodings/mac_farsi.py',
   'PYMODULE'),
  ('encodings.undefined',
   '/usr/lib64/python2.7/encodings/undefined.py',
   'PYMODULE'),
  ('encodings.mac_turkish',
   '/usr/lib64/python2.7/encodings/mac_turkish.py',
   'PYMODULE'),
  ('encodings.koi8_u',
   '/usr/lib64/python2.7/encodings/koi8_u.py',
   'PYMODULE'),
  ('encodings.koi8_r',
   '/usr/lib64/python2.7/encodings/koi8_r.py',
   'PYMODULE'),
  ('encodings.utf_8_sig',
   '/usr/lib64/python2.7/encodings/utf_8_sig.py',
   'PYMODULE'),
  ('encodings.iso2022_jp',
   '/usr/lib64/python2.7/encodings/iso2022_jp.py',
   'PYMODULE'),
  ('encodings.palmos',
   '/usr/lib64/python2.7/encodings/palmos.py',
   'PYMODULE'),
  ('encodings.mac_greek',
   '/usr/lib64/python2.7/encodings/mac_greek.py',
   'PYMODULE'),
  ('encodings.shift_jis_2004',
   '/usr/lib64/python2.7/encodings/shift_jis_2004.py',
   'PYMODULE'),
  ('encodings.gbk', '/usr/lib64/python2.7/encodings/gbk.py', 'PYMODULE'),
  ('encodings.mac_iceland',
   '/usr/lib64/python2.7/encodings/mac_iceland.py',
   'PYMODULE'),
  ('encodings.cp858', '/usr/lib64/python2.7/encodings/cp858.py', 'PYMODULE'),
  ('encodings.cp850', '/usr/lib64/python2.7/encodings/cp850.py', 'PYMODULE'),
  ('encodings.cp852', '/usr/lib64/python2.7/encodings/cp852.py', 'PYMODULE'),
  ('encodings.cp855', '/usr/lib64/python2.7/encodings/cp855.py', 'PYMODULE'),
  ('encodings.cp856', '/usr/lib64/python2.7/encodings/cp856.py', 'PYMODULE'),
  ('encodings.cp857', '/usr/lib64/python2.7/encodings/cp857.py', 'PYMODULE'),
  ('encodings.iso8859_4',
   '/usr/lib64/python2.7/encodings/iso8859_4.py',
   'PYMODULE'),
  ('encodings.iso8859_5',
   '/usr/lib64/python2.7/encodings/iso8859_5.py',
   'PYMODULE'),
  ('encodings.iso8859_6',
   '/usr/lib64/python2.7/encodings/iso8859_6.py',
   'PYMODULE'),
  ('encodings.iso8859_7',
   '/usr/lib64/python2.7/encodings/iso8859_7.py',
   'PYMODULE'),
  ('encodings.iso8859_1',
   '/usr/lib64/python2.7/encodings/iso8859_1.py',
   'PYMODULE'),
  ('encodings.iso8859_2',
   '/usr/lib64/python2.7/encodings/iso8859_2.py',
   'PYMODULE'),
  ('encodings.iso8859_3',
   '/usr/lib64/python2.7/encodings/iso8859_3.py',
   'PYMODULE'),
  ('encodings.gb2312',
   '/usr/lib64/python2.7/encodings/gb2312.py',
   'PYMODULE'),
  ('encodings.iso8859_8',
   '/usr/lib64/python2.7/encodings/iso8859_8.py',
   'PYMODULE'),
  ('encodings.iso8859_9',
   '/usr/lib64/python2.7/encodings/iso8859_9.py',
   'PYMODULE'),
  ('encodings.cp949', '/usr/lib64/python2.7/encodings/cp949.py', 'PYMODULE'),
  ('encodings.cp864', '/usr/lib64/python2.7/encodings/cp864.py', 'PYMODULE'),
  ('encodings.base64_codec',
   '/usr/lib64/python2.7/encodings/base64_codec.py',
   'PYMODULE'),
  ('base64', '/usr/lib64/python2.7/base64.py', 'PYMODULE'),
  ('encodings.cp037', '/usr/lib64/python2.7/encodings/cp037.py', 'PYMODULE'),
  ('encodings.utf_8', '/usr/lib64/python2.7/encodings/utf_8.py', 'PYMODULE'),
  ('encodings.mac_arabic',
   '/usr/lib64/python2.7/encodings/mac_arabic.py',
   'PYMODULE'),
  ('encodings.euc_kr',
   '/usr/lib64/python2.7/encodings/euc_kr.py',
   'PYMODULE'),
  ('encodings.utf_7', '/usr/lib64/python2.7/encodings/utf_7.py', 'PYMODULE'),
  ('encodings.shift_jis',
   '/usr/lib64/python2.7/encodings/shift_jis.py',
   'PYMODULE'),
  ('encodings.utf_32_le',
   '/usr/lib64/python2.7/encodings/utf_32_le.py',
   'PYMODULE'),
  ('encodings.euc_jis_2004',
   '/usr/lib64/python2.7/encodings/euc_jis_2004.py',
   'PYMODULE'),
  ('encodings.cp775', '/usr/lib64/python2.7/encodings/cp775.py', 'PYMODULE'),
  ('encodings.cp1140',
   '/usr/lib64/python2.7/encodings/cp1140.py',
   'PYMODULE'),
  ('encodings.big5', '/usr/lib64/python2.7/encodings/big5.py', 'PYMODULE'),
  ('encodings.iso8859_15',
   '/usr/lib64/python2.7/encodings/iso8859_15.py',
   'PYMODULE'),
  ('encodings.iso2022_jp_ext',
   '/usr/lib64/python2.7/encodings/iso2022_jp_ext.py',
   'PYMODULE'),
  ('encodings.johab', '/usr/lib64/python2.7/encodings/johab.py', 'PYMODULE'),
  ('encodings.cp932', '/usr/lib64/python2.7/encodings/cp932.py', 'PYMODULE'),
  ('textwrap', '/usr/lib64/python2.7/textwrap.py', 'PYMODULE'),
  ('getopt', '/usr/lib64/python2.7/getopt.py', 'PYMODULE'),
  ('unittest.runner', '/usr/lib64/python2.7/unittest/runner.py', 'PYMODULE'),
  ('unittest.loader', '/usr/lib64/python2.7/unittest/loader.py', 'PYMODULE'),
  ('unittest.suite', '/usr/lib64/python2.7/unittest/suite.py', 'PYMODULE'),
  ('unittest.case', '/usr/lib64/python2.7/unittest/case.py', 'PYMODULE'),
  ('unittest.result', '/usr/lib64/python2.7/unittest/result.py', 'PYMODULE'),
  ('unittest.util', '/usr/lib64/python2.7/unittest/util.py', 'PYMODULE'),
  ('linecache', '/usr/lib64/python2.7/linecache.py', 'PYMODULE'),
  ('inspect', '/usr/lib64/python2.7/inspect.py', 'PYMODULE'),
  ('dis', '/usr/lib64/python2.7/dis.py', 'PYMODULE'),
  ('opcode', '/usr/lib64/python2.7/opcode.py', 'PYMODULE'),
  ('dummy_thread', '/usr/lib64/python2.7/dummy_thread.py', 'PYMODULE'),
  ('heapq', '/usr/lib64/python2.7/heapq.py', 'PYMODULE'),
  ('keyword', '/usr/lib64/python2.7/keyword.py', 'PYMODULE'),
  ('_abcoll', '/usr/lib64/python2.7/_abcoll.py', 'PYMODULE'),
  ('weakref', '/usr/lib64/python2.7/weakref.py', 'PYMODULE'),
  ('UserDict', '/usr/lib64/python2.7/UserDict.py', 'PYMODULE'),
  ('traceback', '/usr/lib64/python2.7/traceback.py', 'PYMODULE'),
  ('types', '/usr/lib64/python2.7/types.py', 'PYMODULE'),
  ('warnings', '/usr/lib64/python2.7/warnings.py', 'PYMODULE'),
  ('__future__', '/usr/lib64/python2.7/__future__.py', 'PYMODULE'),
  ('_strptime', '/usr/lib64/python2.7/_strptime.py', 'PYMODULE'),
  ('calendar', '/usr/lib64/python2.7/calendar.py', 'PYMODULE'),
  ('functools', '/usr/lib64/python2.7/functools.py', 'PYMODULE'),
  ('pickle', '/usr/lib64/python2.7/pickle.py', 'PYMODULE'),
  ('multiprocessing.process',
   '/usr/lib64/python2.7/multiprocessing/process.py',
   'PYMODULE'),
  ('multiprocessing.util',
   '/usr/lib64/python2.7/multiprocessing/util.py',
   'PYMODULE'),
  ('shutil', '/usr/lib64/python2.7/shutil.py', 'PYMODULE'),
  ('zipfile', '/usr/lib64/python2.7/zipfile.py', 'PYMODULE'),
  ('py_compile', '/usr/lib64/python2.7/py_compile.py', 'PYMODULE'),
  ('distutils.spawn', '/usr/lib64/python2.7/distutils/spawn.py', 'PYMODULE'),
  ('distutils.sysconfig',
   '/usr/lib64/python2.7/distutils/sysconfig.py',
   'PYMODULE'),
  ('_sysconfigdata', '/usr/lib64/python2.7/_sysconfigdata.py', 'PYMODULE'),
  ('distutils.text_file',
   '/usr/lib64/python2.7/distutils/text_file.py',
   'PYMODULE'),
  ('_osx_support', '/usr/lib64/python2.7/_osx_support.py', 'PYMODULE'),
  ('contextlib', '/usr/lib64/python2.7/contextlib.py', 'PYMODULE'),
  ('distutils.log', '/usr/lib64/python2.7/distutils/log.py', 'PYMODULE'),
  ('distutils', '/usr/lib64/python2.7/distutils/__init__.py', 'PYMODULE'),
  ('distutils.archive_util',
   '/usr/lib64/python2.7/distutils/archive_util.py',
   'PYMODULE'),
  ('distutils.dir_util',
   '/usr/lib64/python2.7/distutils/dir_util.py',
   'PYMODULE'),
  ('distutils.util', '/usr/lib64/python2.7/distutils/util.py', 'PYMODULE'),
  ('distutils.dep_util',
   '/usr/lib64/python2.7/distutils/dep_util.py',
   'PYMODULE'),
  ('distutils.file_util',
   '/usr/lib64/python2.7/distutils/file_util.py',
   'PYMODULE'),
  ('distutils.ccompiler',
   '/usr/lib64/python2.7/distutils/ccompiler.py',
   'PYMODULE'),
  ('distutils.fancy_getopt',
   '/usr/lib64/python2.7/distutils/fancy_getopt.py',
   'PYMODULE'),
  ('distutils.debug', '/usr/lib64/python2.7/distutils/debug.py', 'PYMODULE'),
  ('distutils.errors',
   '/usr/lib64/python2.7/distutils/errors.py',
   'PYMODULE'),
  ('tarfile', '/usr/lib64/python2.7/tarfile.py', 'PYMODULE'),
  ('gzip', '/usr/lib64/python2.7/gzip.py', 'PYMODULE'),
  ('subprocess', '/usr/lib64/python2.7/subprocess.py', 'PYMODULE'),
  ('multiprocessing',
   '/usr/lib64/python2.7/multiprocessing/__init__.py',
   'PYMODULE'),
  ('multiprocessing.sharedctypes',
   '/usr/lib64/python2.7/multiprocessing/sharedctypes.py',
   'PYMODULE'),
  ('ctypes', '/usr/lib64/python2.7/ctypes/__init__.py', 'PYMODULE'),
  ('ctypes.wintypes', '/usr/lib64/python2.7/ctypes/wintypes.py', 'PYMODULE'),
  ('ctypes._endian', '/usr/lib64/python2.7/ctypes/_endian.py', 'PYMODULE'),
  ('multiprocessing.heap',
   '/usr/lib64/python2.7/multiprocessing/heap.py',
   'PYMODULE'),
  ('bisect', '/usr/lib64/python2.7/bisect.py', 'PYMODULE'),
  ('multiprocessing.pool',
   '/usr/lib64/python2.7/multiprocessing/pool.py',
   'PYMODULE'),
  ('multiprocessing.dummy',
   '/usr/lib64/python2.7/multiprocessing/dummy/__init__.py',
   'PYMODULE'),
  ('multiprocessing.dummy.connection',
   '/usr/lib64/python2.7/multiprocessing/dummy/connection.py',
   'PYMODULE'),
  ('Queue', '/usr/lib64/python2.7/Queue.py', 'PYMODULE'),
  ('dummy_threading', '/usr/lib64/python2.7/dummy_threading.py', 'PYMODULE'),
  ('multiprocessing.queues',
   '/usr/lib64/python2.7/multiprocessing/queues.py',
   'PYMODULE'),
  ('multiprocessing.synchronize',
   '/usr/lib64/python2.7/multiprocessing/synchronize.py',
   'PYMODULE'),
  ('multiprocessing.reduction',
   '/usr/lib64/python2.7/multiprocessing/reduction.py',
   'PYMODULE'),
  ('socket', '/usr/lib64/python2.7/socket.py', 'PYMODULE'),
  ('ssl', '/usr/lib64/python2.7/ssl.py', 'PYMODULE'),
  ('ConfigParser', '/usr/lib64/python2.7/ConfigParser.py', 'PYMODULE'),
  ('multiprocessing.managers',
   '/usr/lib64/python2.7/multiprocessing/managers.py',
   'PYMODULE'),
  ('multiprocessing.connection',
   '/usr/lib64/python2.7/multiprocessing/connection.py',
   'PYMODULE'),
  ('xmlrpclib', '/usr/lib64/python2.7/xmlrpclib.py', 'PYMODULE'),
  ('urllib', '/usr/lib64/python2.7/urllib.py', 'PYMODULE'),
  ('getpass', '/usr/lib64/python2.7/getpass.py', 'PYMODULE'),
  ('ftplib', '/usr/lib64/python2.7/ftplib.py', 'PYMODULE'),
  ('email.utils', '/usr/lib64/python2.7/email/utils.py', 'PYMODULE'),
  ('email', '/usr/lib64/python2.7/email/__init__.py', 'PYMODULE'),
  ('email.mime', '/usr/lib64/python2.7/email/mime/__init__.py', 'PYMODULE'),
  ('email.parser', '/usr/lib64/python2.7/email/parser.py', 'PYMODULE'),
  ('email.feedparser',
   '/usr/lib64/python2.7/email/feedparser.py',
   'PYMODULE'),
  ('email.message', '/usr/lib64/python2.7/email/message.py', 'PYMODULE'),
  ('email.iterators', '/usr/lib64/python2.7/email/iterators.py', 'PYMODULE'),
  ('email.generator', '/usr/lib64/python2.7/email/generator.py', 'PYMODULE'),
  ('email.header', '/usr/lib64/python2.7/email/header.py', 'PYMODULE'),
  ('email.base64mime',
   '/usr/lib64/python2.7/email/base64mime.py',
   'PYMODULE'),
  ('email.quoprimime',
   '/usr/lib64/python2.7/email/quoprimime.py',
   'PYMODULE'),
  ('email.charset', '/usr/lib64/python2.7/email/charset.py', 'PYMODULE'),
  ('uu', '/usr/lib64/python2.7/uu.py', 'PYMODULE'),
  ('email.errors', '/usr/lib64/python2.7/email/errors.py', 'PYMODULE'),
  ('email.encoders', '/usr/lib64/python2.7/email/encoders.py', 'PYMODULE'),
  ('email._parseaddr',
   '/usr/lib64/python2.7/email/_parseaddr.py',
   'PYMODULE'),
  ('mimetools', '/usr/lib64/python2.7/mimetools.py', 'PYMODULE'),
  ('rfc822', '/usr/lib64/python2.7/rfc822.py', 'PYMODULE'),
  ('mimetypes', '/usr/lib64/python2.7/mimetypes.py', 'PYMODULE'),
  ('nturl2path', '/usr/lib64/python2.7/nturl2path.py', 'PYMODULE'),
  ('urlparse', '/usr/lib64/python2.7/urlparse.py', 'PYMODULE'),
  ('xmllib', '/usr/lib64/python2.7/xmllib.py', 'PYMODULE'),
  ('xml.parsers.expat',
   '/usr/lib64/python2.7/xml/parsers/expat.py',
   'PYMODULE'),
  ('xml.parsers', '/usr/lib64/python2.7/xml/parsers/__init__.py', 'PYMODULE'),
  ('xml', '/usr/lib64/python2.7/xml/__init__.py', 'PYMODULE'),
  ('xml.sax.expatreader',
   '/usr/lib64/python2.7/xml/sax/expatreader.py',
   'PYMODULE'),
  ('xml.sax.saxutils',
   '/usr/lib64/python2.7/xml/sax/saxutils.py',
   'PYMODULE'),
  ('xml.sax', '/usr/lib64/python2.7/xml/sax/__init__.py', 'PYMODULE'),
  ('xml.sax.handler', '/usr/lib64/python2.7/xml/sax/handler.py', 'PYMODULE'),
  ('xml.sax._exceptions',
   '/usr/lib64/python2.7/xml/sax/_exceptions.py',
   'PYMODULE'),
  ('xml.sax.xmlreader',
   '/usr/lib64/python2.7/xml/sax/xmlreader.py',
   'PYMODULE'),
  ('httplib', '/usr/lib64/python2.7/httplib.py', 'PYMODULE'),
  ('hmac', '/usr/lib64/python2.7/hmac.py', 'PYMODULE'),
  ('re', '/usr/lib64/python2.7/re.py', 'PYMODULE'),
  ('sre_constants', '/usr/lib64/python2.7/sre_constants.py', 'PYMODULE'),
  ('sre', '/usr/lib64/python2.7/sre.py', 'PYMODULE'),
  ('sre_parse', '/usr/lib64/python2.7/sre_parse.py', 'PYMODULE'),
  ('sre_compile', '/usr/lib64/python2.7/sre_compile.py', 'PYMODULE'),
  ('pkg_resources',
   '/usr/lib/python2.7/site-packages/pkg_resources/__init__.py',
   'PYMODULE'),
  ('pkg_resources._vendor.packaging.version',
   '/usr/lib/python2.7/site-packages/pkg_resources/_vendor/packaging/version.py',
   'PYMODULE'),
  ('pkg_resources._vendor.packaging.markers',
   '/usr/lib/python2.7/site-packages/pkg_resources/_vendor/packaging/markers.py',
   'PYMODULE'),
  ('pkg_resources._vendor.pyparsing',
   '/usr/lib/python2.7/site-packages/pkg_resources/_vendor/pyparsing.py',
   'PYMODULE'),
  ('uuid', '/usr/lib64/python2.7/uuid.py', 'PYMODULE'),
  ('ctypes.util', '/usr/lib64/python2.7/ctypes/util.py', 'PYMODULE'),
  ('ctypes.macholib.dyld',
   '/usr/lib64/python2.7/ctypes/macholib/dyld.py',
   'PYMODULE'),
  ('ctypes.macholib',
   '/usr/lib64/python2.7/ctypes/macholib/__init__.py',
   'PYMODULE'),
  ('ctypes.macholib.dylib',
   '/usr/lib64/python2.7/ctypes/macholib/dylib.py',
   'PYMODULE'),
  ('ctypes.macholib.framework',
   '/usr/lib64/python2.7/ctypes/macholib/framework.py',
   'PYMODULE'),
  ('pkg_resources._vendor',
   '/usr/lib/python2.7/site-packages/pkg_resources/_vendor/__init__.py',
   'PYMODULE'),
  ('pkg_resources._vendor.packaging.__about__',
   '/usr/lib/python2.7/site-packages/pkg_resources/_vendor/packaging/__about__.py',
   'PYMODULE'),
  ('pkg_resources._vendor.packaging._compat',
   '/usr/lib/python2.7/site-packages/pkg_resources/_vendor/packaging/_compat.py',
   'PYMODULE'),
  ('pkg_resources._vendor.packaging.specifiers',
   '/usr/lib/python2.7/site-packages/pkg_resources/_vendor/packaging/specifiers.py',
   'PYMODULE'),
  ('pkg_resources._vendor.packaging.requirements',
   '/usr/lib/python2.7/site-packages/pkg_resources/_vendor/packaging/requirements.py',
   'PYMODULE'),
  ('pkg_resources._vendor.appdirs',
   '/usr/lib/python2.7/site-packages/pkg_resources/_vendor/appdirs.py',
   'PYMODULE'),
  ('pkg_resources._vendor.packaging',
   '/usr/lib/python2.7/site-packages/pkg_resources/_vendor/packaging/__init__.py',
   'PYMODULE'),
  ('pkg_resources._vendor.six',
   '/usr/lib/python2.7/site-packages/pkg_resources/_vendor/six.py',
   'PYMODULE'),
  ('pkg_resources._vendor.packaging._structures',
   '/usr/lib/python2.7/site-packages/pkg_resources/_vendor/packaging/_structures.py',
   'PYMODULE'),
  ('pkg_resources._vendor.packaging.utils',
   '/usr/lib/python2.7/site-packages/pkg_resources/_vendor/packaging/utils.py',
   'PYMODULE'),
  ('sysconfig', '/usr/lib64/python2.7/sysconfig.py', 'PYMODULE'),
  ('pkg_resources.py31compat',
   '/usr/lib/python2.7/site-packages/pkg_resources/py31compat.py',
   'PYMODULE'),
  ('pkg_resources.extern',
   '/usr/lib/python2.7/site-packages/pkg_resources/extern/__init__.py',
   'PYMODULE'),
  ('ntpath', '/usr/lib64/python2.7/ntpath.py', 'PYMODULE'),
  ('plistlib', '/usr/lib64/python2.7/plistlib.py', 'PYMODULE'),
  ('platform', '/usr/lib64/python2.7/platform.py', 'PYMODULE'),
  ('pkgutil', '/usr/lib64/python2.7/pkgutil.py', 'PYMODULE'),
  ('codecs', '/usr/lib64/python2.7/codecs.py', 'PYMODULE'),
  ('pandas',
   '/usr/lib64/python2.7/site-packages/pandas/__init__.py',
   'PYMODULE'),
  ('pandas._libs.tslibs',
   '/usr/lib64/python2.7/site-packages/pandas/_libs/tslibs/__init__.py',
   'PYMODULE'),
  ('pandas._version',
   '/usr/lib64/python2.7/site-packages/pandas/_version.py',
   'PYMODULE'),
  ('json', '/usr/lib64/python2.7/json/__init__.py', 'PYMODULE'),
  ('json.encoder', '/usr/lib64/python2.7/json/encoder.py', 'PYMODULE'),
  ('json.decoder', '/usr/lib64/python2.7/json/decoder.py', 'PYMODULE'),
  ('json.scanner', '/usr/lib64/python2.7/json/scanner.py', 'PYMODULE'),
  ('pandas.arrays',
   '/usr/lib64/python2.7/site-packages/pandas/arrays/__init__.py',
   'PYMODULE'),
  ('pandas.core.arrays',
   '/usr/lib64/python2.7/site-packages/pandas/core/arrays/__init__.py',
   'PYMODULE'),
  ('pandas.core.arrays.numpy_',
   '/usr/lib64/python2.7/site-packages/pandas/core/arrays/numpy_.py',
   'PYMODULE'),
  ('pandas.core.algorithms',
   '/usr/lib64/python2.7/site-packages/pandas/core/algorithms.py',
   'PYMODULE'),
  ('pandas.core.indexing',
   '/usr/lib64/python2.7/site-packages/pandas/core/indexing.py',
   'PYMODULE'),
  ('pandas.core.index',
   '/usr/lib64/python2.7/site-packages/pandas/core/index.py',
   'PYMODULE'),
  ('pandas.core.indexes.multi',
   '/usr/lib64/python2.7/site-packages/pandas/core/indexes/multi.py',
   'PYMODULE'),
  ('pandas.core.indexes',
   '/usr/lib64/python2.7/site-packages/pandas/core/indexes/__init__.py',
   'PYMODULE'),
  ('pandas.core.indexes.numeric',
   '/usr/lib64/python2.7/site-packages/pandas/core/indexes/numeric.py',
   'PYMODULE'),
  ('pandas.core.ops',
   '/usr/lib64/python2.7/site-packages/pandas/core/ops.py',
   'PYMODULE'),
  ('pandas.core.computation.expressions',
   '/usr/lib64/python2.7/site-packages/pandas/core/computation/expressions.py',
   'PYMODULE'),
  ('pandas.core.computation',
   '/usr/lib64/python2.7/site-packages/pandas/core/computation/__init__.py',
   'PYMODULE'),
  ('pandas.core.computation.check',
   '/usr/lib64/python2.7/site-packages/pandas/core/computation/check.py',
   'PYMODULE'),
  ('distutils.version',
   '/usr/lib64/python2.7/distutils/version.py',
   'PYMODULE'),
  ('pandas.core.dtypes.concat',
   '/usr/lib64/python2.7/site-packages/pandas/core/dtypes/concat.py',
   'PYMODULE'),
  ('pandas.core.dtypes',
   '/usr/lib64/python2.7/site-packages/pandas/core/dtypes/__init__.py',
   'PYMODULE'),
  ('pandas.core.util.hashing',
   '/usr/lib64/python2.7/site-packages/pandas/core/util/hashing.py',
   'PYMODULE'),
  ('pandas.core.util',
   '/usr/lib64/python2.7/site-packages/pandas/core/util/__init__.py',
   'PYMODULE'),
  ('pandas.io.formats.format',
   '/usr/lib64/python2.7/site-packages/pandas/io/formats/format.py',
   'PYMODULE'),
  ('decimal', '/usr/lib64/python2.7/decimal.py', 'PYMODULE'),
  ('pandas.io.formats.html',
   '/usr/lib64/python2.7/site-packages/pandas/io/formats/html.py',
   'PYMODULE'),
  ('pandas.io.formats.latex',
   '/usr/lib64/python2.7/site-packages/pandas/io/formats/latex.py',
   'PYMODULE'),
  ('pandas.core.reshape.concat',
   '/usr/lib64/python2.7/site-packages/pandas/core/reshape/concat.py',
   'PYMODULE'),
  ('pandas.core.internals',
   '/usr/lib64/python2.7/site-packages/pandas/core/internals/__init__.py',
   'PYMODULE'),
  ('pandas.core.internals.managers',
   '/usr/lib64/python2.7/site-packages/pandas/core/internals/managers.py',
   'PYMODULE'),
  ('pandas.core.internals.concat',
   '/usr/lib64/python2.7/site-packages/pandas/core/internals/concat.py',
   'PYMODULE'),
  ('pandas.core.internals.blocks',
   '/usr/lib64/python2.7/site-packages/pandas/core/internals/blocks.py',
   'PYMODULE'),
  ('pandas.core.generic',
   '/usr/lib64/python2.7/site-packages/pandas/core/generic.py',
   'PYMODULE'),
  ('pandas.core.window',
   '/usr/lib64/python2.7/site-packages/pandas/core/window.py',
   'PYMODULE'),
  ('pandas.core.groupby.base',
   '/usr/lib64/python2.7/site-packages/pandas/core/groupby/base.py',
   'PYMODULE'),
  ('pandas.core.groupby',
   '/usr/lib64/python2.7/site-packages/pandas/core/groupby/__init__.py',
   'PYMODULE'),
  ('pandas.core.groupby.grouper',
   '/usr/lib64/python2.7/site-packages/pandas/core/groupby/grouper.py',
   'PYMODULE'),
  ('pandas.core.groupby.categorical',
   '/usr/lib64/python2.7/site-packages/pandas/core/groupby/categorical.py',
   'PYMODULE'),
  ('pandas.core.groupby.ops',
   '/usr/lib64/python2.7/site-packages/pandas/core/groupby/ops.py',
   'PYMODULE'),
  ('pandas.core.frame',
   '/usr/lib64/python2.7/site-packages/pandas/core/frame.py',
   'PYMODULE'),
  ('pandas.core.reshape.merge',
   '/usr/lib64/python2.7/site-packages/pandas/core/reshape/merge.py',
   'PYMODULE'),
  ('pandas.core.apply',
   '/usr/lib64/python2.7/site-packages/pandas/core/apply.py',
   'PYMODULE'),
  ('pandas.core.reshape.melt',
   '/usr/lib64/python2.7/site-packages/pandas/core/reshape/melt.py',
   'PYMODULE'),
  ('pandas.core.tools.numeric',
   '/usr/lib64/python2.7/site-packages/pandas/core/tools/numeric.py',
   'PYMODULE'),
  ('pandas.core.tools',
   '/usr/lib64/python2.7/site-packages/pandas/core/tools/__init__.py',
   'PYMODULE'),
  ('pandas.core.reshape.reshape',
   '/usr/lib64/python2.7/site-packages/pandas/core/reshape/reshape.py',
   'PYMODULE'),
  ('pandas.core.reshape.pivot',
   '/usr/lib64/python2.7/site-packages/pandas/core/reshape/pivot.py',
   'PYMODULE'),
  ('pandas.core.computation.eval',
   '/usr/lib64/python2.7/site-packages/pandas/core/computation/eval.py',
   'PYMODULE'),
  ('pandas.core.computation.expr',
   '/usr/lib64/python2.7/site-packages/pandas/core/computation/expr.py',
   'PYMODULE'),
  ('pandas.core.computation.ops',
   '/usr/lib64/python2.7/site-packages/pandas/core/computation/ops.py',
   'PYMODULE'),
  ('pandas.core.computation.common',
   '/usr/lib64/python2.7/site-packages/pandas/core/computation/common.py',
   'PYMODULE'),
  ('ast', '/usr/lib64/python2.7/ast.py', 'PYMODULE'),
  ('pandas.core.computation.scope',
   '/usr/lib64/python2.7/site-packages/pandas/core/computation/scope.py',
   'PYMODULE'),
  ('pandas.core.computation.engines',
   '/usr/lib64/python2.7/site-packages/pandas/core/computation/engines.py',
   'PYMODULE'),
  ('pandas.core.computation.align',
   '/usr/lib64/python2.7/site-packages/pandas/core/computation/align.py',
   'PYMODULE'),
  ('pandas.io.parquet',
   '/usr/lib64/python2.7/site-packages/pandas/io/parquet.py',
   'PYMODULE'),
  ('pandas.io.feather_format',
   '/usr/lib64/python2.7/site-packages/pandas/io/feather_format.py',
   'PYMODULE'),
  ('pandas.io.stata',
   '/usr/lib64/python2.7/site-packages/pandas/io/stata.py',
   'PYMODULE'),
  ('dateutil.relativedelta',
   '/usr/lib/python2.7/site-packages/dateutil/relativedelta.py',
   'PYMODULE'),
  ('dateutil',
   '/usr/lib/python2.7/site-packages/dateutil/__init__.py',
   'PYMODULE'),
  ('dateutil.parser',
   '/usr/lib/python2.7/site-packages/dateutil/parser/__init__.py',
   'PYMODULE'),
  ('dateutil.parser.isoparser',
   '/usr/lib/python2.7/site-packages/dateutil/parser/isoparser.py',
   'PYMODULE'),
  ('dateutil.parser._parser',
   '/usr/lib/python2.7/site-packages/dateutil/parser/_parser.py',
   'PYMODULE'),
  ('dateutil.rrule',
   '/usr/lib/python2.7/site-packages/dateutil/rrule.py',
   'PYMODULE'),
  ('fractions', '/usr/lib64/python2.7/fractions.py', 'PYMODULE'),
  ('dateutil.tz',
   '/usr/lib/python2.7/site-packages/dateutil/tz/__init__.py',
   'PYMODULE'),
  ('dateutil.tz.tz',
   '/usr/lib/python2.7/site-packages/dateutil/tz/tz.py',
   'PYMODULE'),
  ('dateutil.zoneinfo',
   '/usr/lib/python2.7/site-packages/dateutil/zoneinfo/__init__.py',
   'PYMODULE'),
  ('dateutil.tz.win',
   '/usr/lib/python2.7/site-packages/dateutil/tz/win.py',
   'PYMODULE'),
  ('dateutil.tz._factories',
   '/usr/lib/python2.7/site-packages/dateutil/tz/_factories.py',
   'PYMODULE'),
  ('dateutil.tz._common',
   '/usr/lib/python2.7/site-packages/dateutil/tz/_common.py',
   'PYMODULE'),
  ('dateutil.easter',
   '/usr/lib/python2.7/site-packages/dateutil/easter.py',
   'PYMODULE'),
  ('dateutil._version',
   '/usr/lib/python2.7/site-packages/dateutil/_version.py',
   'PYMODULE'),
  ('dateutil._common',
   '/usr/lib/python2.7/site-packages/dateutil/_common.py',
   'PYMODULE'),
  ('six', '/usr/lib/python2.7/site-packages/six.py', 'PYMODULE'),
  ('pandas.io.parsers',
   '/usr/lib64/python2.7/site-packages/pandas/io/parsers.py',
   'PYMODULE'),
  ('pandas.io.date_converters',
   '/usr/lib64/python2.7/site-packages/pandas/io/date_converters.py',
   'PYMODULE'),
  ('csv', '/usr/lib64/python2.7/csv.py', 'PYMODULE'),
  ('pandas.io.gbq',
   '/usr/lib64/python2.7/site-packages/pandas/io/gbq.py',
   'PYMODULE'),
  ('pandas.io.formats.style',
   '/usr/lib64/python2.7/site-packages/pandas/io/formats/style.py',
   'PYMODULE'),
  ('jinja2',
   '/usr/lib/python2.7/site-packages/jinja2/__init__.py',
   'PYMODULE'),
  ('jinja2.ext',
   '/usr/lib/python2.7/site-packages/jinja2/ext.py',
   'PYMODULE'),
  ('jinja2._compat',
   '/usr/lib/python2.7/site-packages/jinja2/_compat.py',
   'PYMODULE'),
  ('jinja2.defaults',
   '/usr/lib/python2.7/site-packages/jinja2/defaults.py',
   'PYMODULE'),
  ('jinja2.tests',
   '/usr/lib/python2.7/site-packages/jinja2/tests.py',
   'PYMODULE'),
  ('jinja2.utils',
   '/usr/lib/python2.7/site-packages/jinja2/utils.py',
   'PYMODULE'),
  ('jinja2.constants',
   '/usr/lib/python2.7/site-packages/jinja2/constants.py',
   'PYMODULE'),
  ('jinja2.lexer',
   '/usr/lib/python2.7/site-packages/jinja2/lexer.py',
   'PYMODULE'),
  ('jinja2.filters',
   '/usr/lib/python2.7/site-packages/jinja2/filters.py',
   'PYMODULE'),
  ('jinja2.exceptions',
   '/usr/lib/python2.7/site-packages/jinja2/exceptions.py',
   'PYMODULE'),
  ('jinja2.runtime',
   '/usr/lib/python2.7/site-packages/jinja2/runtime.py',
   'PYMODULE'),
  ('jinja2.bccache',
   '/usr/lib/python2.7/site-packages/jinja2/bccache.py',
   'PYMODULE'),
  ('jinja2.loaders',
   '/usr/lib/python2.7/site-packages/jinja2/loaders.py',
   'PYMODULE'),
  ('jinja2.environment',
   '/usr/lib/python2.7/site-packages/jinja2/environment.py',
   'PYMODULE'),
  ('jinja2.debug',
   '/usr/lib/python2.7/site-packages/jinja2/debug.py',
   'PYMODULE'),
  ('jinja2.compiler',
   '/usr/lib/python2.7/site-packages/jinja2/compiler.py',
   'PYMODULE'),
  ('jinja2.visitor',
   '/usr/lib/python2.7/site-packages/jinja2/visitor.py',
   'PYMODULE'),
  ('jinja2.optimizer',
   '/usr/lib/python2.7/site-packages/jinja2/optimizer.py',
   'PYMODULE'),
  ('jinja2.parser',
   '/usr/lib/python2.7/site-packages/jinja2/parser.py',
   'PYMODULE'),
  ('jinja2.nodes',
   '/usr/lib/python2.7/site-packages/jinja2/nodes.py',
   'PYMODULE'),
  ('jinja2._stringdefs',
   '/usr/lib/python2.7/site-packages/jinja2/_stringdefs.py',
   'PYMODULE'),
  ('pandas.api.types',
   '/usr/lib64/python2.7/site-packages/pandas/api/types/__init__.py',
   'PYMODULE'),
  ('pandas.api',
   '/usr/lib64/python2.7/site-packages/pandas/api/__init__.py',
   'PYMODULE'),
  ('pandas.api.extensions',
   '/usr/lib64/python2.7/site-packages/pandas/api/extensions/__init__.py',
   'PYMODULE'),
  ('pandas.core.dtypes.api',
   '/usr/lib64/python2.7/site-packages/pandas/core/dtypes/api.py',
   'PYMODULE'),
  ('numpy.ma.mrecords',
   '/usr/lib64/python2.7/site-packages/numpy/ma/mrecords.py',
   'PYMODULE'),
  ('numpy.core.records',
   '/usr/lib64/python2.7/site-packages/numpy/core/records.py',
   'PYMODULE'),
  ('numpy.core.arrayprint',
   '/usr/lib64/python2.7/site-packages/numpy/core/arrayprint.py',
   'PYMODULE'),
  ('numpy.core.fromnumeric',
   '/usr/lib64/python2.7/site-packages/numpy/core/fromnumeric.py',
   'PYMODULE'),
  ('numpy.core._methods',
   '/usr/lib64/python2.7/site-packages/numpy/core/_methods.py',
   'PYMODULE'),
  ('numpy._globals',
   '/usr/lib64/python2.7/site-packages/numpy/_globals.py',
   'PYMODULE'),
  ('numpy.core.multiarray',
   '/usr/lib64/python2.7/site-packages/numpy/core/multiarray.py',
   'PYMODULE'),
  ('numpy.core.umath',
   '/usr/lib64/python2.7/site-packages/numpy/core/umath.py',
   'PYMODULE'),
  ('numpy.core.overrides',
   '/usr/lib64/python2.7/site-packages/numpy/core/overrides.py',
   'PYMODULE'),
  ('numpy.compat._inspect',
   '/usr/lib64/python2.7/site-packages/numpy/compat/_inspect.py',
   'PYMODULE'),
  ('numpy.core.numeric',
   '/usr/lib64/python2.7/site-packages/numpy/core/numeric.py',
   'PYMODULE'),
  ('numpy.core._internal',
   '/usr/lib64/python2.7/site-packages/numpy/core/_internal.py',
   'PYMODULE'),
  ('numpy.core',
   '/usr/lib64/python2.7/site-packages/numpy/core/__init__.py',
   'PYMODULE'),
  ('numpy._pytesttester',
   '/usr/lib64/python2.7/site-packages/numpy/_pytesttester.py',
   'PYMODULE'),
  ('numpy.distutils.cpuinfo',
   '/usr/lib64/python2.7/site-packages/numpy/distutils/cpuinfo.py',
   'PYMODULE'),
  ('numpy.distutils.compat',
   '/usr/lib64/python2.7/site-packages/numpy/distutils/compat.py',
   'PYMODULE'),
  ('commands', '/usr/lib64/python2.7/commands.py', 'PYMODULE'),
  ('numpy.distutils',
   '/usr/lib64/python2.7/site-packages/numpy/distutils/__init__.py',
   'PYMODULE'),
  ('numpy.distutils.fcompiler',
   '/usr/lib64/python2.7/site-packages/numpy/distutils/fcompiler/__init__.py',
   'PYMODULE'),
  ('numpy.distutils.command.config_compiler',
   '/usr/lib64/python2.7/site-packages/numpy/distutils/command/config_compiler.py',
   'PYMODULE'),
  ('numpy.distutils.command',
   '/usr/lib64/python2.7/site-packages/numpy/distutils/command/__init__.py',
   'PYMODULE'),
  ('numpy.distutils.command.egg_info',
   '/usr/lib64/python2.7/site-packages/numpy/distutils/command/egg_info.py',
   'PYMODULE'),
  ('setuptools.command.egg_info',
   '/usr/lib/python2.7/site-packages/setuptools/command/egg_info.py',
   'PYMODULE'),
  ('setuptools.glob',
   '/usr/lib/python2.7/site-packages/setuptools/glob.py',
   'PYMODULE'),
  ('setuptools.unicode_utils',
   '/usr/lib/python2.7/site-packages/setuptools/unicode_utils.py',
   'PYMODULE'),
  ('setuptools.command.bdist_egg',
   '/usr/lib/python2.7/site-packages/setuptools/command/bdist_egg.py',
   'PYMODULE'),
  ('setuptools.extension',
   '/usr/lib/python2.7/site-packages/setuptools/extension.py',
   'PYMODULE'),
  ('setuptools.monkey',
   '/usr/lib/python2.7/site-packages/setuptools/monkey.py',
   'PYMODULE'),
  ('importlib', '/usr/lib64/python2.7/importlib/__init__.py', 'PYMODULE'),
  ('distutils.extension',
   '/usr/lib64/python2.7/distutils/extension.py',
   'PYMODULE'),
  ('setuptools.command',
   '/usr/lib/python2.7/site-packages/setuptools/command/__init__.py',
   'PYMODULE'),
  ('setuptools.command.install_scripts',
   '/usr/lib/python2.7/site-packages/setuptools/command/install_scripts.py',
   'PYMODULE'),
  ('setuptools.command.easy_install',
   '/usr/lib/python2.7/site-packages/setuptools/command/easy_install.py',
   'PYMODULE'),
  ('setuptools.dist',
   '/usr/lib/python2.7/site-packages/setuptools/dist.py',
   'PYMODULE'),
  ('setuptools.installer',
   '/usr/lib/python2.7/site-packages/setuptools/installer.py',
   'PYMODULE'),
  ('setuptools.py31compat',
   '/usr/lib/python2.7/site-packages/setuptools/py31compat.py',
   'PYMODULE'),
  ('setuptools.config',
   '/usr/lib/python2.7/site-packages/setuptools/config.py',
   'PYMODULE'),
  ('setuptools.windows_support',
   '/usr/lib/python2.7/site-packages/setuptools/windows_support.py',
   'PYMODULE'),
  ('setuptools.depends',
   '/usr/lib/python2.7/site-packages/setuptools/depends.py',
   'PYMODULE'),
  ('setuptools.py33compat',
   '/usr/lib/python2.7/site-packages/setuptools/py33compat.py',
   'PYMODULE'),
  ('HTMLParser', '/usr/lib64/python2.7/HTMLParser.py', 'PYMODULE'),
  ('htmlentitydefs', '/usr/lib64/python2.7/htmlentitydefs.py', 'PYMODULE'),
  ('markupbase', '/usr/lib64/python2.7/markupbase.py', 'PYMODULE'),
  ('distutils.cmd', '/usr/lib64/python2.7/distutils/cmd.py', 'PYMODULE'),
  ('setuptools.wheel',
   '/usr/lib/python2.7/site-packages/setuptools/wheel.py',
   'PYMODULE'),
  ('setuptools.package_index',
   '/usr/lib/python2.7/site-packages/setuptools/package_index.py',
   'PYMODULE'),
  ('setuptools.ssl_support',
   '/usr/lib/python2.7/site-packages/setuptools/ssl_support.py',
   'PYMODULE'),
  ('backports.ssl_match_hostname',
   '/usr/lib/python2.7/site-packages/backports/ssl_match_hostname/__init__.py',
   'PYMODULE'),
  ('backports',
   '/usr/lib/python2.7/site-packages/backports/__init__.py',
   'PYMODULE'),
  ('ipaddress', '/usr/lib/python2.7/site-packages/ipaddress.py', 'PYMODULE'),
  ('setuptools.archive_util',
   '/usr/lib/python2.7/site-packages/setuptools/archive_util.py',
   'PYMODULE'),
  ('setuptools.py27compat',
   '/usr/lib/python2.7/site-packages/setuptools/py27compat.py',
   'PYMODULE'),
  ('setuptools._imp',
   '/usr/lib/python2.7/site-packages/setuptools/_imp.py',
   'PYMODULE'),
  ('setuptools.py34compat',
   '/usr/lib/python2.7/site-packages/setuptools/py34compat.py',
   'PYMODULE'),
  ('setuptools.sandbox',
   '/usr/lib/python2.7/site-packages/setuptools/sandbox.py',
   'PYMODULE'),
  ('site',
   '/usr/lib/python2.7/site-packages/PyInstaller/fake-modules/site.py',
   'PYMODULE'),
  ('distutils.command.build_scripts',
   '/usr/lib64/python2.7/distutils/command/build_scripts.py',
   'PYMODULE'),
  ('distutils.command',
   '/usr/lib64/python2.7/distutils/command/__init__.py',
   'PYMODULE'),
  ('distutils.command.install',
   '/usr/lib64/python2.7/distutils/command/install.py',
   'PYMODULE'),
  ('distutils.command.install_scripts',
   '/usr/lib64/python2.7/distutils/command/install_scripts.py',
   'PYMODULE'),
  ('distutils.command.bdist',
   '/usr/lib64/python2.7/distutils/command/bdist.py',
   'PYMODULE'),
  ('setuptools.command.setopt',
   '/usr/lib/python2.7/site-packages/setuptools/command/setopt.py',
   'PYMODULE'),
  ('setuptools.command.sdist',
   '/usr/lib/python2.7/site-packages/setuptools/command/sdist.py',
   'PYMODULE'),
  ('setuptools.command.py36compat',
   '/usr/lib/python2.7/site-packages/setuptools/command/py36compat.py',
   'PYMODULE'),
  ('distutils.command.sdist',
   '/usr/lib64/python2.7/distutils/command/sdist.py',
   'PYMODULE'),
  ('setuptools',
   '/usr/lib/python2.7/site-packages/setuptools/__init__.py',
   'PYMODULE'),
  ('setuptools._vendor.pyparsing',
   '/usr/lib/python2.7/site-packages/setuptools/_vendor/pyparsing.py',
   'PYMODULE'),
  ('setuptools._vendor.packaging.requirements',
   '/usr/lib/python2.7/site-packages/setuptools/_vendor/packaging/requirements.py',
   'PYMODULE'),
  ('setuptools._vendor',
   '/usr/lib/python2.7/site-packages/setuptools/_vendor/__init__.py',
   'PYMODULE'),
  ('setuptools._vendor.six',
   '/usr/lib/python2.7/site-packages/setuptools/_vendor/six.py',
   'PYMODULE'),
  ('setuptools._vendor.ordered_set',
   '/usr/lib/python2.7/site-packages/setuptools/_vendor/ordered_set.py',
   'PYMODULE'),
  ('setuptools._vendor.packaging._compat',
   '/usr/lib/python2.7/site-packages/setuptools/_vendor/packaging/_compat.py',
   'PYMODULE'),
  ('setuptools._vendor.packaging.version',
   '/usr/lib/python2.7/site-packages/setuptools/_vendor/packaging/version.py',
   'PYMODULE'),
  ('setuptools._vendor.packaging.utils',
   '/usr/lib/python2.7/site-packages/setuptools/_vendor/packaging/utils.py',
   'PYMODULE'),
  ('setuptools._vendor.packaging.specifiers',
   '/usr/lib/python2.7/site-packages/setuptools/_vendor/packaging/specifiers.py',
   'PYMODULE'),
  ('setuptools._vendor.packaging.tags',
   '/usr/lib/python2.7/site-packages/setuptools/_vendor/packaging/tags.py',
   'PYMODULE'),
  ('setuptools._vendor.packaging.__about__',
   '/usr/lib/python2.7/site-packages/setuptools/_vendor/packaging/__about__.py',
   'PYMODULE'),
  ('setuptools._vendor.packaging.markers',
   '/usr/lib/python2.7/site-packages/setuptools/_vendor/packaging/markers.py',
   'PYMODULE'),
  ('setuptools._vendor.packaging._structures',
   '/usr/lib/python2.7/site-packages/setuptools/_vendor/packaging/_structures.py',
   'PYMODULE'),
  ('setuptools._vendor.packaging',
   '/usr/lib/python2.7/site-packages/setuptools/_vendor/packaging/__init__.py',
   'PYMODULE'),
  ('setuptools.msvc',
   '/usr/lib/python2.7/site-packages/setuptools/msvc.py',
   'PYMODULE'),
  ('distutils.msvc9compiler',
   '/usr/lib64/python2.7/distutils/msvc9compiler.py',
   'PYMODULE'),
  ('distutils.command.build_ext',
   '/usr/lib64/python2.7/distutils/command/build_ext.py',
   'PYMODULE'),
  ('distutils.msvccompiler',
   '/usr/lib64/python2.7/distutils/msvccompiler.py',
   'PYMODULE'),
  ('setuptools.namespaces',
   '/usr/lib/python2.7/site-packages/setuptools/namespaces.py',
   'PYMODULE'),
  ('setuptools.version',
   '/usr/lib/python2.7/site-packages/setuptools/version.py',
   'PYMODULE'),
  ('setuptools._deprecation_warning',
   '/usr/lib/python2.7/site-packages/setuptools/_deprecation_warning.py',
   'PYMODULE'),
  ('setuptools.extern',
   '/usr/lib/python2.7/site-packages/setuptools/extern/__init__.py',
   'PYMODULE'),
  ('distutils.filelist',
   '/usr/lib64/python2.7/distutils/filelist.py',
   'PYMODULE'),
  ('numpy.distutils.command.develop',
   '/usr/lib64/python2.7/site-packages/numpy/distutils/command/develop.py',
   'PYMODULE'),
  ('setuptools.command.develop',
   '/usr/lib/python2.7/site-packages/setuptools/command/develop.py',
   'PYMODULE'),
  ('numpy.distutils.command.install_clib',
   '/usr/lib64/python2.7/site-packages/numpy/distutils/command/install_clib.py',
   'PYMODULE'),
  ('numpy.distutils.command.bdist_rpm',
   '/usr/lib64/python2.7/site-packages/numpy/distutils/command/bdist_rpm.py',
   'PYMODULE'),
  ('distutils.command.bdist_rpm',
   '/usr/lib64/python2.7/distutils/command/bdist_rpm.py',
   'PYMODULE'),
  ('setuptools.command.bdist_rpm',
   '/usr/lib/python2.7/site-packages/setuptools/command/bdist_rpm.py',
   'PYMODULE'),
  ('numpy.distutils.command.install',
   '/usr/lib64/python2.7/site-packages/numpy/distutils/command/install.py',
   'PYMODULE'),
  ('setuptools.command.install',
   '/usr/lib/python2.7/site-packages/setuptools/command/install.py',
   'PYMODULE'),
  ('numpy.distutils.command.install_headers',
   '/usr/lib64/python2.7/site-packages/numpy/distutils/command/install_headers.py',
   'PYMODULE'),
  ('distutils.command.install_headers',
   '/usr/lib64/python2.7/distutils/command/install_headers.py',
   'PYMODULE'),
  ('numpy.distutils.command.install_data',
   '/usr/lib64/python2.7/site-packages/numpy/distutils/command/install_data.py',
   'PYMODULE'),
  ('distutils.command.install_data',
   '/usr/lib64/python2.7/distutils/command/install_data.py',
   'PYMODULE'),
  ('numpy.distutils.command.sdist',
   '/usr/lib64/python2.7/site-packages/numpy/distutils/command/sdist.py',
   'PYMODULE'),
  ('numpy.distutils.command.build_scripts',
   '/usr/lib64/python2.7/site-packages/numpy/distutils/command/build_scripts.py',
   'PYMODULE'),
  ('numpy.distutils.command.build_clib',
   '/usr/lib64/python2.7/site-packages/numpy/distutils/command/build_clib.py',
   'PYMODULE'),
  ('distutils.command.build_clib',
   '/usr/lib64/python2.7/distutils/command/build_clib.py',
   'PYMODULE'),
  ('numpy.distutils.command.build_ext',
   '/usr/lib64/python2.7/site-packages/numpy/distutils/command/build_ext.py',
   'PYMODULE'),
  ('numpy.distutils.system_info',
   '/usr/lib64/python2.7/site-packages/numpy/distutils/system_info.py',
   'PYMODULE'),
  ('numpy.f2py',
   '/usr/lib64/python2.7/site-packages/numpy/f2py/__init__.py',
   'PYMODULE'),
  ('numpy.f2py.diagnose',
   '/usr/lib64/python2.7/site-packages/numpy/f2py/diagnose.py',
   'PYMODULE'),
  ('numpy.f2py.f2py_testing',
   '/usr/lib64/python2.7/site-packages/numpy/f2py/f2py_testing.py',
   'PYMODULE'),
  ('numpy.testing',
   '/usr/lib64/python2.7/site-packages/numpy/testing/__init__.py',
   'PYMODULE'),
  ('numpy.testing._private.nosetester',
   '/usr/lib64/python2.7/site-packages/numpy/testing/_private/nosetester.py',
   'PYMODULE'),
  ('nose.plugins',
   '/usr/lib/python2.7/site-packages/nose/plugins/__init__.py',
   'PYMODULE'),
  ('nose.plugins.doctests',
   '/usr/lib/python2.7/site-packages/nose/plugins/doctests.py',
   'PYMODULE'),
  ('nose.ext.dtcompat',
   '/usr/lib/python2.7/site-packages/nose/ext/dtcompat.py',
   'PYMODULE'),
  ('nose.ext',
   '/usr/lib/python2.7/site-packages/nose/ext/__init__.py',
   'PYMODULE'),
  ('new', '/usr/lib64/python2.7/new.py', 'PYMODULE'),
  ('nose.util', '/usr/lib/python2.7/site-packages/nose/util.py', 'PYMODULE'),
  ('nose.tools',
   '/usr/lib/python2.7/site-packages/nose/tools/__init__.py',
   'PYMODULE'),
  ('nose.tools.trivial',
   '/usr/lib/python2.7/site-packages/nose/tools/trivial.py',
   'PYMODULE'),
  ('nose.tools.nontrivial',
   '/usr/lib/python2.7/site-packages/nose/tools/nontrivial.py',
   'PYMODULE'),
  ('sets', '/usr/lib64/python2.7/sets.py', 'PYMODULE'),
  ('nose.pyversion',
   '/usr/lib/python2.7/site-packages/nose/pyversion.py',
   'PYMODULE'),
  ('compiler.consts', '/usr/lib64/python2.7/compiler/consts.py', 'PYMODULE'),
  ('compiler', '/usr/lib64/python2.7/compiler/__init__.py', 'PYMODULE'),
  ('compiler.pycodegen',
   '/usr/lib64/python2.7/compiler/pycodegen.py',
   'PYMODULE'),
  ('compiler.ast', '/usr/lib64/python2.7/compiler/ast.py', 'PYMODULE'),
  ('compiler.symbols',
   '/usr/lib64/python2.7/compiler/symbols.py',
   'PYMODULE'),
  ('symtable', '/usr/lib64/python2.7/symtable.py', 'PYMODULE'),
  ('compiler.future', '/usr/lib64/python2.7/compiler/future.py', 'PYMODULE'),
  ('compiler.pyassem',
   '/usr/lib64/python2.7/compiler/pyassem.py',
   'PYMODULE'),
  ('compiler.misc', '/usr/lib64/python2.7/compiler/misc.py', 'PYMODULE'),
  ('compiler.syntax', '/usr/lib64/python2.7/compiler/syntax.py', 'PYMODULE'),
  ('compiler.visitor',
   '/usr/lib64/python2.7/compiler/visitor.py',
   'PYMODULE'),
  ('compiler.transformer',
   '/usr/lib64/python2.7/compiler/transformer.py',
   'PYMODULE'),
  ('symbol', '/usr/lib64/python2.7/symbol.py', 'PYMODULE'),
  ('nose.suite',
   '/usr/lib/python2.7/site-packages/nose/suite.py',
   'PYMODULE'),
  ('nose.proxy',
   '/usr/lib/python2.7/site-packages/nose/proxy.py',
   'PYMODULE'),
  ('nose.plugins.skip',
   '/usr/lib/python2.7/site-packages/nose/plugins/skip.py',
   'PYMODULE'),
  ('nose.plugins.errorclass',
   '/usr/lib/python2.7/site-packages/nose/plugins/errorclass.py',
   'PYMODULE'),
  ('nose.result',
   '/usr/lib/python2.7/site-packages/nose/result.py',
   'PYMODULE'),
  ('nose.config',
   '/usr/lib/python2.7/site-packages/nose/config.py',
   'PYMODULE'),
  ('nose.importer',
   '/usr/lib/python2.7/site-packages/nose/importer.py',
   'PYMODULE'),
  ('logging.config', '/usr/lib64/python2.7/logging/config.py', 'PYMODULE'),
  ('SocketServer', '/usr/lib64/python2.7/SocketServer.py', 'PYMODULE'),
  ('logging.handlers',
   '/usr/lib64/python2.7/logging/handlers.py',
   'PYMODULE'),
  ('smtplib', '/usr/lib64/python2.7/smtplib.py', 'PYMODULE'),
  ('nose.case', '/usr/lib/python2.7/site-packages/nose/case.py', 'PYMODULE'),
  ('nose.failure',
   '/usr/lib/python2.7/site-packages/nose/failure.py',
   'PYMODULE'),
  ('nose.plugins.plugintest',
   '/usr/lib/python2.7/site-packages/nose/plugins/plugintest.py',
   'PYMODULE'),
  ('nose.core', '/usr/lib/python2.7/site-packages/nose/core.py', 'PYMODULE'),
  ('nose.loader',
   '/usr/lib/python2.7/site-packages/nose/loader.py',
   'PYMODULE'),
  ('nose.selector',
   '/usr/lib/python2.7/site-packages/nose/selector.py',
   'PYMODULE'),
  ('nose.plugins.manager',
   '/usr/lib/python2.7/site-packages/nose/plugins/manager.py',
   'PYMODULE'),
  ('nose.exc', '/usr/lib/python2.7/site-packages/nose/exc.py', 'PYMODULE'),
  ('nose.plugins.deprecated',
   '/usr/lib/python2.7/site-packages/nose/plugins/deprecated.py',
   'PYMODULE'),
  ('nose.plugins.base',
   '/usr/lib/python2.7/site-packages/nose/plugins/base.py',
   'PYMODULE'),
  ('nose', '/usr/lib/python2.7/site-packages/nose/__init__.py', 'PYMODULE'),
  ('nose.plugins.builtin',
   '/usr/lib/python2.7/site-packages/nose/plugins/builtin.py',
   'PYMODULE'),
  ('numpy.testing._private.noseclasses',
   '/usr/lib64/python2.7/site-packages/numpy/testing/_private/noseclasses.py',
   'PYMODULE'),
  ('numpy.testing._private.decorators',
   '/usr/lib64/python2.7/site-packages/numpy/testing/_private/decorators.py',
   'PYMODULE'),
  ('numpy.testing._private.parameterized',
   '/usr/lib64/python2.7/site-packages/numpy/testing/_private/parameterized.py',
   'PYMODULE'),
  ('numpy.testing._private',
   '/usr/lib64/python2.7/site-packages/numpy/testing/_private/__init__.py',
   'PYMODULE'),
  ('numpy.testing._private.utils',
   '/usr/lib64/python2.7/site-packages/numpy/testing/_private/utils.py',
   'PYMODULE'),
  ('numpy.lib',
   '/usr/lib64/python2.7/site-packages/numpy/lib/__init__.py',
   'PYMODULE'),
  ('numpy.lib._version',
   '/usr/lib64/python2.7/site-packages/numpy/lib/_version.py',
   'PYMODULE'),
  ('numpy.lib.arraypad',
   '/usr/lib64/python2.7/site-packages/numpy/lib/arraypad.py',
   'PYMODULE'),
  ('numpy.lib.arrayterator',
   '/usr/lib64/python2.7/site-packages/numpy/lib/arrayterator.py',
   'PYMODULE'),
  ('numpy.lib.financial',
   '/usr/lib64/python2.7/site-packages/numpy/lib/financial.py',
   'PYMODULE'),
  ('numpy.lib.npyio',
   '/usr/lib64/python2.7/site-packages/numpy/lib/npyio.py',
   'PYMODULE'),
  ('numpy.lib._iotools',
   '/usr/lib64/python2.7/site-packages/numpy/lib/_iotools.py',
   'PYMODULE'),
  ('numpy.lib._datasource',
   '/usr/lib64/python2.7/site-packages/numpy/lib/_datasource.py',
   'PYMODULE'),
  ('urllib2', '/usr/lib64/python2.7/urllib2.py', 'PYMODULE'),
  ('cookielib', '/usr/lib64/python2.7/cookielib.py', 'PYMODULE'),
  ('_MozillaCookieJar',
   '/usr/lib64/python2.7/_MozillaCookieJar.py',
   'PYMODULE'),
  ('_LWPCookieJar', '/usr/lib64/python2.7/_LWPCookieJar.py', 'PYMODULE'),
  ('numpy.lib.format',
   '/usr/lib64/python2.7/site-packages/numpy/lib/format.py',
   'PYMODULE'),
  ('numpy.lib.arraysetops',
   '/usr/lib64/python2.7/site-packages/numpy/lib/arraysetops.py',
   'PYMODULE'),
  ('numpy.lib.polynomial',
   '/usr/lib64/python2.7/site-packages/numpy/lib/polynomial.py',
   'PYMODULE'),
  ('numpy.linalg',
   '/usr/lib64/python2.7/site-packages/numpy/linalg/__init__.py',
   'PYMODULE'),
  ('numpy.linalg.linalg',
   '/usr/lib64/python2.7/site-packages/numpy/linalg/linalg.py',
   'PYMODULE'),
  ('numpy.linalg.info',
   '/usr/lib64/python2.7/site-packages/numpy/linalg/info.py',
   'PYMODULE'),
  ('numpy.lib.scimath',
   '/usr/lib64/python2.7/site-packages/numpy/lib/scimath.py',
   'PYMODULE'),
  ('numpy.lib.histograms',
   '/usr/lib64/python2.7/site-packages/numpy/lib/histograms.py',
   'PYMODULE'),
  ('numpy.compat.py3k',
   '/usr/lib64/python2.7/site-packages/numpy/compat/py3k.py',
   'PYMODULE'),
  ('numpy.lib.ufunclike',
   '/usr/lib64/python2.7/site-packages/numpy/lib/ufunclike.py',
   'PYMODULE'),
  ('numpy.lib.twodim_base',
   '/usr/lib64/python2.7/site-packages/numpy/lib/twodim_base.py',
   'PYMODULE'),
  ('numpy.lib.stride_tricks',
   '/usr/lib64/python2.7/site-packages/numpy/lib/stride_tricks.py',
   'PYMODULE'),
  ('numpy.lib.shape_base',
   '/usr/lib64/python2.7/site-packages/numpy/lib/shape_base.py',
   'PYMODULE'),
  ('numpy.matrixlib.defmatrix',
   '/usr/lib64/python2.7/site-packages/numpy/matrixlib/defmatrix.py',
   'PYMODULE'),
  ('numpy.matrixlib',
   '/usr/lib64/python2.7/site-packages/numpy/matrixlib/__init__.py',
   'PYMODULE'),
  ('numpy.dual',
   '/usr/lib64/python2.7/site-packages/numpy/dual.py',
   'PYMODULE'),
  ('numpy.fft',
   '/usr/lib64/python2.7/site-packages/numpy/fft/__init__.py',
   'PYMODULE'),
  ('numpy.fft.helper',
   '/usr/lib64/python2.7/site-packages/numpy/fft/helper.py',
   'PYMODULE'),
  ('numpy.fft.fftpack',
   '/usr/lib64/python2.7/site-packages/numpy/fft/fftpack.py',
   'PYMODULE'),
  ('numpy.fft.info',
   '/usr/lib64/python2.7/site-packages/numpy/fft/info.py',
   'PYMODULE'),
  ('numpy.lib.nanfunctions',
   '/usr/lib64/python2.7/site-packages/numpy/lib/nanfunctions.py',
   'PYMODULE'),
  ('numpy.lib.function_base',
   '/usr/lib64/python2.7/site-packages/numpy/lib/function_base.py',
   'PYMODULE'),
  ('numpy.lib.index_tricks',
   '/usr/lib64/python2.7/site-packages/numpy/lib/index_tricks.py',
   'PYMODULE'),
  ('numpy.lib.type_check',
   '/usr/lib64/python2.7/site-packages/numpy/lib/type_check.py',
   'PYMODULE'),
  ('numpy.lib.info',
   '/usr/lib64/python2.7/site-packages/numpy/lib/info.py',
   'PYMODULE'),
  ('numpy.lib.utils',
   '/usr/lib64/python2.7/site-packages/numpy/lib/utils.py',
   'PYMODULE'),
  ('pydoc', '/usr/lib64/python2.7/pydoc.py', 'PYMODULE'),
  ('webbrowser', '/usr/lib64/python2.7/webbrowser.py', 'PYMODULE'),
  ('BaseHTTPServer', '/usr/lib64/python2.7/BaseHTTPServer.py', 'PYMODULE'),
  ('formatter', '/usr/lib64/python2.7/formatter.py', 'PYMODULE'),
  ('pydoc_data.topics',
   '/usr/lib64/python2.7/pydoc_data/topics.py',
   'PYMODULE'),
  ('pydoc_data', '/usr/lib64/python2.7/pydoc_data/__init__.py', 'PYMODULE'),
  ('tty', '/usr/lib64/python2.7/tty.py', 'PYMODULE'),
  ('numpy.f2py.f2py2e',
   '/usr/lib64/python2.7/site-packages/numpy/f2py/f2py2e.py',
   'PYMODULE'),
  ('numpy.distutils.command.build_src',
   '/usr/lib64/python2.7/site-packages/numpy/distutils/command/build_src.py',
   'PYMODULE'),
  ('numpy.distutils.conv_template',
   '/usr/lib64/python2.7/site-packages/numpy/distutils/conv_template.py',
   'PYMODULE'),
  ('numpy.distutils.from_template',
   '/usr/lib64/python2.7/site-packages/numpy/distutils/from_template.py',
   'PYMODULE'),
  ('numpy.f2py.auxfuncs',
   '/usr/lib64/python2.7/site-packages/numpy/f2py/auxfuncs.py',
   'PYMODULE'),
  ('numpy.f2py.f90mod_rules',
   '/usr/lib64/python2.7/site-packages/numpy/f2py/f90mod_rules.py',
   'PYMODULE'),
  ('numpy.f2py.rules',
   '/usr/lib64/python2.7/site-packages/numpy/f2py/rules.py',
   'PYMODULE'),
  ('numpy.f2py.use_rules',
   '/usr/lib64/python2.7/site-packages/numpy/f2py/use_rules.py',
   'PYMODULE'),
  ('numpy.f2py.common_rules',
   '/usr/lib64/python2.7/site-packages/numpy/f2py/common_rules.py',
   'PYMODULE'),
  ('numpy.f2py.func2subr',
   '/usr/lib64/python2.7/site-packages/numpy/f2py/func2subr.py',
   'PYMODULE'),
  ('numpy.f2py.crackfortran',
   '/usr/lib64/python2.7/site-packages/numpy/f2py/crackfortran.py',
   'PYMODULE'),
  ('fileinput', '/usr/lib64/python2.7/fileinput.py', 'PYMODULE'),
  ('numpy.f2py.cb_rules',
   '/usr/lib64/python2.7/site-packages/numpy/f2py/cb_rules.py',
   'PYMODULE'),
  ('numpy.f2py.capi_maps',
   '/usr/lib64/python2.7/site-packages/numpy/f2py/capi_maps.py',
   'PYMODULE'),
  ('numpy.f2py.cfuncs',
   '/usr/lib64/python2.7/site-packages/numpy/f2py/cfuncs.py',
   'PYMODULE'),
  ('numpy.f2py.__version__',
   '/usr/lib64/python2.7/site-packages/numpy/f2py/__version__.py',
   'PYMODULE'),
  ('configparser',
   '/usr/lib/python2.7/site-packages/configparser.py',
   'PYMODULE'),
  ('backports.configparser',
   '/usr/lib/python2.7/site-packages/backports/configparser/__init__.py',
   'PYMODULE'),
  ('backports.configparser.helpers',
   '/usr/lib/python2.7/site-packages/backports/configparser/helpers.py',
   'PYMODULE'),
  ('numpy.distutils.command.build_py',
   '/usr/lib64/python2.7/site-packages/numpy/distutils/command/build_py.py',
   'PYMODULE'),
  ('distutils.command.build_py',
   '/usr/lib64/python2.7/distutils/command/build_py.py',
   'PYMODULE'),
  ('numpy.distutils.command.build',
   '/usr/lib64/python2.7/site-packages/numpy/distutils/command/build.py',
   'PYMODULE'),
  ('distutils.command.build',
   '/usr/lib64/python2.7/distutils/command/build.py',
   'PYMODULE'),
  ('numpy.distutils.command.config',
   '/usr/lib64/python2.7/site-packages/numpy/distutils/command/config.py',
   'PYMODULE'),
  ('numpy.distutils.command.autodist',
   '/usr/lib64/python2.7/site-packages/numpy/distutils/command/autodist.py',
   'PYMODULE'),
  ('numpy.distutils.mingw32ccompiler',
   '/usr/lib64/python2.7/site-packages/numpy/distutils/mingw32ccompiler.py',
   'PYMODULE'),
  ('distutils.unixccompiler',
   '/usr/lib64/python2.7/distutils/unixccompiler.py',
   'PYMODULE'),
  ('distutils.cygwinccompiler',
   '/usr/lib64/python2.7/distutils/cygwinccompiler.py',
   'PYMODULE'),
  ('distutils.command.config',
   '/usr/lib64/python2.7/distutils/command/config.py',
   'PYMODULE'),
  ('distutils.core', '/usr/lib64/python2.7/distutils/core.py', 'PYMODULE'),
  ('distutils.config',
   '/usr/lib64/python2.7/distutils/config.py',
   'PYMODULE'),
  ('distutils.dist', '/usr/lib64/python2.7/distutils/dist.py', 'PYMODULE'),
  ('distutils.versionpredicate',
   '/usr/lib64/python2.7/distutils/versionpredicate.py',
   'PYMODULE'),
  ('numpy.distutils.core',
   '/usr/lib64/python2.7/site-packages/numpy/distutils/core.py',
   'PYMODULE'),
  ('numpy.distutils.numpy_distribution',
   '/usr/lib64/python2.7/site-packages/numpy/distutils/numpy_distribution.py',
   'PYMODULE'),
  ('numpy.distutils.extension',
   '/usr/lib64/python2.7/site-packages/numpy/distutils/extension.py',
   'PYMODULE'),
  ('numpy.distutils.fcompiler.environment',
   '/usr/lib64/python2.7/site-packages/numpy/distutils/fcompiler/environment.py',
   'PYMODULE'),
  ('numpy.distutils.exec_command',
   '/usr/lib64/python2.7/site-packages/numpy/distutils/exec_command.py',
   'PYMODULE'),
  ('numpy.distutils.misc_util',
   '/usr/lib64/python2.7/site-packages/numpy/distutils/misc_util.py',
   'PYMODULE'),
  ('curses', '/usr/lib64/python2.7/curses/__init__.py', 'PYMODULE'),
  ('curses.has_key', '/usr/lib64/python2.7/curses/has_key.py', 'PYMODULE'),
  ('curses.wrapper', '/usr/lib64/python2.7/curses/wrapper.py', 'PYMODULE'),
  ('numpy.distutils.__config__',
   '/usr/lib64/python2.7/site-packages/numpy/distutils/__config__.py',
   'PYMODULE'),
  ('numpy.distutils.npy_pkg_config',
   '/usr/lib64/python2.7/site-packages/numpy/distutils/npy_pkg_config.py',
   'PYMODULE'),
  ('numpy.distutils.info',
   '/usr/lib64/python2.7/site-packages/numpy/distutils/info.py',
   'PYMODULE'),
  ('numpy.distutils.unixccompiler',
   '/usr/lib64/python2.7/site-packages/numpy/distutils/unixccompiler.py',
   'PYMODULE'),
  ('numpy.distutils.ccompiler',
   '/usr/lib64/python2.7/site-packages/numpy/distutils/ccompiler.py',
   'PYMODULE'),
  ('numpy.distutils._shell_utils',
   '/usr/lib64/python2.7/site-packages/numpy/distutils/_shell_utils.py',
   'PYMODULE'),
  ('pipes', '/usr/lib64/python2.7/pipes.py', 'PYMODULE'),
  ('numpy.distutils.lib2def',
   '/usr/lib64/python2.7/site-packages/numpy/distutils/lib2def.py',
   'PYMODULE'),
  ('numpy.distutils.log',
   '/usr/lib64/python2.7/site-packages/numpy/distutils/log.py',
   'PYMODULE'),
  ('numpy.distutils.__version__',
   '/usr/lib64/python2.7/site-packages/numpy/distutils/__version__.py',
   'PYMODULE'),
  ('numpy.core._dtype',
   '/usr/lib64/python2.7/site-packages/numpy/core/_dtype.py',
   'PYMODULE'),
  ('numpy.core._dtype_ctypes',
   '/usr/lib64/python2.7/site-packages/numpy/core/_dtype_ctypes.py',
   'PYMODULE'),
  ('numpy.core._add_newdocs',
   '/usr/lib64/python2.7/site-packages/numpy/core/_add_newdocs.py',
   'PYMODULE'),
  ('numpy.core.einsumfunc',
   '/usr/lib64/python2.7/site-packages/numpy/core/einsumfunc.py',
   'PYMODULE'),
  ('numpy.core.shape_base',
   '/usr/lib64/python2.7/site-packages/numpy/core/shape_base.py',
   'PYMODULE'),
  ('numpy.core.getlimits',
   '/usr/lib64/python2.7/site-packages/numpy/core/getlimits.py',
   'PYMODULE'),
  ('numpy.core.machar',
   '/usr/lib64/python2.7/site-packages/numpy/core/machar.py',
   'PYMODULE'),
  ('numpy.core.function_base',
   '/usr/lib64/python2.7/site-packages/numpy/core/function_base.py',
   'PYMODULE'),
  ('numpy.core.memmap',
   '/usr/lib64/python2.7/site-packages/numpy/core/memmap.py',
   'PYMODULE'),
  ('numpy.core.defchararray',
   '/usr/lib64/python2.7/site-packages/numpy/core/defchararray.py',
   'PYMODULE'),
  ('glob', '/usr/lib64/python2.7/glob.py', 'PYMODULE'),
  ('numpy.version',
   '/usr/lib64/python2.7/site-packages/numpy/version.py',
   'PYMODULE'),
  ('numpy.core.info',
   '/usr/lib64/python2.7/site-packages/numpy/core/info.py',
   'PYMODULE'),
  ('numpy.compat',
   '/usr/lib64/python2.7/site-packages/numpy/compat/__init__.py',
   'PYMODULE'),
  ('numpy.core.numerictypes',
   '/usr/lib64/python2.7/site-packages/numpy/core/numerictypes.py',
   'PYMODULE'),
  ('numpy.core._type_aliases',
   '/usr/lib64/python2.7/site-packages/numpy/core/_type_aliases.py',
   'PYMODULE'),
  ('numpy.core._string_helpers',
   '/usr/lib64/python2.7/site-packages/numpy/core/_string_helpers.py',
   'PYMODULE'),
  ('pandas.core.panel',
   '/usr/lib64/python2.7/site-packages/pandas/core/panel.py',
   'PYMODULE'),
  ('pandas.io.excel',
   '/usr/lib64/python2.7/site-packages/pandas/io/excel.py',
   'PYMODULE'),
  ('pandas.plotting._core',
   '/usr/lib64/python2.7/site-packages/pandas/plotting/_core.py',
   'PYMODULE'),
  ('pandas.plotting._timeseries',
   '/usr/lib64/python2.7/site-packages/pandas/plotting/_timeseries.py',
   'PYMODULE'),
  ('pandas.tseries.offsets',
   '/usr/lib64/python2.7/site-packages/pandas/tseries/offsets.py',
   'PYMODULE'),
  ('pandas.tseries',
   '/usr/lib64/python2.7/site-packages/pandas/tseries/__init__.py',
   'PYMODULE'),
  ('pandas.plotting._converter',
   '/usr/lib64/python2.7/site-packages/pandas/plotting/_converter.py',
   'PYMODULE'),
  ('pandas.plotting._tools',
   '/usr/lib64/python2.7/site-packages/pandas/plotting/_tools.py',
   'PYMODULE'),
  ('pandas.plotting._style',
   '/usr/lib64/python2.7/site-packages/pandas/plotting/_style.py',
   'PYMODULE'),
  ('pandas.plotting._compat',
   '/usr/lib64/python2.7/site-packages/pandas/plotting/_compat.py',
   'PYMODULE'),
  ('pandas.plotting',
   '/usr/lib64/python2.7/site-packages/pandas/plotting/__init__.py',
   'PYMODULE'),
  ('pandas.plotting._misc',
   '/usr/lib64/python2.7/site-packages/pandas/plotting/_misc.py',
   'PYMODULE'),
  ('pandas.io.formats.console',
   '/usr/lib64/python2.7/site-packages/pandas/io/formats/console.py',
   'PYMODULE'),
  ('pandas.core.internals.construction',
   '/usr/lib64/python2.7/site-packages/pandas/core/internals/construction.py',
   'PYMODULE'),
  ('pandas.core.accessor',
   '/usr/lib64/python2.7/site-packages/pandas/core/accessor.py',
   'PYMODULE'),
  ('numpy.ma',
   '/usr/lib64/python2.7/site-packages/numpy/ma/__init__.py',
   'PYMODULE'),
  ('numpy.ma.extras',
   '/usr/lib64/python2.7/site-packages/numpy/ma/extras.py',
   'PYMODULE'),
  ('numpy.ma.core',
   '/usr/lib64/python2.7/site-packages/numpy/ma/core.py',
   'PYMODULE'),
  ('pandas.core.groupby.generic',
   '/usr/lib64/python2.7/site-packages/pandas/core/groupby/generic.py',
   'PYMODULE'),
  ('pandas.core.tools.datetimes',
   '/usr/lib64/python2.7/site-packages/pandas/core/tools/datetimes.py',
   'PYMODULE'),
  ('pandas.core.resample',
   '/usr/lib64/python2.7/site-packages/pandas/core/resample.py',
   'PYMODULE'),
  ('pandas.core.indexes.timedeltas',
   '/usr/lib64/python2.7/site-packages/pandas/core/indexes/timedeltas.py',
   'PYMODULE'),
  ('pandas.core.indexes.datetimelike',
   '/usr/lib64/python2.7/site-packages/pandas/core/indexes/datetimelike.py',
   'PYMODULE'),
  ('pandas.core.tools.timedeltas',
   '/usr/lib64/python2.7/site-packages/pandas/core/tools/timedeltas.py',
   'PYMODULE'),
  ('pandas.core.groupby.groupby',
   '/usr/lib64/python2.7/site-packages/pandas/core/groupby/groupby.py',
   'PYMODULE'),
  ('pandas.io.formats.csvs',
   '/usr/lib64/python2.7/site-packages/pandas/io/formats/csvs.py',
   'PYMODULE'),
  ('pandas.io.clipboards',
   '/usr/lib64/python2.7/site-packages/pandas/io/clipboards.py',
   'PYMODULE'),
  ('pandas.io.clipboard',
   '/usr/lib64/python2.7/site-packages/pandas/io/clipboard/__init__.py',
   'PYMODULE'),
  ('pandas.io.clipboard.windows',
   '/usr/lib64/python2.7/site-packages/pandas/io/clipboard/windows.py',
   'PYMODULE'),
  ('pandas.io.clipboard.exceptions',
   '/usr/lib64/python2.7/site-packages/pandas/io/clipboard/exceptions.py',
   'PYMODULE'),
  ('pandas.io.clipboard.clipboards',
   '/usr/lib64/python2.7/site-packages/pandas/io/clipboard/clipboards.py',
   'PYMODULE'),
  ('pandas.io.pickle',
   '/usr/lib64/python2.7/site-packages/pandas/io/pickle.py',
   'PYMODULE'),
  ('pandas.compat.pickle_compat',
   '/usr/lib64/python2.7/site-packages/pandas/compat/pickle_compat.py',
   'PYMODULE'),
  ('pandas.io.sql',
   '/usr/lib64/python2.7/site-packages/pandas/io/sql.py',
   'PYMODULE'),
  ('sqlalchemy.types',
   '/usr/lib64/python2.7/site-packages/sqlalchemy/types.py',
   'PYMODULE'),
  ('sqlalchemy.sql.type_api',
   '/usr/lib64/python2.7/site-packages/sqlalchemy/sql/type_api.py',
   'PYMODULE'),
  ('sqlalchemy.util',
   '/usr/lib64/python2.7/site-packages/sqlalchemy/util/__init__.py',
   'PYMODULE'),
  ('sqlalchemy.util.langhelpers',
   '/usr/lib64/python2.7/site-packages/sqlalchemy/util/langhelpers.py',
   'PYMODULE'),
  ('sqlalchemy.util.deprecations',
   '/usr/lib64/python2.7/site-packages/sqlalchemy/util/deprecations.py',
   'PYMODULE'),
  ('sqlalchemy.util.queue',
   '/usr/lib64/python2.7/site-packages/sqlalchemy/util/queue.py',
   'PYMODULE'),
  ('sqlalchemy.util.topological',
   '/usr/lib64/python2.7/site-packages/sqlalchemy/util/topological.py',
   'PYMODULE'),
  ('sqlalchemy.util.compat',
   '/usr/lib64/python2.7/site-packages/sqlalchemy/util/compat.py',
   'PYMODULE'),
  ('sqlalchemy.util._collections',
   '/usr/lib64/python2.7/site-packages/sqlalchemy/util/_collections.py',
   'PYMODULE'),
  ('sqlalchemy.exc',
   '/usr/lib64/python2.7/site-packages/sqlalchemy/exc.py',
   'PYMODULE'),
  ('sqlalchemy.sql.util',
   '/usr/lib64/python2.7/site-packages/sqlalchemy/sql/util.py',
   'PYMODULE'),
  ('sqlalchemy.sql.selectable',
   '/usr/lib64/python2.7/site-packages/sqlalchemy/sql/selectable.py',
   'PYMODULE'),
  ('sqlalchemy.inspection',
   '/usr/lib64/python2.7/site-packages/sqlalchemy/inspection.py',
   'PYMODULE'),
  ('sqlalchemy.sql.schema',
   '/usr/lib64/python2.7/site-packages/sqlalchemy/sql/schema.py',
   'PYMODULE'),
  ('sqlalchemy.event',
   '/usr/lib64/python2.7/site-packages/sqlalchemy/event/__init__.py',
   'PYMODULE'),
  ('sqlalchemy.event.base',
   '/usr/lib64/python2.7/site-packages/sqlalchemy/event/base.py',
   'PYMODULE'),
  ('sqlalchemy.event.attr',
   '/usr/lib64/python2.7/site-packages/sqlalchemy/event/attr.py',
   'PYMODULE'),
  ('sqlalchemy.event.api',
   '/usr/lib64/python2.7/site-packages/sqlalchemy/event/api.py',
   'PYMODULE'),
  ('sqlalchemy.event.registry',
   '/usr/lib64/python2.7/site-packages/sqlalchemy/event/registry.py',
   'PYMODULE'),
  ('sqlalchemy.event.legacy',
   '/usr/lib64/python2.7/site-packages/sqlalchemy/event/legacy.py',
   'PYMODULE'),
  ('sqlalchemy.sql.elements',
   '/usr/lib64/python2.7/site-packages/sqlalchemy/sql/elements.py',
   'PYMODULE'),
  ('sqlalchemy.sql.ddl',
   '/usr/lib64/python2.7/site-packages/sqlalchemy/sql/ddl.py',
   'PYMODULE'),
  ('sqlalchemy.sql.annotation',
   '/usr/lib64/python2.7/site-packages/sqlalchemy/sql/annotation.py',
   'PYMODULE'),
  ('sqlalchemy.sql.visitors',
   '/usr/lib64/python2.7/site-packages/sqlalchemy/sql/visitors.py',
   'PYMODULE'),
  ('sqlalchemy.sql.base',
   '/usr/lib64/python2.7/site-packages/sqlalchemy/sql/base.py',
   'PYMODULE'),
  ('sqlalchemy.sql.operators',
   '/usr/lib64/python2.7/site-packages/sqlalchemy/sql/operators.py',
   'PYMODULE'),
  ('sqlalchemy.sql',
   '/usr/lib64/python2.7/site-packages/sqlalchemy/sql/__init__.py',
   'PYMODULE'),
  ('sqlalchemy.sql.naming',
   '/usr/lib64/python2.7/site-packages/sqlalchemy/sql/naming.py',
   'PYMODULE'),
  ('sqlalchemy.events',
   '/usr/lib64/python2.7/site-packages/sqlalchemy/events.py',
   'PYMODULE'),
  ('sqlalchemy.pool',
   '/usr/lib64/python2.7/site-packages/sqlalchemy/pool/__init__.py',
   'PYMODULE'),
  ('sqlalchemy.pool.impl',
   '/usr/lib64/python2.7/site-packages/sqlalchemy/pool/impl.py',
   'PYMODULE'),
  ('sqlalchemy.pool.dbapi_proxy',
   '/usr/lib64/python2.7/site-packages/sqlalchemy/pool/dbapi_proxy.py',
   'PYMODULE'),
  ('sqlalchemy.pool.base',
   '/usr/lib64/python2.7/site-packages/sqlalchemy/pool/base.py',
   'PYMODULE'),
  ('sqlalchemy.log',
   '/usr/lib64/python2.7/site-packages/sqlalchemy/log.py',
   'PYMODULE'),
  ('sqlalchemy.interfaces',
   '/usr/lib64/python2.7/site-packages/sqlalchemy/interfaces.py',
   'PYMODULE'),
  ('sqlalchemy.engine',
   '/usr/lib64/python2.7/site-packages/sqlalchemy/engine/__init__.py',
   'PYMODULE'),
  ('sqlalchemy.engine.default',
   '/usr/lib64/python2.7/site-packages/sqlalchemy/engine/default.py',
   'PYMODULE'),
  ('sqlalchemy.sql.compiler',
   '/usr/lib64/python2.7/site-packages/sqlalchemy/sql/compiler.py',
   'PYMODULE'),
  ('sqlalchemy.sql.functions',
   '/usr/lib64/python2.7/site-packages/sqlalchemy/sql/functions.py',
   'PYMODULE'),
  ('sqlalchemy.processors',
   '/usr/lib64/python2.7/site-packages/sqlalchemy/processors.py',
   'PYMODULE'),
  ('sqlalchemy.engine.reflection',
   '/usr/lib64/python2.7/site-packages/sqlalchemy/engine/reflection.py',
   'PYMODULE'),
  ('sqlalchemy.engine.result',
   '/usr/lib64/python2.7/site-packages/sqlalchemy/engine/result.py',
   'PYMODULE'),
  ('sqlalchemy.engine.interfaces',
   '/usr/lib64/python2.7/site-packages/sqlalchemy/engine/interfaces.py',
   'PYMODULE'),
  ('sqlalchemy.engine.util',
   '/usr/lib64/python2.7/site-packages/sqlalchemy/engine/util.py',
   'PYMODULE'),
  ('sqlalchemy.engine.strategies',
   '/usr/lib64/python2.7/site-packages/sqlalchemy/engine/strategies.py',
   'PYMODULE'),
  ('sqlalchemy.engine.url',
   '/usr/lib64/python2.7/site-packages/sqlalchemy/engine/url.py',
   'PYMODULE'),
  ('sqlalchemy.dialects',
   '/usr/lib64/python2.7/site-packages/sqlalchemy/dialects/__init__.py',
   'PYMODULE'),
  ('sqlalchemy.engine.threadlocal',
   '/usr/lib64/python2.7/site-packages/sqlalchemy/engine/threadlocal.py',
   'PYMODULE'),
  ('sqlalchemy.engine.base',
   '/usr/lib64/python2.7/site-packages/sqlalchemy/engine/base.py',
   'PYMODULE'),
  ('sqlalchemy.sql.crud',
   '/usr/lib64/python2.7/site-packages/sqlalchemy/sql/crud.py',
   'PYMODULE'),
  ('sqlalchemy.sql.dml',
   '/usr/lib64/python2.7/site-packages/sqlalchemy/sql/dml.py',
   'PYMODULE'),
  ('sqlalchemy.sql.expression',
   '/usr/lib64/python2.7/site-packages/sqlalchemy/sql/expression.py',
   'PYMODULE'),
  ('sqlalchemy.sql.sqltypes',
   '/usr/lib64/python2.7/site-packages/sqlalchemy/sql/sqltypes.py',
   'PYMODULE'),
  ('sqlalchemy.schema',
   '/usr/lib64/python2.7/site-packages/sqlalchemy/schema.py',
   'PYMODULE'),
  ('sqlalchemy.ext.compiler',
   '/usr/lib64/python2.7/site-packages/sqlalchemy/ext/compiler.py',
   'PYMODULE'),
  ('sqlalchemy.ext',
   '/usr/lib64/python2.7/site-packages/sqlalchemy/ext/__init__.py',
   'PYMODULE'),
  ('sqlalchemy',
   '/usr/lib64/python2.7/site-packages/sqlalchemy/__init__.py',
   'PYMODULE'),
  ('sqlalchemy.sql.default_comparator',
   '/usr/lib64/python2.7/site-packages/sqlalchemy/sql/default_comparator.py',
   'PYMODULE'),
  ('sqlalchemy.dialects.sybase',
   '/usr/lib64/python2.7/site-packages/sqlalchemy/dialects/sybase/__init__.py',
   'PYMODULE'),
  ('sqlalchemy.dialects.sybase.pysybase',
   '/usr/lib64/python2.7/site-packages/sqlalchemy/dialects/sybase/pysybase.py',
   'PYMODULE'),
  ('sqlalchemy.dialects.sybase.pyodbc',
   '/usr/lib64/python2.7/site-packages/sqlalchemy/dialects/sybase/pyodbc.py',
   'PYMODULE'),
  ('sqlalchemy.connectors.pyodbc',
   '/usr/lib64/python2.7/site-packages/sqlalchemy/connectors/pyodbc.py',
   'PYMODULE'),
  ('sqlalchemy.connectors',
   '/usr/lib64/python2.7/site-packages/sqlalchemy/connectors/__init__.py',
   'PYMODULE'),
  ('sqlalchemy.dialects.sybase.base',
   '/usr/lib64/python2.7/site-packages/sqlalchemy/dialects/sybase/base.py',
   'PYMODULE'),
  ('sqlalchemy.dialects.sqlite',
   '/usr/lib64/python2.7/site-packages/sqlalchemy/dialects/sqlite/__init__.py',
   'PYMODULE'),
  ('sqlalchemy.dialects.sqlite.pysqlite',
   '/usr/lib64/python2.7/site-packages/sqlalchemy/dialects/sqlite/pysqlite.py',
   'PYMODULE'),
  ('sqlite3.dbapi2', '/usr/lib64/python2.7/sqlite3/dbapi2.py', 'PYMODULE'),
  ('sqlalchemy.dialects.sqlite.pysqlcipher',
   '/usr/lib64/python2.7/site-packages/sqlalchemy/dialects/sqlite/pysqlcipher.py',
   'PYMODULE'),
  ('sqlalchemy.dialects.sqlite.base',
   '/usr/lib64/python2.7/site-packages/sqlalchemy/dialects/sqlite/base.py',
   'PYMODULE'),
  ('sqlalchemy.dialects.sqlite.json',
   '/usr/lib64/python2.7/site-packages/sqlalchemy/dialects/sqlite/json.py',
   'PYMODULE'),
  ('sqlalchemy.dialects.postgresql',
   '/usr/lib64/python2.7/site-packages/sqlalchemy/dialects/postgresql/__init__.py',
   'PYMODULE'),
  ('sqlalchemy.dialects.postgresql.ranges',
   '/usr/lib64/python2.7/site-packages/sqlalchemy/dialects/postgresql/ranges.py',
   'PYMODULE'),
  ('sqlalchemy.dialects.postgresql.json',
   '/usr/lib64/python2.7/site-packages/sqlalchemy/dialects/postgresql/json.py',
   'PYMODULE'),
  ('sqlalchemy.dialects.postgresql.hstore',
   '/usr/lib64/python2.7/site-packages/sqlalchemy/dialects/postgresql/hstore.py',
   'PYMODULE'),
  ('sqlalchemy.dialects.postgresql.dml',
   '/usr/lib64/python2.7/site-packages/sqlalchemy/dialects/postgresql/dml.py',
   'PYMODULE'),
  ('sqlalchemy.dialects.postgresql.ext',
   '/usr/lib64/python2.7/site-packages/sqlalchemy/dialects/postgresql/ext.py',
   'PYMODULE'),
  ('sqlalchemy.dialects.postgresql.array',
   '/usr/lib64/python2.7/site-packages/sqlalchemy/dialects/postgresql/array.py',
   'PYMODULE'),
  ('sqlalchemy.dialects.postgresql.zxjdbc',
   '/usr/lib64/python2.7/site-packages/sqlalchemy/dialects/postgresql/zxjdbc.py',
   'PYMODULE'),
  ('sqlalchemy.connectors.zxJDBC',
   '/usr/lib64/python2.7/site-packages/sqlalchemy/connectors/zxJDBC.py',
   'PYMODULE'),
  ('sqlalchemy.dialects.postgresql.pypostgresql',
   '/usr/lib64/python2.7/site-packages/sqlalchemy/dialects/postgresql/pypostgresql.py',
   'PYMODULE'),
  ('sqlalchemy.dialects.postgresql.pygresql',
   '/usr/lib64/python2.7/site-packages/sqlalchemy/dialects/postgresql/pygresql.py',
   'PYMODULE'),
  ('sqlalchemy.dialects.postgresql.psycopg2cffi',
   '/usr/lib64/python2.7/site-packages/sqlalchemy/dialects/postgresql/psycopg2cffi.py',
   'PYMODULE'),
  ('sqlalchemy.dialects.postgresql.psycopg2',
   '/usr/lib64/python2.7/site-packages/sqlalchemy/dialects/postgresql/psycopg2.py',
   'PYMODULE'),
  ('sqlalchemy.dialects.postgresql.pg8000',
   '/usr/lib64/python2.7/site-packages/sqlalchemy/dialects/postgresql/pg8000.py',
   'PYMODULE'),
  ('sqlalchemy.dialects.postgresql.base',
   '/usr/lib64/python2.7/site-packages/sqlalchemy/dialects/postgresql/base.py',
   'PYMODULE'),
  ('sqlalchemy.dialects.oracle',
   '/usr/lib64/python2.7/site-packages/sqlalchemy/dialects/oracle/__init__.py',
   'PYMODULE'),
  ('sqlalchemy.dialects.oracle.zxjdbc',
   '/usr/lib64/python2.7/site-packages/sqlalchemy/dialects/oracle/zxjdbc.py',
   'PYMODULE'),
  ('sqlalchemy.dialects.oracle.cx_oracle',
   '/usr/lib64/python2.7/site-packages/sqlalchemy/dialects/oracle/cx_oracle.py',
   'PYMODULE'),
  ('sqlalchemy.dialects.oracle.base',
   '/usr/lib64/python2.7/site-packages/sqlalchemy/dialects/oracle/base.py',
   'PYMODULE'),
  ('sqlalchemy.dialects.mysql',
   '/usr/lib64/python2.7/site-packages/sqlalchemy/dialects/mysql/__init__.py',
   'PYMODULE'),
  ('sqlalchemy.dialects.mysql.dml',
   '/usr/lib64/python2.7/site-packages/sqlalchemy/dialects/mysql/dml.py',
   'PYMODULE'),
  ('sqlalchemy.dialects.mysql.zxjdbc',
   '/usr/lib64/python2.7/site-packages/sqlalchemy/dialects/mysql/zxjdbc.py',
   'PYMODULE'),
  ('sqlalchemy.dialects.mysql.pyodbc',
   '/usr/lib64/python2.7/site-packages/sqlalchemy/dialects/mysql/pyodbc.py',
   'PYMODULE'),
  ('sqlalchemy.dialects.mysql.types',
   '/usr/lib64/python2.7/site-packages/sqlalchemy/dialects/mysql/types.py',
   'PYMODULE'),
  ('sqlalchemy.dialects.mysql.pymysql',
   '/usr/lib64/python2.7/site-packages/sqlalchemy/dialects/mysql/pymysql.py',
   'PYMODULE'),
  ('sqlalchemy.dialects.mysql.oursql',
   '/usr/lib64/python2.7/site-packages/sqlalchemy/dialects/mysql/oursql.py',
   'PYMODULE'),
  ('sqlalchemy.dialects.mysql.mysqldb',
   '/usr/lib64/python2.7/site-packages/sqlalchemy/dialects/mysql/mysqldb.py',
   'PYMODULE'),
  ('sqlalchemy.dialects.mysql.mysqlconnector',
   '/usr/lib64/python2.7/site-packages/sqlalchemy/dialects/mysql/mysqlconnector.py',
   'PYMODULE'),
  ('sqlalchemy.dialects.mysql.gaerdbms',
   '/usr/lib64/python2.7/site-packages/sqlalchemy/dialects/mysql/gaerdbms.py',
   'PYMODULE'),
  ('sqlalchemy.dialects.mysql.cymysql',
   '/usr/lib64/python2.7/site-packages/sqlalchemy/dialects/mysql/cymysql.py',
   'PYMODULE'),
  ('sqlalchemy.dialects.mysql.base',
   '/usr/lib64/python2.7/site-packages/sqlalchemy/dialects/mysql/base.py',
   'PYMODULE'),
  ('sqlalchemy.dialects.mysql.json',
   '/usr/lib64/python2.7/site-packages/sqlalchemy/dialects/mysql/json.py',
   'PYMODULE'),
  ('sqlalchemy.dialects.mysql.enumerated',
   '/usr/lib64/python2.7/site-packages/sqlalchemy/dialects/mysql/enumerated.py',
   'PYMODULE'),
  ('sqlalchemy.dialects.mysql.reflection',
   '/usr/lib64/python2.7/site-packages/sqlalchemy/dialects/mysql/reflection.py',
   'PYMODULE'),
  ('sqlalchemy.dialects.mssql',
   '/usr/lib64/python2.7/site-packages/sqlalchemy/dialects/mssql/__init__.py',
   'PYMODULE'),
  ('sqlalchemy.dialects.mssql.zxjdbc',
   '/usr/lib64/python2.7/site-packages/sqlalchemy/dialects/mssql/zxjdbc.py',
   'PYMODULE'),
  ('sqlalchemy.dialects.mssql.pyodbc',
   '/usr/lib64/python2.7/site-packages/sqlalchemy/dialects/mssql/pyodbc.py',
   'PYMODULE'),
  ('sqlalchemy.dialects.mssql.pymssql',
   '/usr/lib64/python2.7/site-packages/sqlalchemy/dialects/mssql/pymssql.py',
   'PYMODULE'),
  ('sqlalchemy.dialects.mssql.mxodbc',
   '/usr/lib64/python2.7/site-packages/sqlalchemy/dialects/mssql/mxodbc.py',
   'PYMODULE'),
  ('sqlalchemy.connectors.mxodbc',
   '/usr/lib64/python2.7/site-packages/sqlalchemy/connectors/mxodbc.py',
   'PYMODULE'),
  ('sqlalchemy.dialects.mssql.adodbapi',
   '/usr/lib64/python2.7/site-packages/sqlalchemy/dialects/mssql/adodbapi.py',
   'PYMODULE'),
  ('sqlalchemy.dialects.mssql.information_schema',
   '/usr/lib64/python2.7/site-packages/sqlalchemy/dialects/mssql/information_schema.py',
   'PYMODULE'),
  ('sqlalchemy.dialects.mssql.base',
   '/usr/lib64/python2.7/site-packages/sqlalchemy/dialects/mssql/base.py',
   'PYMODULE'),
  ('sqlalchemy.dialects.firebird',
   '/usr/lib64/python2.7/site-packages/sqlalchemy/dialects/firebird/__init__.py',
   'PYMODULE'),
  ('sqlalchemy.dialects.firebird.kinterbasdb',
   '/usr/lib64/python2.7/site-packages/sqlalchemy/dialects/firebird/kinterbasdb.py',
   'PYMODULE'),
  ('sqlalchemy.dialects.firebird.fdb',
   '/usr/lib64/python2.7/site-packages/sqlalchemy/dialects/firebird/fdb.py',
   'PYMODULE'),
  ('sqlalchemy.dialects.firebird.base',
   '/usr/lib64/python2.7/site-packages/sqlalchemy/dialects/firebird/base.py',
   'PYMODULE'),
  ('pandas.io.packers',
   '/usr/lib64/python2.7/site-packages/pandas/io/packers.py',
   'PYMODULE'),
  ('pandas.io.msgpack',
   '/usr/lib64/python2.7/site-packages/pandas/io/msgpack/__init__.py',
   'PYMODULE'),
  ('pandas.io.msgpack._version',
   '/usr/lib64/python2.7/site-packages/pandas/io/msgpack/_version.py',
   'PYMODULE'),
  ('pandas.io.msgpack.exceptions',
   '/usr/lib64/python2.7/site-packages/pandas/io/msgpack/exceptions.py',
   'PYMODULE'),
  ('pandas.util',
   '/usr/lib64/python2.7/site-packages/pandas/util/__init__.py',
   'PYMODULE'),
  ('pandas.io.pytables',
   '/usr/lib64/python2.7/site-packages/pandas/io/pytables.py',
   'PYMODULE'),
  ('pandas.core.computation.pytables',
   '/usr/lib64/python2.7/site-packages/pandas/core/computation/pytables.py',
   'PYMODULE'),
  ('pandas.io.json',
   '/usr/lib64/python2.7/site-packages/pandas/io/json/__init__.py',
   'PYMODULE'),
  ('pandas.io.json.table_schema',
   '/usr/lib64/python2.7/site-packages/pandas/io/json/table_schema.py',
   'PYMODULE'),
  ('pandas.io.json.normalize',
   '/usr/lib64/python2.7/site-packages/pandas/io/json/normalize.py',
   'PYMODULE'),
  ('pandas.io.json.json',
   '/usr/lib64/python2.7/site-packages/pandas/io/json/json.py',
   'PYMODULE'),
  ('pandas.io',
   '/usr/lib64/python2.7/site-packages/pandas/io/__init__.py',
   'PYMODULE'),
  ('pandas.io.gcs',
   '/usr/lib64/python2.7/site-packages/pandas/io/gcs.py',
   'PYMODULE'),
  ('pandas.io.s3',
   '/usr/lib64/python2.7/site-packages/pandas/io/s3.py',
   'PYMODULE'),
  ('pandas.io.formats.excel',
   '/usr/lib64/python2.7/site-packages/pandas/io/formats/excel.py',
   'PYMODULE'),
  ('pandas.io.formats.css',
   '/usr/lib64/python2.7/site-packages/pandas/io/formats/css.py',
   'PYMODULE'),
  ('pandas.tseries.frequencies',
   '/usr/lib64/python2.7/site-packages/pandas/tseries/frequencies.py',
   'PYMODULE'),
  ('pytz', '/usr/lib/python2.7/site-packages/pytz/__init__.py', 'PYMODULE'),
  ('pytz.tzfile',
   '/usr/lib/python2.7/site-packages/pytz/tzfile.py',
   'PYMODULE'),
  ('pytz.tzinfo',
   '/usr/lib/python2.7/site-packages/pytz/tzinfo.py',
   'PYMODULE'),
  ('pytz.lazy', '/usr/lib/python2.7/site-packages/pytz/lazy.py', 'PYMODULE'),
  ('pytz.exceptions',
   '/usr/lib/python2.7/site-packages/pytz/exceptions.py',
   'PYMODULE'),
  ('pandas.core.indexes.period',
   '/usr/lib64/python2.7/site-packages/pandas/core/indexes/period.py',
   'PYMODULE'),
  ('pandas.core.reshape',
   '/usr/lib64/python2.7/site-packages/pandas/core/reshape/__init__.py',
   'PYMODULE'),
  ('pandas.io.formats.terminal',
   '/usr/lib64/python2.7/site-packages/pandas/io/formats/terminal.py',
   'PYMODULE'),
  ('pandas.io.common',
   '/usr/lib64/python2.7/site-packages/pandas/io/common.py',
   'PYMODULE'),
  ('pandas.core.indexes.datetimes',
   '/usr/lib64/python2.7/site-packages/pandas/core/indexes/datetimes.py',
   'PYMODULE'),
  ('pandas.core.base',
   '/usr/lib64/python2.7/site-packages/pandas/core/base.py',
   'PYMODULE'),
  ('pandas.io.formats',
   '/usr/lib64/python2.7/site-packages/pandas/io/formats/__init__.py',
   'PYMODULE'),
  ('pandas.core.reshape.util',
   '/usr/lib64/python2.7/site-packages/pandas/core/reshape/util.py',
   'PYMODULE'),
  ('pandas.io.formats.printing',
   '/usr/lib64/python2.7/site-packages/pandas/io/formats/printing.py',
   'PYMODULE'),
  ('pandas.core.indexes.frozen',
   '/usr/lib64/python2.7/site-packages/pandas/core/indexes/frozen.py',
   'PYMODULE'),
  ('pandas.core.indexes.base',
   '/usr/lib64/python2.7/site-packages/pandas/core/indexes/base.py',
   'PYMODULE'),
  ('pandas.core.indexes.interval',
   '/usr/lib64/python2.7/site-packages/pandas/core/indexes/interval.py',
   'PYMODULE'),
  ('pandas.util._exceptions',
   '/usr/lib64/python2.7/site-packages/pandas/util/_exceptions.py',
   'PYMODULE'),
  ('pandas.util._doctools',
   '/usr/lib64/python2.7/site-packages/pandas/util/_doctools.py',
   'PYMODULE'),
  ('pandas.core.indexes.category',
   '/usr/lib64/python2.7/site-packages/pandas/core/indexes/category.py',
   'PYMODULE'),
  ('pandas.core.indexes.range',
   '/usr/lib64/python2.7/site-packages/pandas/core/indexes/range.py',
   'PYMODULE'),
  ('pandas.core.strings',
   '/usr/lib64/python2.7/site-packages/pandas/core/strings.py',
   'PYMODULE'),
  ('pandas.core.config',
   '/usr/lib64/python2.7/site-packages/pandas/core/config.py',
   'PYMODULE'),
  ('pandas.core.indexes.api',
   '/usr/lib64/python2.7/site-packages/pandas/core/indexes/api.py',
   'PYMODULE'),
  ('pandas.errors',
   '/usr/lib64/python2.7/site-packages/pandas/errors/__init__.py',
   'PYMODULE'),
  ('pandas.core.reshape.tile',
   '/usr/lib64/python2.7/site-packages/pandas/core/reshape/tile.py',
   'PYMODULE'),
  ('pandas.core.series',
   '/usr/lib64/python2.7/site-packages/pandas/core/series.py',
   'PYMODULE'),
  ('pandas.core.sparse.series',
   '/usr/lib64/python2.7/site-packages/pandas/core/sparse/series.py',
   'PYMODULE'),
  ('pandas.core.sparse',
   '/usr/lib64/python2.7/site-packages/pandas/core/sparse/__init__.py',
   'PYMODULE'),
  ('pandas.core.sparse.scipy_sparse',
   '/usr/lib64/python2.7/site-packages/pandas/core/sparse/scipy_sparse.py',
   'PYMODULE'),
  ('pandas.core.indexes.accessors',
   '/usr/lib64/python2.7/site-packages/pandas/core/indexes/accessors.py',
   'PYMODULE'),
  ('pandas.core.sorting',
   '/usr/lib64/python2.7/site-packages/pandas/core/sorting.py',
   'PYMODULE'),
  ('pandas.core.common',
   '/usr/lib64/python2.7/site-packages/pandas/core/common.py',
   'PYMODULE'),
  ('pandas.core.dtypes.missing',
   '/usr/lib64/python2.7/site-packages/pandas/core/dtypes/missing.py',
   'PYMODULE'),
  ('pandas.core.dtypes.common',
   '/usr/lib64/python2.7/site-packages/pandas/core/dtypes/common.py',
   'PYMODULE'),
  ('pandas.core.dtypes.cast',
   '/usr/lib64/python2.7/site-packages/pandas/core/dtypes/cast.py',
   'PYMODULE'),
  ('pandas.util._decorators',
   '/usr/lib64/python2.7/site-packages/pandas/util/_decorators.py',
   'PYMODULE'),
  ('pandas.core.internals.arrays',
   '/usr/lib64/python2.7/site-packages/pandas/core/internals/arrays.py',
   'PYMODULE'),
  ('numpy.lib.mixins',
   '/usr/lib64/python2.7/site-packages/numpy/lib/mixins.py',
   'PYMODULE'),
  ('pandas.core.missing',
   '/usr/lib64/python2.7/site-packages/pandas/core/missing.py',
   'PYMODULE'),
  ('pandas.core.nanops',
   '/usr/lib64/python2.7/site-packages/pandas/core/nanops.py',
   'PYMODULE'),
  ('pandas.compat',
   '/usr/lib64/python2.7/site-packages/pandas/compat/__init__.py',
   'PYMODULE'),
  ('typing', '/usr/lib/python2.7/site-packages/typing.py', 'PYMODULE'),
  ('pandas.compat.chainmap',
   '/usr/lib64/python2.7/site-packages/pandas/compat/chainmap.py',
   'PYMODULE'),
  ('pandas.compat.chainmap_impl',
   '/usr/lib64/python2.7/site-packages/pandas/compat/chainmap_impl.py',
   'PYMODULE'),
  ('pandas.core.dtypes.inference',
   '/usr/lib64/python2.7/site-packages/pandas/core/dtypes/inference.py',
   'PYMODULE'),
  ('pandas.core.dtypes.generic',
   '/usr/lib64/python2.7/site-packages/pandas/core/dtypes/generic.py',
   'PYMODULE'),
  ('pandas.core.dtypes.dtypes',
   '/usr/lib64/python2.7/site-packages/pandas/core/dtypes/dtypes.py',
   'PYMODULE'),
  ('pandas.core.dtypes.base',
   '/usr/lib64/python2.7/site-packages/pandas/core/dtypes/base.py',
   'PYMODULE'),
  ('pandas.util._validators',
   '/usr/lib64/python2.7/site-packages/pandas/util/_validators.py',
   'PYMODULE'),
  ('pandas.compat.numpy.function',
   '/usr/lib64/python2.7/site-packages/pandas/compat/numpy/function.py',
   'PYMODULE'),
  ('numpy',
   '/usr/lib64/python2.7/site-packages/numpy/__init__.py',
   'PYMODULE'),
  ('numpy.ctypeslib',
   '/usr/lib64/python2.7/site-packages/numpy/ctypeslib.py',
   'PYMODULE'),
  ('numpy.random',
   '/usr/lib64/python2.7/site-packages/numpy/random/__init__.py',
   'PYMODULE'),
  ('numpy.polynomial',
   '/usr/lib64/python2.7/site-packages/numpy/polynomial/__init__.py',
   'PYMODULE'),
  ('numpy.polynomial.laguerre',
   '/usr/lib64/python2.7/site-packages/numpy/polynomial/laguerre.py',
   'PYMODULE'),
  ('numpy.polynomial._polybase',
   '/usr/lib64/python2.7/site-packages/numpy/polynomial/_polybase.py',
   'PYMODULE'),
  ('numpy.polynomial.hermite_e',
   '/usr/lib64/python2.7/site-packages/numpy/polynomial/hermite_e.py',
   'PYMODULE'),
  ('numpy.polynomial.hermite',
   '/usr/lib64/python2.7/site-packages/numpy/polynomial/hermite.py',
   'PYMODULE'),
  ('numpy.polynomial.legendre',
   '/usr/lib64/python2.7/site-packages/numpy/polynomial/legendre.py',
   'PYMODULE'),
  ('numpy.polynomial.chebyshev',
   '/usr/lib64/python2.7/site-packages/numpy/polynomial/chebyshev.py',
   'PYMODULE'),
  ('numpy.polynomial.polynomial',
   '/usr/lib64/python2.7/site-packages/numpy/polynomial/polynomial.py',
   'PYMODULE'),
  ('numpy.polynomial.polyutils',
   '/usr/lib64/python2.7/site-packages/numpy/polynomial/polyutils.py',
   'PYMODULE'),
  ('numpy._distributor_init',
   '/usr/lib64/python2.7/site-packages/numpy/_distributor_init.py',
   'PYMODULE'),
  ('numpy.__config__',
   '/usr/lib64/python2.7/site-packages/numpy/__config__.py',
   'PYMODULE'),
  ('numbers', '/usr/lib64/python2.7/numbers.py', 'PYMODULE'),
  ('pandas.core.arrays.sparse',
   '/usr/lib64/python2.7/site-packages/pandas/core/arrays/sparse.py',
   'PYMODULE'),
  ('pandas.core.arrays.integer',
   '/usr/lib64/python2.7/site-packages/pandas/core/arrays/integer.py',
   'PYMODULE'),
  ('pandas.core.arrays.timedeltas',
   '/usr/lib64/python2.7/site-packages/pandas/core/arrays/timedeltas.py',
   'PYMODULE'),
  ('pandas.core.arrays.period',
   '/usr/lib64/python2.7/site-packages/pandas/core/arrays/period.py',
   'PYMODULE'),
  ('pandas.core.arrays.interval',
   '/usr/lib64/python2.7/site-packages/pandas/core/arrays/interval.py',
   'PYMODULE'),
  ('pandas.core.arrays.datetimes',
   '/usr/lib64/python2.7/site-packages/pandas/core/arrays/datetimes.py',
   'PYMODULE'),
  ('pandas.core.arrays._ranges',
   '/usr/lib64/python2.7/site-packages/pandas/core/arrays/_ranges.py',
   'PYMODULE'),
  ('pandas.core.arrays.categorical',
   '/usr/lib64/python2.7/site-packages/pandas/core/arrays/categorical.py',
   'PYMODULE'),
  ('pandas.core.arrays.base',
   '/usr/lib64/python2.7/site-packages/pandas/core/arrays/base.py',
   'PYMODULE'),
  ('pandas.core.arrays.array_',
   '/usr/lib64/python2.7/site-packages/pandas/core/arrays/array_.py',
   'PYMODULE'),
  ('pandas.core.arrays.datetimelike',
   '/usr/lib64/python2.7/site-packages/pandas/core/arrays/datetimelike.py',
   'PYMODULE'),
  ('pandas.core',
   '/usr/lib64/python2.7/site-packages/pandas/core/__init__.py',
   'PYMODULE'),
  ('pandas.testing',
   '/usr/lib64/python2.7/site-packages/pandas/testing.py',
   'PYMODULE'),
  ('pandas.util.testing',
   '/usr/lib64/python2.7/site-packages/pandas/util/testing.py',
   'PYMODULE'),
  ('pandas.util._tester',
   '/usr/lib64/python2.7/site-packages/pandas/util/_tester.py',
   'PYMODULE'),
  ('pandas.io.api',
   '/usr/lib64/python2.7/site-packages/pandas/io/api.py',
   'PYMODULE'),
  ('pandas.io.sas',
   '/usr/lib64/python2.7/site-packages/pandas/io/sas/__init__.py',
   'PYMODULE'),
  ('pandas.io.sas.sasreader',
   '/usr/lib64/python2.7/site-packages/pandas/io/sas/sasreader.py',
   'PYMODULE'),
  ('pandas.io.sas.sas7bdat',
   '/usr/lib64/python2.7/site-packages/pandas/io/sas/sas7bdat.py',
   'PYMODULE'),
  ('pandas.io.sas.sas_constants',
   '/usr/lib64/python2.7/site-packages/pandas/io/sas/sas_constants.py',
   'PYMODULE'),
  ('pandas.io.sas.sas_xport',
   '/usr/lib64/python2.7/site-packages/pandas/io/sas/sas_xport.py',
   'PYMODULE'),
  ('pandas.io.html',
   '/usr/lib64/python2.7/site-packages/pandas/io/html.py',
   'PYMODULE'),
  ('pandas.util._print_versions',
   '/usr/lib64/python2.7/site-packages/pandas/util/_print_versions.py',
   'PYMODULE'),
  ('pandas.core.reshape.api',
   '/usr/lib64/python2.7/site-packages/pandas/core/reshape/api.py',
   'PYMODULE'),
  ('pandas.core.computation.api',
   '/usr/lib64/python2.7/site-packages/pandas/core/computation/api.py',
   'PYMODULE'),
  ('pandas.tseries.api',
   '/usr/lib64/python2.7/site-packages/pandas/tseries/api.py',
   'PYMODULE'),
  ('pandas.core.sparse.api',
   '/usr/lib64/python2.7/site-packages/pandas/core/sparse/api.py',
   'PYMODULE'),
  ('pandas.core.sparse.frame',
   '/usr/lib64/python2.7/site-packages/pandas/core/sparse/frame.py',
   'PYMODULE'),
  ('pandas.core.api',
   '/usr/lib64/python2.7/site-packages/pandas/core/api.py',
   'PYMODULE'),
  ('pandas.core.config_init',
   '/usr/lib64/python2.7/site-packages/pandas/core/config_init.py',
   'PYMODULE'),
  ('pandas._libs',
   '/usr/lib64/python2.7/site-packages/pandas/_libs/__init__.py',
   'PYMODULE'),
  ('pandas.compat.numpy',
   '/usr/lib64/python2.7/site-packages/pandas/compat/numpy/__init__.py',
   'PYMODULE'),
  ('os', '/usr/lib64/python2.7/os.py', 'PYMODULE'),
  ('os2emxpath', '/usr/lib64/python2.7/os2emxpath.py', 'PYMODULE'),
  ('pymysql',
   '/usr/lib64/python2.7/site-packages/pymysql/__init__.py',
   'PYMODULE'),
  ('pymysql.connections',
   '/usr/lib64/python2.7/site-packages/pymysql/connections.py',
   'PYMODULE'),
  ('pymysql._socketio',
   '/usr/lib64/python2.7/site-packages/pymysql/_socketio.py',
   'PYMODULE'),
  ('pymysql.util',
   '/usr/lib64/python2.7/site-packages/pymysql/util.py',
   'PYMODULE'),
  ('pymysql.protocol',
   '/usr/lib64/python2.7/site-packages/pymysql/protocol.py',
   'PYMODULE'),
  ('pymysql.optionfile',
   '/usr/lib64/python2.7/site-packages/pymysql/optionfile.py',
   'PYMODULE'),
  ('pymysql.cursors',
   '/usr/lib64/python2.7/site-packages/pymysql/cursors.py',
   'PYMODULE'),
  ('pymysql.constants.SERVER_STATUS',
   '/usr/lib64/python2.7/site-packages/pymysql/constants/SERVER_STATUS.py',
   'PYMODULE'),
  ('pymysql.constants.CR',
   '/usr/lib64/python2.7/site-packages/pymysql/constants/CR.py',
   'PYMODULE'),
  ('pymysql.constants.COMMAND',
   '/usr/lib64/python2.7/site-packages/pymysql/constants/COMMAND.py',
   'PYMODULE'),
  ('pymysql.constants.CLIENT',
   '/usr/lib64/python2.7/site-packages/pymysql/constants/CLIENT.py',
   'PYMODULE'),
  ('pymysql.charset',
   '/usr/lib64/python2.7/site-packages/pymysql/charset.py',
   'PYMODULE'),
  ('pymysql._auth',
   '/usr/lib64/python2.7/site-packages/pymysql/_auth.py',
   'PYMODULE'),
  ('pymysql.times',
   '/usr/lib64/python2.7/site-packages/pymysql/times.py',
   'PYMODULE'),
  ('pymysql.err',
   '/usr/lib64/python2.7/site-packages/pymysql/err.py',
   'PYMODULE'),
  ('pymysql.constants.ER',
   '/usr/lib64/python2.7/site-packages/pymysql/constants/ER.py',
   'PYMODULE'),
  ('pymysql.converters',
   '/usr/lib64/python2.7/site-packages/pymysql/converters.py',
   'PYMODULE'),
  ('pymysql.constants.FLAG',
   '/usr/lib64/python2.7/site-packages/pymysql/constants/FLAG.py',
   'PYMODULE'),
  ('pymysql.constants.FIELD_TYPE',
   '/usr/lib64/python2.7/site-packages/pymysql/constants/FIELD_TYPE.py',
   'PYMODULE'),
  ('pymysql.constants',
   '/usr/lib64/python2.7/site-packages/pymysql/constants/__init__.py',
   'PYMODULE'),
  ('pymysql._compat',
   '/usr/lib64/python2.7/site-packages/pymysql/_compat.py',
   'PYMODULE'),
  ('sqlite3', '/usr/lib64/python2.7/sqlite3/__init__.py', 'PYMODULE'),
  ('sqlite3.dump', '/usr/lib64/python2.7/sqlite3/dump.py', 'PYMODULE')])
